ply
format ascii 1.0
comment VCGLIB generated
element vertex 534
property float x
property float y
property float z
property float nx
property float ny
property float nz
property float texture_u
property float texture_v
element face 246
property list uchar int vertex_indices
end_header
-0.73448 -0.112908 -0.73448 0 -1 -0 0.483251 0.880625
0.73448 -0.112908 0.73448 0 -1 -0 0.332371 0.729745
-0.73448 -0.112908 0.73448 0 -1 -0 0.332371 0.880625
0.73448 1.356052 -0.73448 1 -0 0 0.483252 0.345734
0.73448 4.715786 0.73448 1 -0 0 0.332371 0.000647
0.73448 1.356052 0.73448 1 -0 0 0.332371 0.345734
-0.73448 1.356052 0.734479 -1 -0 -0 0.635427 0.151528
-0.73448 -0.112908 -0.73448 -1 -0 -0 0.484546 0.000647
-0.73448 -0.112908 0.73448 -1 -0 -0 0.635427 0.000647
-0.734479 1.356052 -0.73448 0 -0 -1 0.332371 0.345734
0.73448 -0.112908 -0.73448 0 -0 -1 0.483252 0.496615
-0.73448 -0.112908 -0.73448 0 -0 -1 0.332371 0.496615
0.73448 -0.112908 0.73448 1 -0 0 0.332371 0.496615
0.73448 -0.112908 -0.73448 1 -0 0 0.483252 0.496615
-0.73448 -0.112908 0.73448 -0 0 1 0.782116 0.800966
0.73448 1.356052 0.73448 -0 0 1 0.631235 0.650085
-0.73448 1.356052 0.734479 -0 0 1 0.631235 0.800966
0.73448 4.715786 -0.73448 1 -0 0 0.303704 0.411002
0.73448 5.687723 0.73448 1 -0 0 0.152823 0.311172
0.73448 4.715786 0.73448 1 -0 0 0.152823 0.411002
-0.73448 1.356052 0.734479 -0 0 1 0.636722 0.345734
0.73448 1.356052 0.73448 -0 0 1 0.787603 0.345734
-0.276336 3.091405 0.734479 -0 0 1 0.683779 0.167492
0.73448 1.356052 -0.73448 -0 0 -1 0.483252 0.345734
-0.241159 3.151869 -0.734479 -0 0 -1 0.383041 0.161281
0.301756 3.159657 -0.734479 -0 0 -1 0.438805 0.160481
-0.73448 1.356052 0.734479 -1 0 -1e-06 0.635427 0.151528
-0.734479 4.715786 -0.73448 -1 0 -1e-06 0.484546 0.496615
-0.734479 1.356052 -0.73448 -1 0 -1e-06 0.484546 0.151528
0.268255 3.118689 2.378613 -2e-06 -1e-06 1 0.881030 0.724049
-0.279273 3.774025 2.378613 -2e-06 -1e-06 1 0.949138 0.668778
-0.276336 3.091405 2.378612 -2e-06 -1e-06 1 0.879028 0.668078
-0.279273 3.774025 0.73448 2e-06 1e-06 1 0.104773 0.559528
0.251837 3.781616 0.734479 2e-06 1e-06 1 0.050221 0.560308
-0.73448 4.715786 0.734479 2e-06 1e-06 1 0.151528 0.656259
0.090053 2.409973 2.057624 0.05004 -0.998747 -4e-06 0.814643 0.331237
-0.033442 2.403786 1.949494 0.05004 -0.998747 -4e-06 0.826467 0.343255
0.101959 2.41057 1.941618 0.05004 -0.998747 -4e-06 0.826467 0.329324
0.251837 3.781616 2.378612 -0.014289 0.999898 -3e-06 0.287034 0.821097
0.054396 3.778794 2.174049 -0.014289 0.999898 -3e-06 0.266754 0.842108
0.063098 3.778919 2.283028 -0.014289 0.999898 -3e-06 0.267648 0.830914
-0.279273 3.774025 0.73448 -0.999991 -0.004302 -0 0.879028 0.497910
-0.276336 3.091405 2.378612 -0.999991 -0.004302 -0 0.949141 0.666783
-0.279273 3.774025 2.378613 -0.999991 -0.004302 -0 0.879028 0.666783
0.268255 3.118689 2.011703 0.999693 0.02476 0 0.631235 0.839947
0.251837 3.781616 1.980289 0.999693 0.02476 0 0.699326 0.843174
0.268255 3.118689 2.16476 0.999693 0.02476 0 0.631235 0.824226
0.287132 3.840995 -2.381738 2e-06 -3e-06 -1 0.842353 0.904014
-0.241158 3.151865 -2.381737 2e-06 -3e-06 -1 0.786585 0.973615
-0.287507 3.871231 -2.381739 2e-06 -3e-06 -1 0.783411 0.899642
0.73448 4.715786 -0.73448 0 1e-06 -1 0.303704 0.411002
-0.287509 3.871234 -0.734481 0 1e-06 -1 0.198732 0.497748
-0.734479 4.715786 -0.73448 0 1e-06 -1 0.152823 0.411002
0.301756 3.159657 -0.734479 0.99977 0.021461 1e-06 0.937947 0.422064
0.287132 3.840995 -2.381738 0.99977 0.021461 1e-06 0.867965 0.252870
0.287131 3.840999 -0.73448 0.99977 0.021461 1e-06 0.867965 0.422064
-0.287509 3.871234 -0.734481 -0.997931 -0.064298 -1e-06 0.783411 0.898347
-0.241158 3.151865 -2.381737 -0.997931 -0.064298 -1e-06 0.857299 0.729153
-0.241159 3.151869 -0.734479 -0.997931 -0.064298 -1e-06 0.857299 0.898347
0.301756 3.159657 -0.734479 0.014344 -0.999897 2e-06 0.983759 0.000647
-0.241158 3.151865 -2.381737 0.014344 -0.999897 2e-06 0.927995 0.169841
0.301757 3.159654 -2.381737 0.014344 -0.999897 2e-06 0.983759 0.169842
-0.287509 3.871234 -0.734481 0.052544 0.998619 -2e-06 0.549089 0.898836
0.287132 3.840995 -2.381738 0.052544 0.998619 -2e-06 0.490066 0.729642
-0.287507 3.871231 -2.381739 0.052544 0.998619 -2e-06 0.549089 0.729642
-0.734479 5.687723 -0.73448 0 0 -1 0.480508 0.648790
0.73448 5.89208 -0.73448 0 0 -1 0.459518 0.497910
0.73448 5.687723 -0.73448 0 0 -1 0.480508 0.497910
0.73448 4.715786 0.73448 -0 0 1 0.000647 0.656259
-0.73448 5.687723 0.734479 -0 0 1 0.151528 0.756089
-0.73448 4.715786 0.734479 -0 0 1 0.151528 0.656259
-0.734479 4.715786 -0.73448 0 0 -1 0.152823 0.411002
0.73448 5.687723 -0.73448 0 0 -1 0.303704 0.311172
0.73448 4.715786 -0.73448 0 0 -1 0.303704 0.411002
-0.73448 4.715786 0.734479 -1 0 -1e-06 0.151528 0.656259
-0.734479 5.687723 -0.73448 -1 0 -1e-06 0.000647 0.756089
-0.734479 4.715786 -0.73448 -1 0 -1e-06 0.000647 0.656259
0.73448 5.89208 -0.73448 1 -0 0 0.459518 0.497910
0.73448 7.129975 0.73448 1 -0 0 0.332371 0.648790
0.73448 5.89208 0.73448 1 -0 0 0.459518 0.648790
-0.73448 5.687723 0.734479 -0 -1 0 0.629941 0.729642
-1.509039 5.687723 -0.734481 -0 -1 0 0.550384 0.880523
-0.734479 5.687723 -0.73448 -0 -1 0 0.629941 0.880523
0.73448 5.89208 -0.73448 -0 0 1 0.459518 0.497910
-1.510038 5.687723 -0.73448 -0 0 1 0.480508 0.728450
0.73448 5.687723 -0.73448 -0 0 1 0.480508 0.497910
0.73448 5.687723 0.73448 -0 0 1 0.629941 0.497910
-0.73448 5.89208 0.734479 -0 0 1 0.608950 0.648790
-0.73448 5.687723 0.734479 -0 0 1 0.629941 0.648790
1.500595 5.687723 -0.734479 1 -0 0 0.226597 0.927532
1.500594 5.89208 0.73448 1 -0 0 0.075717 0.906542
1.500594 5.687723 0.73448 1 -0 0 0.075717 0.927532
0.73448 5.89208 0.73448 0 1 -0 0.926700 0.218942
1.500595 5.89208 -0.734479 0 1 -0 0.848010 0.068061
0.73448 5.89208 -0.73448 0 1 -0 0.926700 0.068061
0.73448 5.687723 -0.73448 0 -1 -0 0.245850 0.079337
1.500594 5.687723 0.73448 0 -1 -0 0.094969 0.000647
0.73448 5.687723 0.73448 0 -1 -0 0.094969 0.079337
1.500594 5.89208 0.73448 0 1 0 0.933663 0.881328
0.73448 5.89208 1.465015 0 1 0 0.858628 0.960018
1.500594 5.89208 1.465348 0 1 0 0.858594 0.881328
0.73448 5.89208 -1.564233 0 0 -1 0.231188 0.798812
1.500595 5.687723 -1.564233 0 0 -1 0.309877 0.819802
0.73448 5.687723 -1.564233 0 0 -1 0.231188 0.819802
1.500595 5.89208 -1.389157 0 1 -0 0.848010 0.000817
0.73448 5.89208 -1.390812 0 1 -0 0.926700 0.000647
1.500595 5.687723 -1.564233 1 0 0 0.311172 0.757384
1.500595 5.89208 -1.564233 1 0 0 0.311172 0.778374
1.500595 5.89208 -1.389157 1 0 0 0.329155 0.778374
1.500595 5.687723 -1.564233 -0 -1 -0 0.331076 0.000647
1.500595 5.687723 -0.734479 -0 -1 -0 0.245850 0.000647
0.73448 5.687723 1.652789 -0 0 1 0.846715 0.079337
1.500594 5.89208 1.65279 -0 0 1 0.825725 0.000647
0.73448 5.89208 1.652789 -0 0 1 0.825725 0.079337
1.500594 5.687723 1.65279 0 -1 -0 0.000647 0.000647
0.73448 5.687723 1.652789 0 -1 -0 0.000647 0.079337
1.500594 5.89208 1.465348 1 0 0 0.000647 0.906542
-1.504275 6.250632 1.652789 -0 0 1 0.788897 0.309285
-1.504275 5.89208 1.652789 -0 0 1 0.825725 0.309285
-1.510038 5.89208 -0.73448 -1 0 -0 0.609496 0.946701
-1.510037 5.89208 -1.39566 -1 0 -0 0.629550 0.881818
-1.510038 5.687723 -0.73448 -1 0 -0 0.629550 0.952899
-1.510037 5.89208 -1.564233 0 0 -1 0.000647 0.798812
-1.510037 5.687723 -1.564233 -0 -1 0 0.331076 0.309877
0.73448 5.687723 -1.564233 -0 -1 0 0.331076 0.079337
0.73448 5.89208 -1.390812 0 1 0 0.867262 0.490773
-1.510038 5.89208 -0.73448 0 1 0 0.636722 0.423359
0.73448 5.89208 -0.73448 0 1 0 0.867262 0.423359
-1.504275 5.687723 1.652789 -1 0 0 0.777239 0.911606
-1.504275 5.89208 1.652789 -1 0 0 0.777239 0.932596
-1.504275 5.89208 1.464043 -1 0 0 0.757852 0.932596
-1.504275 5.687723 1.652789 -0 0 1 0.846715 0.309285
0.73448 5.687723 1.652789 -0 -1 0 0.783411 0.497910
-1.504275 5.687723 0.734479 -0 -1 0 0.877733 0.727858
0.73448 5.687723 0.73448 -0 -1 0 0.877733 0.497910
0.73448 5.687723 0.73448 0 0 -1 0.629941 0.497910
-1.504275 5.89208 0.734479 0 0 -1 0.608950 0.727858
0.73448 5.89208 0.73448 0 0 -1 0.608950 0.497910
-1.50904 5.687723 0.734479 -1 0 -1e-06 0.000647 0.970499
-1.509039 5.89208 -0.734481 -1 0 -1e-06 0.151528 0.949509
-1.509039 5.687723 -0.734481 -1 0 -1e-06 0.151528 0.970499
-0.73448 5.89208 0.734479 -1e-06 0 1 0.608950 0.648790
-1.50904 5.687723 0.734479 -1e-06 0 1 0.629941 0.728347
-0.73448 5.687723 0.734479 -1e-06 0 1 0.629941 0.648790
-0.734479 5.687723 -0.73448 1e-06 0 -1 0.480508 0.648790
-1.509039 5.89208 -0.734481 1e-06 0 -1 0.459518 0.728347
-0.734479 5.89208 -0.73448 1e-06 0 -1 0.459518 0.648790
-0.73448 5.89208 0.734479 -0 1 0 0.938151 0.729153
-1.509039 5.89208 -0.734481 -0 1 0 0.858594 0.880033
-1.50904 5.89208 0.734479 -0 1 0 0.858594 0.729153
0.73448 7.129975 0.73448 -0 1 0 0.631235 0.497910
-0.734479 7.129975 -0.73448 -0 1 0 0.782116 0.648790
-0.73448 7.129975 0.734479 -0 1 0 0.631235 0.648790
-1.504275 5.89208 1.464043 0.000434 0 -1 0.319140 0.936959
0.73448 6.250632 1.465015 0.000434 0 -1 0.549089 0.900131
0.73448 5.89208 1.465015 0.000434 0 -1 0.549089 0.936959
-1.504275 5.89208 1.464043 0 1 -0 0.866670 0.421965
0.73448 5.89208 0.73448 0 1 -0 0.636722 0.347029
-1.504275 5.89208 0.734479 0 1 -0 0.866670 0.347029
1.500595 5.89208 -1.389157 -0.00216 0 0.999998 0.397830 0.979682
0.73448 6.295418 -1.390812 -0.00216 0 0.999998 0.319140 0.938254
0.73448 5.89208 -1.390812 -0.00216 0 0.999998 0.319140 0.979682
-1.510037 5.89208 -1.39566 -1 0 0 0.936468 0.464787
-1.510037 6.295418 -1.564233 -1 0 0 0.953783 0.423359
-1.510037 5.89208 -1.564233 -1 0 0 0.953783 0.464787
0.73448 5.89208 0.73448 -0 0 1 0.608950 0.497910
-0.73448 7.129975 0.734479 -0 0 1 0.481803 0.648790
-0.734479 5.89208 -0.73448 0 0 -1 0.459518 0.648790
0.73448 7.129975 -0.73448 0 0 -1 0.332371 0.497910
-0.73448 5.89208 0.734479 -1 0 -1e-06 0.608950 0.648790
-0.734479 7.129975 -0.73448 -1 0 -1e-06 0.481803 0.497910
-0.734479 5.89208 -0.73448 -1 0 -1e-06 0.608950 0.497910
-1.510037 6.295418 -1.39566 0 1 -0 0.305496 0.541712
0.73448 6.295418 -1.564233 0 1 -0 0.322811 0.311172
-1.510037 6.295418 -1.564233 0 1 -0 0.322811 0.541712
0.73448 6.295418 -1.390812 0 1 -0 0.848180 0.319508
1.500595 6.295418 -1.564233 0 1 -0 0.865993 0.240818
0.73448 6.295418 -1.564233 0 1 -0 0.865993 0.319508
-1.510037 5.89208 -1.564233 0 0 -1 0.000647 0.905247
0.73448 6.295418 -1.564233 0 0 -1 0.231188 0.863820
0.73448 5.89208 -1.564233 0 0 -1 0.231188 0.905247
1.500595 6.295418 -1.389157 1 -0 0 0.329155 0.819802
0.73448 5.89208 -1.390812 -0.00216 0 0.999998 0.231188 0.862525
-1.510037 6.295418 -1.39566 -0.00216 0 0.999998 0.000647 0.821097
-1.510037 5.89208 -1.39566 -0.00216 0 0.999998 0.000647 0.862525
1.500595 6.295418 -1.564233 0 0 -1 0.309877 0.757384
1.500595 5.89208 -1.564233 0 0 -1 0.309877 0.798812
0.73448 6.250632 1.465015 0 1 0 0.230596 0.948114
-1.504275 6.250632 1.652789 0 1 0 0.000647 0.928827
0.73448 6.250632 1.652789 0 1 0 0.230596 0.928827
1.500594 6.250632 1.465348 0 1 0 0.848010 0.220271
0.73448 6.250632 1.652789 0 1 0 0.926700 0.239523
1.500594 6.250632 1.65279 0 1 0 0.848010 0.239523
1.500594 5.89208 1.465348 1 -0 0 0.587211 0.956887
1.500594 6.250632 1.65279 1 -0 0 0.550384 0.976140
1.500594 5.89208 1.65279 1 -0 0 0.587211 0.976140
0.73448 5.89208 1.465015 0.000434 0 -1 0.858594 0.998140
1.500594 6.250632 1.465348 0.000434 0 -1 0.937283 0.961313
1.500594 5.89208 1.465348 0.000434 0 -1 0.937283 0.998140
1.500594 5.89208 1.65279 -0 0 1 0.477814 0.975082
0.73448 6.250632 1.652789 -0 0 1 0.399125 0.938254
0.73448 5.89208 1.652789 -0 0 1 0.399125 0.975082
-1.504275 6.250632 1.464043 -1 0 0 0.757852 0.969424
0.251837 3.781616 2.378612 0.999693 0.02476 0 0.699326 0.802261
0.268255 3.118689 2.378613 0.999693 0.02476 0 0.631235 0.802261
0.73448 -0.112908 -0.73448 0 -1 -0 0.483251 0.729745
0.73448 4.715786 -0.73448 1 0 0 0.483252 0.000647
-0.73448 -0.112908 -0.73448 -1 0 -1e-06 0.484546 0.000647
0.73448 -0.112908 0.73448 -0 0 1 0.782116 0.650085
0.73448 5.687723 -0.73448 1 0 0 0.303704 0.311172
0.73448 4.715786 0.73448 0 0 1 0.787603 0.000647
0.268256 3.118689 0.73448 0 0 1 0.739715 0.164689
-0.276336 3.091405 0.734479 -4e-06 -2e-06 1 0.104471 0.489415
-0.279273 3.774025 0.73448 -4e-06 -2e-06 1 0.104773 0.559528
-0.73448 4.715786 0.734479 -4e-06 -2e-06 1 0.151528 0.656259
0.73448 1.356052 0.73448 -2e-06 -1e-06 1 0.787603 0.345734
0.268256 3.118689 0.73448 -2e-06 -1e-06 1 0.739715 0.164689
-0.276336 3.091405 0.734479 -2e-06 -1e-06 1 0.683779 0.167492
-0.276336 3.091405 0.734479 1e-06 -0 1 0.104471 0.489415
-0.73448 4.715786 0.734479 1e-06 -0 1 0.151528 0.656259
-0.73448 1.356052 0.734479 1e-06 -0 1 0.151528 0.311172
-0.734479 1.356052 -0.73448 3e-06 0 -1 0.332371 0.345734
-0.734479 4.715786 -0.73448 3e-06 0 -1 0.332371 0.000647
-0.241159 3.151869 -0.734479 3e-06 0 -1 0.383041 0.161281
-0.734479 4.715786 -0.73448 -7e-06 -3e-06 -1 0.152823 0.411002
-0.287509 3.871234 -0.734481 -7e-06 -3e-06 -1 0.198732 0.497748
-0.241159 3.151869 -0.734479 -7e-06 -3e-06 -1 0.203493 0.571636
0.301756 3.159657 -0.734479 -2e-06 0 -1 0.259257 0.570836
0.73448 4.715786 -0.73448 -2e-06 0 -1 0.303704 0.411002
0.73448 1.356052 -0.73448 -2e-06 0 -1 0.303704 0.756089
-0.734479 1.356052 -0.73448 0 1e-06 -1 0.332371 0.345734
-0.241159 3.151869 -0.734479 0 1e-06 -1 0.383041 0.161281
0.73448 1.356052 -0.73448 0 1e-06 -1 0.483252 0.345734
-0.73448 4.715786 0.734479 -1 -0 -1e-06 0.635427 0.496615
0.268255 3.118689 2.378613 2e-06 1e-06 1 0.881030 0.724049
0.251837 3.781616 2.378612 2e-06 1e-06 1 0.949138 0.723336
-0.279273 3.774025 2.378613 2e-06 1e-06 1 0.949138 0.668778
0.73448 4.715786 0.73448 -0 -1e-06 1 0.000647 0.656259
-0.73448 4.715786 0.734479 -0 -1e-06 1 0.151528 0.656259
0.251837 3.781616 0.734479 -0 -1e-06 1 0.050221 0.560308
0.251837 3.781616 0.734479 -4e-06 1e-06 1 0.050221 0.560308
0.268256 3.118689 0.73448 -4e-06 1e-06 1 0.048535 0.492217
0.73448 4.715786 0.73448 -4e-06 1e-06 1 0.000647 0.656259
-0.064666 3.10201 2.06508 0.050035 -0.998747 0 0.734816 0.938930
-0.276336 3.091405 2.378612 0.050035 -0.998747 0 0.756558 0.971134
-0.276336 3.091405 0.734479 0.050035 -0.998747 0 0.756558 0.802261
0.058829 3.108196 2.173211 0.105027 -0.157845 0.981863 0.844628 0.971498
-0.033153 2.403801 2.069811 0.105027 -0.157845 0.981863 0.857299 0.899642
0.090053 2.409973 2.057624 0.105027 -0.157845 0.981863 0.844628 0.899710
-0.276336 3.091405 0.734479 0.050036 -0.998747 0 0.939446 0.865822
0.268256 3.118689 0.73448 0.050036 -0.998747 0 0.995382 0.865822
0.268255 3.118689 2.011703 0.050036 -0.998747 0 0.995382 0.734635
0.251837 3.781616 1.980289 -0.014291 0.999898 -0 0.287034 0.862010
0.251837 3.781616 0.734479 -0.014291 0.999898 -0 0.287034 0.989970
-0.279273 3.774025 0.73448 -0.014291 0.999898 -0 0.232482 0.989970
0.058829 3.108196 2.173211 0.050036 -0.998747 0 0.722132 0.950037
0.268255 3.118689 2.16476 0.050036 -0.998747 0 0.700621 0.949169
0.268255 3.118689 2.378613 0.050036 -0.998747 0 0.700621 0.971134
-0.058132 3.777186 2.175295 -0.014291 0.999898 -0 0.255196 0.841980
-0.279273 3.774025 2.378613 -0.014291 0.999898 -0 0.232482 0.821097
-0.276336 3.091405 0.734479 -0.999991 -0.004302 -0 0.949141 0.497910
0.268256 3.118689 0.73448 0.999693 0.02476 0 0.999353 0.252870
0.251837 3.781616 0.734479 0.999693 0.02476 0 0.939242 0.284856
0.251837 3.781616 1.980289 0.999693 0.02476 0 0.999353 0.397819
0.287132 3.840995 -2.381738 0 -1e-06 -1 0.842353 0.904014
0.301757 3.159654 -2.381737 0 -1e-06 -1 0.842353 0.974012
-0.241158 3.151865 -2.381737 0 -1e-06 -1 0.786585 0.973615
0.73448 4.715786 -0.73448 4e-06 -1e-06 -1 0.303704 0.411002
0.301756 3.159657 -0.734479 4e-06 -1e-06 -1 0.259257 0.570836
0.287131 3.840999 -0.73448 4e-06 -1e-06 -1 0.257755 0.500854
0.287131 3.840999 -0.73448 1e-06 -0 -1 0.257755 0.500854
-0.287509 3.871234 -0.734481 1e-06 -0 -1 0.198732 0.497748
0.73448 4.715786 -0.73448 1e-06 -0 -1 0.303704 0.411002
0.301757 3.159654 -2.381737 0.99977 0.021461 1e-06 0.937947 0.252870
-0.287507 3.871231 -2.381739 -0.997931 -0.064298 -1e-06 0.783411 0.729153
-0.241159 3.151869 -0.734479 0.014344 -0.999897 2e-06 0.927995 0.000647
0.287131 3.840999 -0.73448 0.052544 0.998619 -2e-06 0.490066 0.898836
0.73448 5.687723 0.73448 -0 0 1 0.000647 0.756089
-0.734479 5.687723 -0.73448 0 0 -1 0.152823 0.311172
-0.73448 5.687723 0.734479 -1 -0 -1e-06 0.151528 0.756089
0.73448 7.129975 -0.73448 1 0 0 0.332371 0.497910
-1.50904 5.687723 0.734479 0 -1 0 0.550384 0.729642
-1.510038 5.89208 -0.73448 -0 0 1 0.459518 0.728450
1.500595 5.89208 -0.734479 1 0 0 0.226597 0.906542
1.500594 5.89208 0.73448 0 1 0 0.848010 0.218942
0.73448 5.89208 0.73448 -0 1 0 0.933663 0.960018
1.500595 5.89208 -1.389157 1 -0 0 0.969538 0.171136
1.500595 5.89208 -0.734479 1 -0 0 0.949502 0.235325
1.500595 5.687723 -0.734479 1 -0 0 0.969538 0.241580
1.500595 5.687723 -0.734479 1 -0 0 0.960436 0.952343
1.500595 5.687723 -1.564233 1 -0 0 0.960436 0.867117
1.500595 5.89208 -1.389157 1 -0 0 0.939446 0.885100
1.500594 5.687723 1.65279 -0 0 1 0.846715 0.000647
1.500594 5.687723 1.65279 1 0 0 0.608201 0.976140
1.500594 5.687723 0.73448 1 0 0 0.608201 0.881818
0.73448 6.250632 1.652789 -0 0 1 0.788897 0.079337
-1.510037 5.687723 -1.564233 -1 0 -0 0.953783 0.485777
-1.510038 5.687723 -0.73448 -1 0 -0 0.868557 0.485777
-1.510037 5.687723 -1.564233 0 0 -1 0.000647 0.819802
-1.510038 5.687723 -0.73448 0 -1 0 0.245850 0.309877
-1.510037 5.89208 -1.39566 -0 1 0 0.636722 0.491271
-1.504275 5.89208 1.464043 -1 0 -0 0.948207 0.248956
-1.504275 5.89208 0.734479 -1 0 -0 0.927995 0.176798
-1.504275 5.687723 0.734479 -1 0 -0 0.948207 0.171136
-1.504275 5.687723 0.734479 -1 -0 -0 0.325989 0.652399
-1.504275 5.687723 1.652789 -1 -0 -0 0.325988 0.746720
-1.504275 5.89208 1.464043 -1 -0 -0 0.304998 0.727334
-1.504275 5.687723 1.652789 0 -1 0 0.783411 0.727858
-1.504275 5.687723 0.734479 0 0 -1 0.629941 0.727858
-1.50904 5.89208 0.734479 -1 -0 -1e-06 0.000647 0.949509
-1.50904 5.89208 0.734479 -1e-06 0 1 0.608950 0.728347
-1.509039 5.687723 -0.734481 1e-06 0 -1 0.480508 0.728347
-0.734479 5.89208 -0.73448 0 1 -0 0.938151 0.880033
0.73448 7.129975 -0.73448 0 1 -0 0.782116 0.497910
-1.504275 6.250632 1.464043 0.000434 0 -1 0.319140 0.900131
0.73448 5.89208 1.465015 0 1 0 0.636722 0.422064
1.500595 6.295418 -1.389157 -0.00216 0 0.999998 0.397830 0.938254
-1.510037 6.295418 -1.39566 -1 0 0 0.936468 0.423359
0.73448 7.129975 0.73448 -0 0 1 0.481803 0.497910
-0.734479 7.129975 -0.73448 0 0 -1 0.332371 0.648790
-0.73448 7.129975 0.734479 -1 -0 -1e-06 0.481803 0.648790
0.73448 6.295418 -1.390812 0 1 0 0.304998 0.311172
1.500595 6.295418 -1.389157 0 1 -0 0.848010 0.240818
-1.510037 6.295418 -1.564233 0 0 -1 0.000647 0.863820
1.500595 6.295418 -1.564233 1 0 0 0.311172 0.819802
0.73448 6.295418 -1.390812 -0.00216 0 0.999998 0.231188 0.821097
0.73448 6.295418 -1.564233 0 0 -1 0.231188 0.757384
-1.504275 6.250632 1.464043 -0 1 0 0.000647 0.948214
0.73448 6.250632 1.465015 -0 1 0 0.926700 0.220236
1.500594 6.250632 1.465348 1 0 0 0.550384 0.956887
0.73448 6.250632 1.465015 0.000434 0 -1 0.858594 0.961313
1.500594 6.250632 1.65279 -0 0 1 0.477814 0.938254
-1.504275 6.250632 1.652789 -1 0 0 0.777239 0.969424
-0.050627 3.777293 2.280905 -0.997167 0.025306 0.070839 0.300657 0.979355
-0.001268 5.296257 2.433082 -0.997167 0.025306 0.070839 0.311350 0.822922
-0.058132 3.777186 2.175295 -0.997167 0.025306 0.070839 0.311350 0.981181
0.070735 3.108793 2.057205 -0.06531 0.160129 -0.984933 0.955078 0.495222
-0.033442 2.403786 1.949494 -0.06531 0.160129 -0.984933 0.969003 0.423359
-0.064666 3.10201 2.06508 -0.06531 0.160129 -0.984933 0.969003 0.495147
0.070735 3.108793 2.057205 0.994382 0.027549 0.1022 0.970298 0.493336
0.090053 2.409973 2.057624 0.994382 0.027549 0.1022 0.982063 0.422530
0.101959 2.41057 1.941618 0.994382 0.027549 0.1022 0.970298 0.420644
-0.064666 3.10201 2.06508 -0.998981 -0.045072 0.002408 0.973922 0.869137
-0.033153 2.403801 2.069811 -0.998981 -0.045072 0.002408 0.961730 0.939810
-0.064377 3.102025 2.185398 -0.998981 -0.045072 0.002408 0.961730 0.867117
0.006237 5.296364 2.538691 -0.978494 -0.194131 0.069735 0.781746 0.808188
-0.06744 5.668356 2.540447 -0.978494 -0.194131 0.069735 0.761053 0.840308
-0.001268 5.296257 2.433082 -0.978494 -0.194131 0.069735 0.772661 0.802261
0.063098 3.778919 2.283028 -0.016021 -0.166704 0.985877 0.950436 0.498513
0.006237 5.296364 2.538691 -0.016021 -0.166704 0.985877 0.962103 0.654047
-0.050627 3.777293 2.280905 -0.016021 -0.166704 0.985877 0.962103 0.497910
0.054396 3.778794 2.174049 -0.013314 0.167778 -0.985735 0.963398 0.498507
-0.001268 5.296257 2.433082 -0.013314 0.167778 -0.985735 0.974941 0.654047
0.111261 5.297864 2.431835 -0.013314 0.167778 -0.985735 0.963398 0.654644
0.063098 3.778919 2.283028 0.996547 -0.023806 -0.079541 0.299362 0.822982
0.111261 5.297864 2.431835 0.996547 -0.023806 -0.079541 0.288329 0.979355
0.119962 5.297989 2.540814 0.996547 -0.023806 -0.079541 0.299362 0.981240
0.05379 5.670089 2.648179 0.996806 0.065974 -0.045004 0.317472 0.587169
0.035923 5.978212 2.70415 0.996806 0.065974 -0.045004 0.304998 0.616818
0.044625 5.893563 2.772786 0.996806 0.065974 -0.045004 0.315653 0.613387
-0.001268 5.296257 2.433082 -0.014574 0.274805 -0.961389 0.952985 0.726215
0.045088 5.669964 2.5392 -0.014574 0.274805 -0.961389 0.961942 0.688587
0.111261 5.297864 2.431835 -0.014574 0.274805 -0.961389 0.964491 0.727323
0.119962 5.297989 2.540814 0.977396 0.196397 -0.078264 0.329113 0.549133
0.045088 5.669964 2.5392 0.977396 0.196397 -0.078264 0.308103 0.581044
0.05379 5.670089 2.648179 0.977396 0.196397 -0.078264 0.317472 0.587169
0.006237 5.296364 2.538691 -0.013926 -0.279487 0.960049 0.314656 0.896612
0.05379 5.670089 2.648179 -0.013926 -0.279487 0.960049 0.324257 0.859126
-0.059935 5.668464 2.646056 -0.013926 -0.279487 0.960049 0.312645 0.857845
-0.076605 5.976232 2.703684 -0.997088 -0.07253 -0.023562 0.757852 0.875957
-0.084367 6.025966 2.879049 -0.997088 -0.07253 -0.023562 0.770161 0.890065
-0.091872 6.131356 2.87224 -0.997088 -0.07253 -0.023562 0.763670 0.898755
-0.059935 5.668464 2.646056 -0.022675 -0.482444 0.875633 0.312645 0.857845
0.044625 5.893563 2.772786 -0.022675 -0.482444 0.875633 0.326165 0.836232
-0.0691 5.894191 2.770187 -0.022675 -0.482444 0.875633 0.314582 0.834722
-0.059935 5.668464 2.646056 -0.995227 -0.067163 0.070795 0.770138 0.846235
-0.076605 5.976232 2.703684 -0.995227 -0.067163 0.070795 0.757852 0.875957
-0.06744 5.668356 2.540447 -0.995227 -0.067163 0.070795 0.761053 0.840308
-0.06744 5.668356 2.540447 -0.016501 0.471369 -0.881782 0.950436 0.687479
0.035923 5.978212 2.70415 -0.016501 0.471369 -0.881782 0.964491 0.657015
0.045088 5.669964 2.5392 -0.016501 0.471369 -0.881782 0.961942 0.688587
-0.091872 6.131356 2.87224 -0.012115 0.999858 0.011691 0.977161 0.675399
-0.037504 6.129549 3.083147 -0.012115 0.999858 0.011691 0.967543 0.695597
0.020656 6.132701 2.873765 -0.012115 0.999858 0.011691 0.965786 0.673346
-0.076605 5.976232 2.703684 -0.010206 0.738806 -0.673841 0.978928 0.658105
0.020656 6.132701 2.873765 -0.010206 0.738806 -0.673841 0.965786 0.673346
0.035923 5.978212 2.70415 -0.010206 0.738806 -0.673841 0.967574 0.655945
0.035923 5.978212 2.70415 0.993982 0.109204 0.008669 0.304998 0.616818
0.029358 6.023951 2.880806 0.993982 0.109204 0.008669 0.317630 0.630666
0.044625 5.893563 2.772786 0.993982 0.109204 0.008669 0.315653 0.613387
-0.0691 5.894191 2.770187 -0.023201 -0.638322 0.76942 0.314582 0.834722
0.029358 6.023951 2.880806 -0.023201 -0.638322 0.76942 0.326268 0.822749
-0.084367 6.025966 2.879049 -0.023201 -0.638322 0.76942 0.314702 0.821097
-0.028802 6.046215 3.012919 0.996725 0.051618 0.062245 0.492784 0.939536
-0.040639 5.987978 3.250748 0.996725 0.051618 0.062245 0.479109 0.960643
-0.031937 5.904644 3.180521 0.996725 0.051618 0.062245 0.490229 0.961924
0.020656 6.132701 2.873765 0.916806 0.098411 0.387018 0.310923 0.639627
-0.028802 6.046215 3.012919 0.916806 0.098411 0.387018 0.327747 0.639994
0.029358 6.023951 2.880806 0.916806 0.098411 0.387018 0.317630 0.630666
-0.084367 6.025966 2.879049 -0.023001 -0.987036 0.158843 0.812833 0.315065
-0.028802 6.046215 3.012919 -0.023001 -0.987036 0.158843 0.802123 0.325406
-0.142527 6.048886 3.013048 -0.023001 -0.987036 0.158843 0.812833 0.330069
-0.091872 6.131356 2.87224 -0.954893 0.134439 -0.264776 0.763670 0.898755
-0.142527 6.048886 3.013048 -0.954893 0.134439 -0.264776 0.780412 0.899546
-0.150032 6.129634 3.081115 -0.954893 0.134439 -0.264776 0.781746 0.910311
-0.145662 5.907315 3.180649 -0.992238 -0.11993 0.032866 0.504855 0.961883
-0.134613 5.85862 3.336541 -0.992238 -0.11993 0.032866 0.496633 0.976505
-0.153167 5.988063 3.248716 -0.992238 -0.11993 0.032866 0.494078 0.960643
-0.028802 6.046215 3.012919 -0.018662 -0.763634 -0.645379 0.825807 0.328030
-0.145662 5.907315 3.180649 -0.018662 -0.763634 -0.645379 0.814128 0.310580
-0.142527 6.048886 3.013048 -0.018662 -0.763634 -0.645379 0.814128 0.327798
-0.150032 6.129634 3.081115 -0.997382 -0.044963 -0.056635 0.496633 0.938254
-0.145662 5.907315 3.180649 -0.997382 -0.044963 -0.056635 0.504855 0.961883
-0.153167 5.988063 3.248716 -0.997382 -0.044963 -0.056635 0.494078 0.960643
-0.150032 6.129634 3.081115 -0.011072 0.763995 0.645128 0.838661 0.310812
-0.040639 5.987978 3.250748 -0.011072 0.763995 0.645128 0.827101 0.328022
-0.037504 6.129549 3.083147 -0.011072 0.763995 0.645128 0.827101 0.310804
-0.022084 5.858534 3.338574 -0.014291 -0.64522 0.763863 0.788897 0.319180
-0.127107 5.777872 3.268475 -0.014291 -0.64522 0.763863 0.800751 0.312509
-0.013383 5.775201 3.268346 -0.014291 -0.64522 0.763863 0.789227 0.310580
-0.040639 5.987978 3.250748 -0.014536 0.559964 0.828389 0.788897 0.332611
-0.134613 5.85862 3.336541 -0.014536 0.559964 0.828389 0.800337 0.320828
-0.022084 5.858534 3.338574 -0.014536 0.559964 0.828389 0.788897 0.319180
-0.031937 5.904644 3.180521 0.991838 0.124952 -0.02538 0.490229 0.961924
-0.022084 5.858534 3.338574 0.991838 0.124952 -0.02538 0.481664 0.976505
-0.013383 5.775201 3.268346 0.991838 0.124952 -0.02538 0.492784 0.977787
-0.031937 5.904644 3.180521 -0.014149 -0.562783 -0.826484 0.789227 0.324011
-0.127107 5.777872 3.268475 -0.014149 -0.562783 -0.826484 0.800751 0.312509
-0.145662 5.907315 3.180649 -0.014149 -0.562783 -0.826484 0.800751 0.325940
0.090053 2.409973 2.057624 0.050032 -0.998748 4e-06 0.814643 0.331237
-0.033153 2.403801 2.069811 0.050032 -0.998748 4e-06 0.814128 0.343943
-0.033442 2.403786 1.949494 0.050032 -0.998748 4e-06 0.826467 0.343255
0.251837 3.781616 2.378612 -0.014292 0.999898 -0 0.287034 0.821097
0.251837 3.781616 1.980289 -0.014292 0.999898 -0 0.287034 0.862010
0.054396 3.778794 2.174049 -0.014292 0.999898 -0 0.266754 0.842108
0.268256 3.118689 0.73448 0.999693 0.02476 0 0.631235 0.971134
-0.276336 3.091405 0.734479 0.050035 -0.998747 0 0.939446 0.865822
0.268255 3.118689 2.011703 0.050035 -0.998747 0 0.995382 0.734635
0.070735 3.108793 2.057205 0.050035 -0.998747 0 0.975094 0.729962
-0.064666 3.10201 2.06508 0.050041 -0.998747 4e-06 0.734816 0.938930
-0.064377 3.102025 2.185398 0.050041 -0.998747 4e-06 0.734787 0.951288
-0.276336 3.091405 2.378612 0.050041 -0.998747 4e-06 0.756558 0.971134
-0.276336 3.091405 0.734479 0.050038 -0.998747 -1e-06 0.939446 0.865822
0.070735 3.108793 2.057205 0.050038 -0.998747 -1e-06 0.975094 0.729962
-0.064666 3.10201 2.06508 0.050038 -0.998747 -1e-06 0.961187 0.729153
-0.064377 3.102025 2.185398 0.105027 -0.157845 0.981863 0.857299 0.971430
0.268255 3.118689 2.378613 0.050036 -0.998747 -2e-06 0.700621 0.971134
-0.276336 3.091405 2.378612 0.050036 -0.998747 -2e-06 0.756558 0.971134
-0.064377 3.102025 2.185398 0.050036 -0.998747 -2e-06 0.734787 0.951288
0.058829 3.108196 2.173211 0.050036 -0.998747 -2e-06 0.722132 0.950037
0.070735 3.108793 2.057205 0.050036 -0.998747 -2e-06 0.720909 0.938121
0.268255 3.118689 2.16476 0.050036 -0.998747 -2e-06 0.700621 0.949169
0.268255 3.118689 2.378613 0.050032 -0.998748 4e-06 0.700621 0.971134
-0.064377 3.102025 2.185398 0.050032 -0.998748 4e-06 0.734787 0.951288
0.058829 3.108196 2.173211 0.050032 -0.998748 4e-06 0.722132 0.950037
0.268255 3.118689 2.011703 0.050035 -0.998747 0 0.700621 0.933448
0.268255 3.118689 2.16476 0.050035 -0.998747 0 0.700621 0.949169
0.070735 3.108793 2.057205 0.050035 -0.998747 0 0.720909 0.938121
-0.058132 3.777186 2.175295 -0.014289 0.999898 3e-06 0.255196 0.841980
0.054396 3.778794 2.174049 -0.014289 0.999898 3e-06 0.266754 0.842108
0.251837 3.781616 1.980289 -0.014289 0.999898 3e-06 0.287034 0.862010
-0.279273 3.774025 2.378613 -0.014291 0.999898 3e-06 0.232482 0.821097
0.251837 3.781616 2.378612 -0.014291 0.999898 3e-06 0.287034 0.821097
-0.050627 3.777293 2.280905 -0.014291 0.999898 3e-06 0.255967 0.831133
0.251837 3.781616 2.378612 -0.01429 0.999898 -1e-06 0.287034 0.821097
0.063098 3.778919 2.283028 -0.01429 0.999898 -1e-06 0.267648 0.830914
-0.050627 3.777293 2.280905 -0.01429 0.999898 -1e-06 0.255967 0.831133
-0.279273 3.774025 2.378613 -0.014293 0.999898 -2e-06 0.232482 0.821097
-0.050627 3.777293 2.280905 -0.014293 0.999898 -2e-06 0.255967 0.831133
-0.058132 3.777186 2.175295 -0.014293 0.999898 -2e-06 0.255196 0.841980
0.006237 5.296364 2.538691 -0.997167 0.025306 0.070839 0.300657 0.821097
0.101959 2.41057 1.941618 -0.06531 0.160129 -0.984933 0.955078 0.423434
0.058829 3.108196 2.173211 0.994382 0.027549 0.1022 0.982063 0.495222
-0.033442 2.403786 1.949494 -0.998981 -0.045072 0.002408 0.973922 0.941829
-0.059935 5.668464 2.646056 -0.978494 -0.194131 0.069735 0.770138 0.846235
0.063098 3.778919 2.283028 -0.01602 -0.166704 0.985877 0.950436 0.498513
0.119962 5.297989 2.540814 -0.01602 -0.166704 0.985877 0.950436 0.654650
0.006237 5.296364 2.538691 -0.01602 -0.166704 0.985877 0.962103 0.654047
-0.058132 3.777186 2.175295 -0.013314 0.167778 -0.985735 0.974941 0.497910
0.054396 3.778794 2.174049 0.996547 -0.023806 -0.079541 0.288329 0.821097
0.05379 5.670089 2.648179 0.994228 0.072085 -0.079466 0.317472 0.587169
0.045088 5.669964 2.5392 0.994228 0.072085 -0.079466 0.308103 0.581044
0.035923 5.978212 2.70415 0.994228 0.072085 -0.079466 0.304998 0.616818
-0.06744 5.668356 2.540447 -0.014574 0.274805 -0.961389 0.950436 0.687479
0.119962 5.297989 2.540814 0.977396 0.196397 -0.078265 0.329113 0.549133
0.111261 5.297864 2.431835 0.977396 0.196397 -0.078265 0.319744 0.543007
0.045088 5.669964 2.5392 0.977396 0.196397 -0.078265 0.308103 0.581044
0.119962 5.297989 2.540814 -0.013926 -0.279487 0.960049 0.326268 0.897893
-0.076605 5.976232 2.703684 -0.994572 -0.102993 -0.014812 0.757852 0.875957
-0.0691 5.894191 2.770187 -0.994572 -0.102993 -0.014812 0.768174 0.872621
-0.084367 6.025966 2.879049 -0.994572 -0.102993 -0.014812 0.770161 0.890065
-0.059935 5.668464 2.646056 -0.009335 -0.487272 0.873201 0.312645 0.857845
0.05379 5.670089 2.648179 -0.009335 -0.487272 0.873201 0.324257 0.859126
0.044625 5.893563 2.772786 -0.009335 -0.487272 0.873201 0.326165 0.836232
-0.059935 5.668464 2.646056 -0.99744 -0.061011 0.037302 0.770138 0.846235
-0.0691 5.894191 2.770187 -0.99744 -0.061011 0.037302 0.768174 0.872621
-0.076605 5.976232 2.703684 -0.99744 -0.061011 0.037302 0.757852 0.875957
-0.06744 5.668356 2.540447 -0.004578 0.468323 -0.883545 0.950436 0.687479
-0.076605 5.976232 2.703684 -0.004578 0.468323 -0.883545 0.952981 0.655945
0.035923 5.978212 2.70415 -0.004578 0.468323 -0.883545 0.964491 0.657015
-0.091872 6.131356 2.87224 0.000607 0.999964 0.008412 0.977161 0.675399
-0.150032 6.129634 3.081115 0.000607 0.999964 0.008412 0.978928 0.697599
-0.037504 6.129549 3.083147 0.000607 0.999964 0.008412 0.967543 0.695597
-0.076605 5.976232 2.703684 0.00038 0.735835 -0.677161 0.978928 0.658105
-0.091872 6.131356 2.87224 0.00038 0.735835 -0.677161 0.977161 0.675399
0.020656 6.132701 2.873765 0.00038 0.735835 -0.677161 0.965786 0.673346
0.035923 5.978212 2.70415 0.996601 0.080783 0.016125 0.304998 0.616818
0.020656 6.132701 2.873765 0.996601 0.080783 0.016125 0.310923 0.639627
0.029358 6.023951 2.880806 0.996601 0.080783 0.016125 0.317630 0.630666
-0.0691 5.894191 2.770187 -0.021097 -0.639287 0.768679 0.314582 0.834722
0.044625 5.893563 2.772786 -0.021097 -0.639287 0.768679 0.326165 0.836232
0.029358 6.023951 2.880806 -0.021097 -0.639287 0.768679 0.326268 0.822749
-0.037504 6.129549 3.083147 0.996725 0.051618 0.062245 0.481664 0.938254
0.020656 6.132701 2.873765 0.956737 -0.122504 0.263908 0.310923 0.639627
-0.037504 6.129549 3.083147 0.956737 -0.122504 0.263908 0.329113 0.651104
-0.028802 6.046215 3.012919 0.956737 -0.122504 0.263908 0.327747 0.639994
-0.084367 6.025966 2.879049 -0.019934 -0.9873 0.15761 0.812833 0.315065
0.029358 6.023951 2.880806 -0.019934 -0.9873 0.15761 0.802046 0.310580
-0.028802 6.046215 3.012919 -0.019934 -0.9873 0.15761 0.802123 0.325406
-0.091872 6.131356 2.87224 -0.919124 -0.090232 -0.383496 0.763670 0.898755
-0.084367 6.025966 2.879049 -0.919124 -0.090232 -0.383496 0.770161 0.890065
-0.142527 6.048886 3.013048 -0.919124 -0.090232 -0.383496 0.780412 0.899546
-0.127107 5.777872 3.268475 -0.992238 -0.11993 0.032866 0.507409 0.977746
-0.028802 6.046215 3.012919 -0.018661 -0.763634 -0.645379 0.825807 0.328030
-0.031937 5.904644 3.180521 -0.018661 -0.763634 -0.645379 0.825807 0.310812
-0.145662 5.907315 3.180649 -0.018661 -0.763634 -0.645379 0.814128 0.310580
-0.142527 6.048886 3.013048 -0.997382 -0.044963 -0.056635 0.507409 0.939494
-0.153167 5.988063 3.248716 -0.011072 0.763995 0.645128 0.838661 0.328030
-0.022084 5.858534 3.338574 -0.014285 -0.645225 0.763859 0.788897 0.319180
-0.134613 5.85862 3.336541 -0.014285 -0.645225 0.763859 0.800337 0.320828
-0.127107 5.777872 3.268475 -0.014285 -0.645225 0.763859 0.800751 0.312509
-0.153167 5.988063 3.248716 -0.014536 0.559964 0.828389 0.800337 0.334260
-0.040639 5.987978 3.250748 0.991838 0.124952 -0.02538 0.479109 0.960643
-0.013383 5.775201 3.268346 -0.014149 -0.562783 -0.826484 0.789227 0.310580
3 0 1 2 
3 3 4 5 
3 6 7 8 
3 9 10 11 
3 3 12 13 
3 14 15 16 
3 17 18 19 
3 20 21 22 
3 23 24 25 
3 26 27 28 
3 29 30 31 
3 32 33 34 
3 35 36 37 
3 38 39 40 
3 41 42 43 
3 44 45 46 
3 47 48 49 
3 50 51 52 
3 53 54 55 
3 56 57 58 
3 59 60 61 
3 62 63 64 
3 65 66 67 
3 68 69 70 
3 71 72 73 
3 74 75 76 
3 77 78 79 
3 80 81 82 
3 83 84 85 
3 86 87 88 
3 89 90 91 
3 92 93 94 
3 95 96 97 
3 98 99 100 
3 101 102 103 
3 94 104 105 
3 106 107 108 
3 95 109 110 
3 111 112 113 
3 97 114 115 
3 90 116 91 
3 113 117 118 
3 119 120 121 
3 103 122 101 
3 95 123 124 
3 125 126 127 
3 128 129 130 
3 113 131 111 
3 132 133 134 
3 135 136 137 
3 138 139 140 
3 141 142 143 
3 144 145 146 
3 147 148 149 
3 150 151 152 
3 153 154 155 
3 156 157 158 
3 159 160 161 
3 162 163 164 
3 165 166 87 
3 167 168 66 
3 169 170 171 
3 172 173 174 
3 175 176 177 
3 178 179 180 
3 107 181 108 
3 182 183 184 
3 101 185 186 
3 187 188 189 
3 190 191 192 
3 193 194 195 
3 196 197 198 
3 199 200 201 
3 129 202 130 
3 46 203 204 
3 0 205 1 
3 3 206 4 
3 26 28 207 
3 9 23 10 
3 3 5 12 
3 14 208 15 
3 17 209 18 
3 21 210 211 
3 212 213 214 
3 215 216 217 
3 218 219 220 
3 221 222 223 
3 224 225 226 
3 227 228 229 
3 230 231 232 
3 26 233 27 
3 234 235 236 
3 237 238 239 
3 240 241 242 
3 243 244 245 
3 246 247 248 
3 249 250 251 
3 252 253 254 
3 255 256 257 
3 258 254 259 
3 41 260 42 
3 261 262 263 
3 264 265 266 
3 267 268 269 
3 270 271 272 
3 53 273 54 
3 56 274 57 
3 59 275 60 
3 62 276 63 
3 65 167 66 
3 68 277 69 
3 71 278 72 
3 74 279 75 
3 77 280 78 
3 80 281 81 
3 83 282 84 
3 86 165 87 
3 89 283 90 
3 92 284 93 
3 95 110 96 
3 98 285 99 
3 101 186 102 
3 94 93 104 
3 286 287 288 
3 289 290 291 
3 95 124 109 
3 111 292 112 
3 97 96 114 
3 293 294 193 
3 193 195 293 
3 113 295 117 
3 296 297 162 
3 162 164 296 
3 103 298 122 
3 95 299 123 
3 125 300 126 
3 301 302 303 
3 304 305 306 
3 113 118 131 
3 132 307 133 
3 135 308 136 
3 138 309 139 
3 141 310 142 
3 144 311 145 
3 147 312 148 
3 150 313 151 
3 153 314 154 
3 156 315 157 
3 159 316 160 
3 162 317 163 
3 165 318 166 
3 167 319 168 
3 169 320 170 
3 172 321 173 
3 175 322 176 
3 178 323 179 
3 107 324 181 
3 182 325 183 
3 101 326 185 
3 187 327 188 
3 190 328 191 
3 193 329 194 
3 196 330 197 
3 199 331 200 
3 129 332 202 
3 333 334 335 
3 336 337 338 
3 339 340 341 
3 342 343 344 
3 345 346 347 
3 348 349 350 
3 351 352 353 
3 354 355 356 
3 357 358 359 
3 360 361 362 
3 363 364 365 
3 366 367 368 
3 369 370 371 
3 372 373 374 
3 375 376 377 
3 378 379 380 
3 381 382 383 
3 384 385 386 
3 387 388 389 
3 390 391 392 
3 393 394 395 
3 396 397 398 
3 399 400 401 
3 402 403 404 
3 405 406 407 
3 408 409 410 
3 411 412 413 
3 414 415 416 
3 417 418 419 
3 420 421 422 
3 423 424 425 
3 426 427 428 
3 429 430 431 
3 432 433 434 
3 203 46 45 
3 44 435 45 
3 436 437 438 
3 439 440 441 
3 442 443 444 
3 246 445 247 
3 446 447 448 
3 449 450 451 
3 452 453 454 
3 455 456 457 
3 458 459 460 
3 461 462 463 
3 464 465 466 
3 258 252 254 
3 467 468 469 
3 333 470 334 
3 336 471 337 
3 339 472 340 
3 342 473 343 
3 345 474 346 
3 475 476 477 
3 351 478 352 
3 354 479 355 
3 480 481 482 
3 360 483 361 
3 484 485 486 
3 366 487 367 
3 488 489 490 
3 491 492 493 
3 494 495 496 
3 497 498 499 
3 500 501 502 
3 503 504 505 
3 506 507 508 
3 509 510 511 
3 393 512 394 
3 513 514 515 
3 516 517 518 
3 519 520 521 
3 405 522 406 
3 523 524 525 
3 411 526 412 
3 414 527 415 
3 528 529 530 
3 420 531 421 
3 423 532 424 
3 426 533 427 
