ply
format ascii 1.0
comment Created by Blender 2.78 (sub 0) - www.blender.org, source file: 'LogPly.blend'
element vertex 243
property float x
property float y
property float z
property float nx
property float ny
property float nz
property float s
property float t
element face 106
property list uchar uint vertex_indices
end_header
0.781965 -0.158706 0.008460 0.192602 0.226985 -0.954664 0.311345 0.439753
-0.485223 0.409893 -0.112001 0.192602 0.226985 -0.954664 0.227377 0.701017
-0.194674 0.727873 0.022221 0.192602 0.226985 -0.954664 0.311345 0.701017
0.491416 -0.476686 -0.125762 -0.266416 -0.279159 -0.922547 0.396058 0.439753
-0.763651 0.100481 0.062032 -0.266416 -0.279159 -0.922547 0.473443 0.701017
-0.485223 0.409893 -0.112001 -0.266416 -0.279159 -0.922547 0.396058 0.701017
0.212988 -0.786098 0.048271 -0.600775 -0.654682 -0.458760 0.473443 0.439753
-0.899678 -0.055586 0.462887 -0.600775 -0.654682 -0.458760 0.561443 0.701017
-0.763651 0.100481 0.062032 -0.600775 -0.654682 -0.458760 0.473443 0.701017
0.076960 -0.942166 0.449126 -0.654025 -0.723871 0.219686 0.000372 0.439753
-0.829657 0.014717 0.903001 -0.654025 -0.723871 0.219686 0.068824 0.701017
-0.899678 -0.055586 0.462887 -0.654025 -0.723871 0.219686 0.000372 0.701017
0.146982 -0.871862 0.889239 -0.401249 -0.454353 0.795338 0.068824 0.439753
-0.586349 0.278495 1.176438 -0.401249 -0.454353 0.795338 0.158181 0.701017
-0.829657 0.014717 0.903001 -0.401249 -0.454353 0.795338 0.068824 0.701017
0.390289 -0.608084 1.162677 0.039276 0.027762 0.998843 0.158181 0.439753
-0.283603 0.612324 1.155256 0.039276 0.027762 0.998843 0.226633 0.701017
-0.586349 0.278495 1.176438 0.039276 0.027762 0.998843 0.158181 0.701017
0.693036 -0.274255 1.141494 0.461423 0.496887 0.734978 0.727573 0.439753
-0.063076 0.860000 0.849364 0.461423 0.496887 0.734978 0.639573 0.701017
-0.283603 0.612324 1.155256 0.461423 0.496887 0.734978 0.727573 0.701017
0.948684 0.019055 0.388133 0.561500 0.626920 -0.540083 0.395314 0.439753
2.062155 -0.991738 0.372443 0.561500 0.626920 -0.540083 0.395314 0.141885
0.781965 -0.158706 0.008460 0.561500 0.626920 -0.540083 0.311345 0.439753
0.913563 -0.026579 0.835603 0.667665 0.733513 0.127209 0.639573 0.439753
-0.027955 0.905634 0.401894 0.667665 0.733513 0.127209 0.562187 0.701017
-0.063076 0.860000 0.849364 0.667665 0.733513 0.127209 0.639573 0.701017
-0.194674 0.727873 0.022221 0.561500 0.626920 -0.540083 0.311345 0.701017
-0.027955 0.905634 0.401894 0.561500 0.626920 -0.540083 0.395314 0.701017
-0.485223 0.409893 -0.112001 -0.740380 0.672107 0.010432 0.836264 0.515704
-0.586349 0.278495 1.176438 -0.740380 0.672107 0.010432 0.924264 0.273927
-0.027955 0.905634 0.401894 -0.740380 0.672107 0.010432 0.728316 0.387057
2.424432 -1.649714 -0.014683 0.740380 -0.672107 -0.010432 0.873754 0.257666
2.032756 -2.099092 1.139534 0.740380 -0.672107 -0.010432 0.785754 0.015889
1.719427 -2.433174 0.425983 0.740380 -0.672107 -0.010432 0.951140 0.045051
0.913563 -0.026579 0.835603 0.667665 0.733513 0.127208 0.639573 0.439753
2.056988 -1.042434 0.691884 0.667665 0.733513 0.127208 0.617480 0.136554
1.985832 -0.949250 0.528033 0.667665 0.733513 0.127208 0.588938 0.159054
2.556029 -1.517587 0.812460 0.461423 0.496887 0.734978 0.639573 0.000372
0.913563 -0.026579 0.835603 0.461423 0.496887 0.734978 0.639573 0.439753
2.335502 -1.765264 1.118351 0.039276 0.027762 0.998843 0.226633 0.000372
0.693036 -0.274255 1.141494 0.039276 0.027762 0.998843 0.226633 0.439753
0.573936 -1.189228 0.923336 -0.401249 -0.454354 0.795338 0.981954 0.029102
1.789449 -2.362870 0.866096 -0.401249 -0.454354 0.795338 0.994901 0.363698
0.728099 -1.166081 1.014336 -0.401249 -0.454354 0.795338 0.951884 0.048439
1.719427 -2.433174 0.425983 -0.654025 -0.723871 0.219686 0.970398 0.886166
1.789449 -2.362870 0.866096 -0.654025 -0.723871 0.219686 0.903130 0.873492
0.431288 -1.129951 0.885234 -0.654025 -0.723871 0.219686 0.970398 0.516448
2.133883 -1.967694 -0.148905 0.192602 0.226985 -0.954664 0.227377 0.000372
0.491416 -0.476686 -0.125762 0.192602 0.226985 -0.954664 0.227377 0.439753
1.719427 -2.433174 0.425983 -0.600775 -0.654682 -0.458760 0.561443 0.000372
0.076960 -0.942166 0.449126 -0.600775 -0.654682 -0.458760 0.561443 0.439753
0.491416 -0.476686 -0.125762 -0.266416 -0.279160 -0.922547 0.396058 0.439753
1.855454 -2.277107 0.025128 -0.266416 -0.279160 -0.922547 0.473443 0.000372
0.212988 -0.786098 0.048271 -0.266416 -0.279160 -0.922547 0.473443 0.439753
0.356088 -1.054012 1.275543 0.710799 0.001912 0.703393 0.573368 0.786965
0.303292 -1.160524 1.329184 0.710799 0.001912 0.703393 0.551898 0.778406
0.426423 -1.239659 1.204972 0.710799 0.001912 0.703393 0.551898 0.814824
0.657765 -0.980434 1.084906 0.549623 -0.106734 0.828566 0.314494 0.787227
0.426423 -1.239659 1.204972 0.549623 -0.106734 0.828566 0.283998 0.734828
0.728099 -1.166081 1.014336 0.549623 -0.106734 0.828566 0.283998 0.804751
0.407193 -0.970827 0.963981 -0.401250 -0.454352 0.795338 0.094129 0.388576
0.390289 -0.608084 1.162677 -0.401250 -0.454352 0.795338 0.158181 0.439753
0.146982 -0.871862 0.889239 -0.401250 -0.454352 0.795338 0.068824 0.439753
0.431288 -1.129951 0.885234 -0.174378 -0.793984 -0.582393 0.686637 0.771683
0.272259 -1.262806 1.113973 -0.174378 -0.793984 -0.582393 0.661727 0.716074
0.129611 -1.203529 1.075870 -0.174378 -0.793984 -0.582393 0.686637 0.701760
0.407193 -0.970827 0.963981 -0.347872 0.916676 -0.196697 0.493213 0.772113
0.198203 -0.992882 1.230812 -0.347872 0.916676 -0.196697 0.469220 0.715979
0.499880 -0.919304 1.040175 -0.347872 0.916676 -0.196697 0.469220 0.779181
0.573936 -1.189228 0.923336 0.191257 -0.978665 -0.075066 0.687381 0.710257
0.426423 -1.239659 1.204972 0.191257 -0.978665 -0.075066 0.716226 0.764962
0.272259 -1.262806 1.113973 0.191257 -0.978665 -0.075066 0.687381 0.773459
0.407193 -0.970827 0.963981 -0.560813 0.297457 -0.772663 0.493213 0.772113
0.129611 -1.203529 1.075870 -0.560813 0.297457 -0.772663 0.517488 0.701760
0.105517 -1.044405 1.154618 -0.560813 0.297457 -0.772663 0.493213 0.708911
0.499880 -0.919304 1.040175 0.155993 0.813185 0.560710 0.341544 0.771683
0.356088 -1.054012 1.275543 0.155993 0.813185 0.560710 0.314494 0.717304
0.657765 -0.980434 1.084906 0.155993 0.813185 0.560710 0.314494 0.787227
0.149129 -1.183672 1.238184 -0.401249 -0.454353 0.795338 0.241185 0.732068
0.075073 -0.913747 1.355023 -0.401249 -0.454353 0.795338 0.247375 0.791822
-0.017613 -0.965270 1.278829 -0.401249 -0.454353 0.795338 0.222754 0.783904
0.129611 -1.203529 1.075870 -0.414851 -0.895805 0.159476 0.221130 0.719126
0.149129 -1.183672 1.238184 -0.414851 -0.895805 0.159476 0.241185 0.732068
0.006481 -1.124394 1.200082 -0.414851 -0.895805 0.159476 0.214813 0.749317
0.198203 -0.992882 1.230812 -0.014821 0.836566 -0.547666 0.253692 0.761630
-0.017613 -0.965270 1.278829 -0.014821 0.836566 -0.547666 0.222754 0.783904
0.075073 -0.913747 1.355023 -0.014821 0.836566 -0.547666 0.247375 0.791822
0.272259 -1.262806 1.113973 -0.126659 -0.888706 0.440636 0.247503 0.701877
0.303292 -1.160524 1.329184 -0.126659 -0.888706 0.440636 0.276937 0.731952
0.149129 -1.183672 1.238184 -0.126659 -0.888706 0.440636 0.241185 0.732068
0.105517 -1.044405 1.154618 -0.581904 0.288229 -0.760468 0.596342 0.775852
0.006481 -1.124394 1.200082 -0.581904 0.288229 -0.760468 0.574112 0.761468
-0.017613 -0.965270 1.278829 -0.581904 0.288229 -0.760468 0.574112 0.786774
0.198203 -0.992882 1.230812 0.398729 0.899647 -0.177904 0.253692 0.761630
0.232958 -0.974877 1.399754 0.398729 0.899647 -0.177904 0.276937 0.773682
0.356088 -1.054012 1.275543 0.398729 0.899647 -0.177904 0.283254 0.743491
2.278347 -0.706555 0.546425 0.667665 0.733513 0.127207 0.569364 0.749802
2.163042 -0.586041 0.456701 0.667665 0.733513 0.127207 0.605481 0.745414
2.086720 -0.543553 0.612290 0.667665 0.733513 0.127207 0.605481 0.713627
2.178351 -1.139987 0.617412 0.667665 0.733513 0.127209 0.171374 0.738028
2.556029 -1.517587 0.812460 0.667665 0.733513 0.127209 0.136683 0.843274
2.591150 -1.471953 0.364990 0.667665 0.733513 0.127209 0.214069 0.843274
1.985832 -0.949250 0.528033 -0.882096 0.125032 0.454174 0.435659 0.779510
2.157875 -0.636737 0.776141 -0.882096 0.125032 0.454174 0.468476 0.701760
2.086720 -0.543553 0.612290 -0.882096 0.125032 0.454174 0.435659 0.704790
2.062155 -0.991738 0.372443 0.619831 0.008829 -0.784685 0.551154 0.780230
2.278347 -0.706555 0.546425 0.619831 0.008829 -0.784685 0.518231 0.710308
2.177459 -1.112252 0.462168 0.619831 0.008829 -0.784685 0.518232 0.788779
2.056988 -1.042434 0.691884 0.335841 -0.270875 0.902129 0.637876 0.723579
2.279239 -0.734290 0.701669 0.335841 -0.270875 0.902129 0.660983 0.780230
2.157875 -0.636737 0.776141 0.335841 -0.270875 0.902129 0.637876 0.802049
1.985832 -0.949250 0.528033 -0.819618 0.304595 -0.485231 0.435659 0.779510
2.163042 -0.586041 0.456701 -0.819618 0.304595 -0.485231 0.404900 0.707629
2.062155 -0.991738 0.372443 -0.819618 0.304595 -0.485231 0.404900 0.782350
2.178351 -1.139987 0.617412 0.971614 -0.231856 -0.047004 0.637132 0.776481
2.278347 -0.706555 0.546425 0.971614 -0.231856 -0.047004 0.606225 0.704613
2.279239 -0.734290 0.701669 0.971614 -0.231856 -0.047004 0.637132 0.701760
-0.763651 0.100481 0.062032 -0.266416 -0.279160 -0.922547 0.473443 0.701017
0.146982 -0.871862 0.889239 -0.654025 -0.723871 0.219686 0.068824 0.439753
0.390289 -0.608084 1.162677 -0.401249 -0.454353 0.795338 0.158181 0.439753
2.424432 -1.649714 -0.014683 0.561499 0.626920 -0.540083 0.902386 0.955829
0.781965 -0.158706 0.008460 0.561499 0.626920 -0.540083 0.902386 0.516448
2.062155 -0.991738 0.372443 0.561499 0.626920 -0.540083 0.818418 0.814316
2.062155 -0.991738 0.372443 0.561500 0.626920 -0.540082 0.818418 0.814316
2.591150 -1.471953 0.364990 0.561500 0.626920 -0.540082 0.818418 0.955829
2.424432 -1.649714 -0.014683 0.561500 0.626920 -0.540082 0.902386 0.955829
0.948684 0.019055 0.388133 0.667665 0.733513 0.127209 0.562187 0.439753
-0.194674 0.727873 0.022221 -0.740380 0.672107 0.010432 0.758878 0.471026
-0.763651 0.100481 0.062032 -0.740380 0.672107 0.010432 0.924264 0.500188
-0.899678 -0.055586 0.462887 -0.740380 0.672107 0.010432 0.372850 0.701760
-0.829657 0.014717 0.903001 -0.740380 0.672107 0.010432 0.342288 0.785729
-0.586349 0.278495 1.176438 -0.740380 0.672107 0.010432 0.372850 0.869697
-0.283603 0.612324 1.155256 -0.740380 0.672107 0.010432 0.836264 0.258410
-0.063076 0.860000 0.849364 -0.740380 0.672107 0.010432 0.758878 0.303089
-0.763651 0.100481 0.062032 -0.740380 0.672107 0.010432 0.135939 0.701760
-0.899678 -0.055586 0.462887 -0.740380 0.672107 0.010432 0.078501 0.770212
-0.586349 0.278495 1.176438 -0.740380 0.672107 0.010432 0.135939 0.928021
1.855454 -2.277107 0.025128 0.740380 -0.672107 -0.010432 0.373594 0.785729
2.133883 -1.967694 -0.148905 0.740380 -0.672107 -0.010432 0.404156 0.701760
1.719427 -2.433174 0.425983 0.740380 -0.672107 -0.010432 0.404156 0.869697
2.424432 -1.649714 -0.014683 0.740381 -0.672107 -0.010432 0.873754 0.257666
2.591150 -1.471953 0.364990 0.740381 -0.672107 -0.010432 0.785754 0.242149
2.556029 -1.517587 0.812460 0.740381 -0.672107 -0.010432 0.728316 0.173698
2.335502 -1.765264 1.118351 0.740381 -0.672107 -0.010432 0.728316 0.084340
1.789449 -2.362870 0.866096 0.740380 -0.672107 -0.010432 0.873754 0.000372
2.133883 -1.967694 -0.148905 0.740380 -0.672107 -0.010432 0.951140 0.212988
2.335502 -1.765264 1.118351 0.740380 -0.672107 -0.010432 0.728316 0.084340
2.062155 -0.991738 0.372443 0.667665 0.733513 0.127209 0.077758 0.999628
0.948684 0.019055 0.388133 0.667665 0.733513 0.127209 0.077758 0.701760
1.985832 -0.949250 0.528033 0.667665 0.733513 0.127209 0.051006 0.982459
0.913563 -0.026579 0.835603 0.667665 0.733512 0.127213 0.639573 0.439753
2.556029 -1.517587 0.812460 0.667665 0.733512 0.127213 0.639573 0.000372
2.056988 -1.042434 0.691884 0.667665 0.733512 0.127213 0.617480 0.136554
0.913563 -0.026579 0.835603 0.667665 0.733513 0.127209 0.000372 0.701760
2.335502 -1.765264 1.118351 0.461423 0.496887 0.734978 0.727573 0.000372
2.032756 -2.099092 1.139534 0.039276 0.027762 0.998843 0.158181 0.000372
2.032756 -2.099092 1.139534 -0.401249 -0.454354 0.795338 0.817674 0.516448
0.390289 -0.608084 1.162677 -0.401249 -0.454354 0.795338 0.817674 0.955829
0.657765 -0.980434 1.084906 -0.401249 -0.454354 0.795338 0.793790 0.866879
2.032756 -2.099092 1.139534 -0.401248 -0.454351 0.795340 0.817674 0.516448
0.657765 -0.980434 1.084906 -0.401248 -0.454351 0.795340 0.793790 0.866879
0.728099 -1.166081 1.014336 -0.401248 -0.454351 0.795340 0.771333 0.831706
0.431288 -1.129951 0.885234 -0.401250 -0.454355 0.795336 0.994901 0.000372
1.789449 -2.362870 0.866096 -0.401250 -0.454355 0.795336 0.994901 0.363698
0.573936 -1.189228 0.923336 -0.401250 -0.454355 0.795336 0.981954 0.029102
2.032756 -2.099092 1.139534 -0.401249 -0.454353 0.795338 0.817674 0.516448
0.728099 -1.166081 1.014336 -0.401249 -0.454353 0.795338 0.771333 0.831706
1.789449 -2.362870 0.866096 -0.401249 -0.454353 0.795338 0.728316 0.516448
0.431288 -1.129951 0.885234 -0.654025 -0.723871 0.219686 0.068824 0.363698
1.719427 -2.433174 0.425983 -0.654025 -0.723871 0.219686 0.000372 0.000372
2.424432 -1.649714 -0.014683 0.192602 0.226985 -0.954664 0.311345 0.000372
1.855454 -2.277107 0.025128 -0.600775 -0.654682 -0.458760 0.473443 0.000372
2.133883 -1.967694 -0.148905 -0.266416 -0.279159 -0.922547 0.396058 0.000372
1.855454 -2.277107 0.025128 -0.266416 -0.279159 -0.922547 0.473443 0.000372
0.232958 -0.974877 1.399754 0.710799 0.001912 0.703393 0.573368 0.750546
0.356088 -1.054012 1.275543 0.549623 -0.106734 0.828566 0.314494 0.717304
0.499880 -0.919304 1.040175 -0.401248 -0.454353 0.795339 0.119142 0.382000
0.657765 -0.980434 1.084906 -0.401248 -0.454353 0.795339 0.134297 0.350803
0.390289 -0.608084 1.162677 -0.401248 -0.454353 0.795339 0.158181 0.439753
0.146982 -0.871862 0.889239 -0.401250 -0.454354 0.795337 0.068824 0.439753
0.431288 -1.129951 0.885234 -0.401250 -0.454354 0.795337 0.068824 0.363698
0.407193 -0.970827 0.963981 -0.401250 -0.454354 0.795337 0.094129 0.388576
0.407193 -0.970827 0.963981 -0.401248 -0.454353 0.795339 0.094129 0.388576
0.573936 -1.189228 0.923336 -0.174378 -0.793984 -0.582393 0.661727 0.785997
0.407193 -0.970827 0.963981 -0.347871 0.916677 -0.196696 0.493213 0.772113
0.105517 -1.044405 1.154618 -0.347871 0.916677 -0.196696 0.493213 0.708911
0.198203 -0.992882 1.230812 -0.347871 0.916677 -0.196696 0.469220 0.715979
0.573936 -1.189228 0.923336 0.191257 -0.978665 -0.075067 0.687381 0.710257
0.728099 -1.166081 1.014336 0.191257 -0.978665 -0.075067 0.716226 0.701760
0.426423 -1.239659 1.204972 0.191257 -0.978665 -0.075067 0.716226 0.764962
0.407193 -0.970827 0.963981 -0.560813 0.297458 -0.772663 0.493213 0.772113
0.431288 -1.129951 0.885234 -0.560813 0.297458 -0.772663 0.517488 0.764962
0.129611 -1.203529 1.075870 -0.560813 0.297458 -0.772663 0.517488 0.701760
0.198203 -0.992882 1.230812 0.155993 0.813185 0.560710 0.341544 0.701760
-0.017613 -0.965270 1.278829 -0.401250 -0.454354 0.795337 0.222754 0.783904
0.006481 -1.124394 1.200082 -0.401250 -0.454354 0.795337 0.214813 0.749317
0.149129 -1.183672 1.238184 -0.401250 -0.454354 0.795337 0.241185 0.732068
0.149129 -1.183672 1.238184 -0.401250 -0.454352 0.795338 0.241185 0.732068
0.303292 -1.160524 1.329184 -0.401250 -0.454352 0.795338 0.276937 0.731952
0.232958 -0.974877 1.399754 -0.401250 -0.454352 0.795338 0.276937 0.773682
0.232958 -0.974877 1.399754 -0.401248 -0.454353 0.795338 0.276937 0.773682
0.075073 -0.913747 1.355023 -0.401248 -0.454353 0.795338 0.247375 0.791822
0.149129 -1.183672 1.238184 -0.401248 -0.454353 0.795338 0.241185 0.732068
0.129611 -1.203529 1.075870 -0.414850 -0.895805 0.159476 0.221130 0.719126
0.272259 -1.262806 1.113973 -0.414850 -0.895805 0.159476 0.247503 0.701877
0.149129 -1.183672 1.238184 -0.414850 -0.895805 0.159476 0.241185 0.732068
0.198203 -0.992882 1.230812 -0.014821 0.836566 -0.547665 0.253692 0.761630
0.105517 -1.044405 1.154618 -0.014821 0.836566 -0.547665 0.229072 0.753712
-0.017613 -0.965270 1.278829 -0.014821 0.836566 -0.547665 0.222754 0.783904
0.272259 -1.262806 1.113973 -0.126658 -0.888706 0.440636 0.247503 0.701877
0.426423 -1.239659 1.204972 -0.126658 -0.888706 0.440636 0.283254 0.701760
0.303292 -1.160524 1.329184 -0.126658 -0.888706 0.440636 0.276937 0.731952
0.129611 -1.203529 1.075870 -0.581904 0.288229 -0.760468 0.596342 0.750546
0.198203 -0.992882 1.230812 0.398730 0.899647 -0.177904 0.253692 0.761630
0.075073 -0.913747 1.355023 0.398730 0.899647 -0.177904 0.247375 0.791822
0.232958 -0.974877 1.399754 0.398730 0.899647 -0.177904 0.276937 0.773682
2.086720 -0.543553 0.612290 0.667665 0.733513 0.127208 0.605481 0.713627
2.157875 -0.636737 0.776141 0.667665 0.733513 0.127208 0.571129 0.701760
2.278347 -0.706555 0.546425 0.667665 0.733513 0.127208 0.569364 0.749802
2.279239 -0.734290 0.701669 0.667667 0.733511 0.127209 0.551898 0.729072
2.278347 -0.706555 0.546425 0.667667 0.733511 0.127209 0.569364 0.749802
2.157875 -0.636737 0.776141 0.667667 0.733511 0.127209 0.571129 0.701760
2.591150 -1.471953 0.364990 0.667665 0.733513 0.127208 0.214069 0.843274
2.062155 -0.991738 0.372443 0.667665 0.733513 0.127208 0.214069 0.701760
2.177459 -1.112252 0.462168 0.667665 0.733513 0.127208 0.198253 0.734526
2.178351 -1.139987 0.617412 0.667666 0.733512 0.127207 0.171374 0.738028
2.056988 -1.042434 0.691884 0.667666 0.733512 0.127207 0.158776 0.707091
2.556029 -1.517587 0.812460 0.667666 0.733512 0.127207 0.136683 0.843274
2.177459 -1.112252 0.462168 0.667665 0.733513 0.127209 0.198253 0.734526
1.985832 -0.949250 0.528033 -0.882095 0.125031 0.454175 0.435659 0.779510
2.056988 -1.042434 0.691884 -0.882095 0.125031 0.454175 0.468476 0.776481
2.157875 -0.636737 0.776141 -0.882095 0.125031 0.454175 0.468476 0.701760
2.062155 -0.991738 0.372443 0.619831 0.008830 -0.784686 0.551154 0.780230
2.163042 -0.586041 0.456701 0.619831 0.008830 -0.784686 0.551154 0.701760
2.278347 -0.706555 0.546425 0.619831 0.008830 -0.784686 0.518231 0.710308
2.056988 -1.042434 0.691884 0.335842 -0.270875 0.902129 0.637876 0.723579
2.178351 -1.139987 0.617412 0.335842 -0.270875 0.902129 0.660983 0.701760
2.279239 -0.734290 0.701669 0.335842 -0.270875 0.902129 0.660983 0.780230
1.985832 -0.949250 0.528033 -0.819618 0.304595 -0.485230 0.435659 0.779510
2.086720 -0.543553 0.612290 -0.819618 0.304595 -0.485230 0.435659 0.704790
2.163042 -0.586041 0.456701 -0.819618 0.304595 -0.485230 0.404900 0.707629
2.177459 -1.112252 0.462168 0.971614 -0.231856 -0.047004 0.606225 0.779334
3 0 1 2
3 3 4 5
3 6 7 8
3 9 10 11
3 12 13 14
3 15 16 17
3 18 19 20
3 21 22 23
3 24 25 26
3 21 27 28
3 29 30 31
3 32 33 34
3 35 36 37
3 18 38 39
3 15 40 41
3 42 43 44
3 45 46 47
3 0 48 49
3 6 50 51
3 52 53 54
3 55 56 57
3 58 59 60
3 61 62 63
3 64 65 66
3 67 68 69
3 70 71 72
3 73 74 75
3 76 77 78
3 79 80 81
3 82 83 84
3 85 86 87
3 88 89 90
3 91 92 93
3 94 95 96
3 97 98 99
3 100 101 102
3 103 104 105
3 106 107 108
3 109 110 111
3 112 113 114
3 115 116 117
3 0 49 1
3 52 54 118
3 6 51 7
3 9 119 10
3 12 120 13
3 15 41 16
3 18 39 19
3 121 122 123
3 124 125 126
3 24 127 25
3 21 23 27
3 31 128 29
3 29 129 30
3 130 131 132
3 30 133 134
3 134 31 30
3 135 136 137
3 138 139 140
3 141 142 143
3 143 144 141
3 33 145 34
3 34 146 32
3 32 147 33
3 148 149 150
3 151 152 153
3 150 149 154
3 18 155 38
3 15 156 40
3 157 158 159
3 160 161 162
3 163 164 165
3 166 167 168
3 169 119 9
3 9 170 169
3 0 171 48
3 6 172 50
3 3 173 174
3 55 175 56
3 58 176 59
3 177 178 179
3 180 181 182
3 183 177 179
3 64 184 65
3 185 186 187
3 188 189 190
3 191 192 193
3 76 194 77
3 195 196 197
3 198 199 200
3 201 202 203
3 204 205 206
3 207 208 209
3 210 211 212
3 91 213 92
3 214 215 216
3 217 218 219
3 220 221 222
3 223 224 225
3 226 227 228
3 102 229 100
3 230 231 232
3 233 234 235
3 236 237 238
3 239 240 241
3 115 242 116
