ply
format ascii 1.0
comment VCGLIB generated
element vertex 892
property float x
property float y
property float z
property float nx
property float ny
property float nz
element face 1024
property list uchar int vertex_indices
end_header
29.3068 -5e-006 24.3079 -0.949597 0.1875 -0.251217 
28.898 -5e-006 25.8534 -0.949674 0.187515 0.250912 
29.3723 -5e-006 26.3685 -0.0920357 0.0181727 0.99559 
30.3372 -5e-006 25.8534 0.675948 -0.133467 0.724763 
31.4002 -5e-006 24.3079 0.857728 -0.16936 0.485406 
27.0356 -11.5029 24.3079 -0.893014 0.369882 -0.256345 
26.6584 -11.3425 25.8534 -0.893437 0.369102 0.255995 
27.0959 -11.5286 26.3685 -0.0838777 0.0355071 0.995843 
27.986 -11.9073 25.8534 0.629723 -0.260439 0.731861 
28.9667 -12.3246 24.3079 0.803725 -0.332584 0.49337 
20.8078 -20.8079 24.3079 -0.683407 0.683407 -0.256731 
20.5176 -20.5176 25.8534 -0.683531 0.683531 0.256067 
20.8543 -20.8543 26.3685 -0.0649244 0.0649244 0.995776 
21.5394 -21.5394 25.8534 0.481398 -0.481398 0.732469 
22.2941 -22.2941 24.3079 0.614804 -0.614804 0.493997 
11.5029 -27.0356 24.3079 -0.369882 0.893014 -0.256345 
11.3424 -26.6584 25.8534 -0.369102 0.893437 0.255996 
11.5286 -27.0959 26.3685 -0.0355073 0.0838779 0.995843 
11.9073 -27.9861 25.8534 0.260439 -0.629723 0.731861 
12.3246 -28.9667 24.3079 0.332584 -0.803725 0.49337 
-2.2e-005 -29.3069 24.3079 -0.00284846 0.966177 -0.257864 
-2.2e-005 -28.898 25.8534 -0.00192305 0.967009 0.254736 
-2.2e-005 -29.3723 26.3685 -0.000266027 0.0922688 0.995734 
-2.2e-005 -30.3372 25.8534 2.39417e-005 -0.682061 0.731295 
-2.2e-005 -31.4002 24.3079 -1.46159e-008 -0.8703 0.492521 
-12.2978 -27.0356 24.3079 0.379058 0.852771 -0.3593 
-11.6778 -26.6584 25.8534 0.37711 0.914091 0.149084 
-11.628 -27.0959 26.3685 0.0275026 0.122552 0.992081 
-11.9198 -27.9861 25.8534 -0.26101 -0.635367 0.726762 
-12.3246 -28.9667 24.3079 -0.332485 -0.804271 0.492547 
-21.5144 -20.8079 24.3079 0.663548 0.625264 -0.410791 
-20.8157 -20.5176 25.8534 0.712664 0.697621 0.0737221 
-20.9427 -20.8543 26.3685 0.0997262 0.121983 0.987509 
-21.5505 -21.5394 25.8534 -0.48732 -0.488568 0.723754 
-22.2942 -22.2941 24.3079 -0.615242 -0.615484 0.492602 
-27.3005 -11.5029 24.3079 0.880028 0.338709 -0.332907 
-26.7702 -11.3425 25.8534 0.917276 0.361493 0.167114 
-27.1291 -11.5286 26.3685 0.113584 0.0480694 0.992365 
-27.9902 -11.9073 25.8534 -0.63415 -0.261889 0.727508 
-28.9667 -12.3246 24.3079 -0.804126 -0.332705 0.492634 
-29.3069 -5e-006 24.3079 0.953285 0.166272 -0.252193 
-28.898 -5e-006 25.8534 0.953604 0.172514 0.246735 
-29.3723 -5e-006 26.3685 0.0948097 0.0156312 0.995373 
-30.3372 -5e-006 25.8534 -0.676243 -0.132772 0.724615 
-31.4002 -5e-006 24.3079 -0.857786 -0.169252 0.485342 
-27.0356 11.5029 24.3079 0.893014 -0.369882 -0.256345 
-26.6584 11.3425 25.8534 0.893437 -0.369102 0.255995 
-27.0959 11.5286 26.3685 0.0838778 -0.0355071 0.995843 
-27.9861 11.9073 25.8534 -0.629723 0.260439 0.731861 
-28.9667 12.3246 24.3079 -0.803725 0.332584 0.49337 
-20.8079 20.8079 24.3079 0.683407 -0.683407 -0.256731 
-20.5176 20.5176 25.8534 0.683531 -0.683531 0.256067 
-20.8543 20.8543 26.3685 0.0649244 -0.0649245 0.995776 
-21.5394 21.5394 25.8534 -0.481398 0.481398 0.732469 
-22.2942 22.2941 24.3079 -0.614804 0.614804 0.493997 
-11.503 27.0356 24.3079 0.369882 -0.893014 -0.256345 
-11.3425 26.6584 25.8534 0.369102 -0.893437 0.255996 
-11.5286 27.0959 26.3685 0.0355071 -0.0838777 0.995843 
-11.9074 27.986 25.8534 -0.260439 0.629723 0.731861 
-12.3246 28.9667 24.3079 -0.332584 0.803725 0.49337 
-2.2e-005 29.3069 24.3079 6.98062e-008 -0.966742 -0.255753 
-2.2e-005 28.898 25.8534 1.29646e-008 -0.966824 0.255443 
-2.2e-005 29.3723 26.3685 -5.94652e-008 -0.0920508 0.995754 
-2.2e-005 30.3372 25.8534 1.256e-008 0.68205 0.731306 
-2.2e-005 31.4002 24.3079 1.46159e-008 0.8703 0.492521 
11.5029 27.0356 24.3079 -0.369882 -0.893014 -0.256345 
11.3424 26.6584 25.8534 -0.369102 -0.893437 0.255995 
11.5286 27.0959 26.3685 -0.0355071 -0.0838777 0.995843 
11.9073 27.986 25.8534 0.260439 0.629723 0.731861 
12.3246 28.9667 24.3079 0.332584 0.803725 0.49337 
20.8078 20.8079 24.3079 -0.683407 -0.683407 -0.256731 
20.5176 20.5176 25.8534 -0.683531 -0.683531 0.256067 
20.8543 20.8543 26.3685 -0.0649246 -0.0649245 0.995776 
21.5394 21.5394 25.8534 0.481398 0.481398 0.732469 
22.2941 22.2941 24.3079 0.614804 0.614804 0.493997 
27.0356 11.5029 24.3079 -0.893014 -0.369882 -0.256345 
26.6584 11.3425 25.8534 -0.893437 -0.369102 0.255996 
27.0959 11.5286 26.3685 -0.0838777 -0.0355071 0.995843 
27.986 11.9073 25.8534 0.629723 0.260439 0.731861 
28.9667 12.3246 24.3079 0.803725 0.332584 0.49337 
35.2434 -5e-006 16.0899 0.900728 -0.177851 0.396305 
38.5961 -5e-006 8.01904 0.925934 -0.182828 0.330485 
40.9674 -5e-006 0.24258 0.960913 -0.189734 0.201612 
41.8669 -5e-006 -7.09231 0.978984 -0.193303 -0.0649903 
32.5121 -13.8331 16.0899 0.845438 -0.349835 0.403546 
35.6049 -15.149 8.01904 0.869996 -0.360047 0.336858 
37.7925 -16.0797 0.24258 0.904193 -0.37428 0.205791 
38.6222 -16.4328 -7.09231 0.921879 -0.381752 -0.0663696 
25.0228 -25.0229 16.0899 0.646802 -0.646802 0.404096 
27.4032 -27.4032 8.01904 0.665655 -0.665655 0.337351 
29.0869 -29.0869 0.24258 0.691923 -0.691923 0.206119 
29.7255 -29.7255 -7.09231 0.705543 -0.705543 -0.0664796 
13.833 -32.5121 16.0899 0.349835 -0.845438 0.403546 
15.1489 -35.6049 8.01904 0.360047 -0.869996 0.336858 
16.0797 -37.7925 0.24258 0.37428 -0.904193 0.205791 
16.4328 -38.6223 -7.09231 0.381752 -0.921879 -0.0663697 
-2.2e-005 -35.2435 16.0899 2.89987e-008 -0.915321 0.402725 
-2.2e-005 -38.5961 8.01904 2.42884e-008 -0.941808 0.336151 
-2.2e-005 -40.9675 0.24258 1.47001e-008 -0.97869 0.205342 
-2.2e-005 -41.8669 -7.09231 -2.51825e-008 -0.997804 -0.0662397 
-13.8331 -32.5121 16.0899 -0.349835 -0.845438 0.403546 
-15.149 -35.6049 8.01904 -0.360047 -0.869996 0.336859 
-16.0798 -37.7925 0.24258 -0.37428 -0.904193 0.205791 
-16.4328 -38.6223 -7.09231 -0.381752 -0.921879 -0.0663697 
-25.0229 -25.0229 16.0899 -0.646802 -0.646802 0.404096 
-27.4032 -27.4032 8.01904 -0.665655 -0.665655 0.337351 
-29.0869 -29.0869 0.24258 -0.691923 -0.691923 0.206119 
-29.7256 -29.7255 -7.09231 -0.705543 -0.705543 -0.0664796 
-32.5121 -13.8331 16.0899 -0.845438 -0.349835 0.403546 
-35.6049 -15.149 8.01904 -0.869996 -0.360047 0.336858 
-37.7925 -16.0797 0.24258 -0.904193 -0.37428 0.205791 
-38.6223 -16.4328 -7.09231 -0.921879 -0.381752 -0.0663697 
-35.2435 -5e-006 16.0899 -0.900728 -0.177851 0.396305 
-38.5961 -5e-006 8.01904 -0.925934 -0.182828 0.330485 
-40.9675 -5e-006 0.24258 -0.960913 -0.189734 0.201612 
-41.867 -5e-006 -7.09231 -0.978984 -0.193303 -0.0649903 
-32.5121 13.8331 16.0899 -0.845438 0.349835 0.403546 
-35.6049 15.149 8.01904 -0.869996 0.360047 0.336859 
-37.7925 16.0797 0.24258 -0.904193 0.37428 0.205791 
-38.6223 16.4328 -7.09231 -0.921879 0.381752 -0.0663697 
-25.0229 25.0229 16.0899 -0.646802 0.646802 0.404096 
-27.4032 27.4032 8.01904 -0.665655 0.665655 0.337351 
-29.0869 29.0869 0.24258 -0.691923 0.691923 0.206119 
-29.7256 29.7255 -7.09231 -0.705543 0.705543 -0.0664796 
-13.8331 32.5121 16.0899 -0.349835 0.845438 0.403546 
-15.149 35.6049 8.01904 -0.360047 0.869996 0.336859 
-16.0798 37.7925 0.24258 -0.37428 0.904193 0.205791 
-16.4328 38.6223 -7.09231 -0.381752 0.921879 -0.0663697 
-2.2e-005 35.2435 16.0899 -2.89987e-008 0.915321 0.402725 
-2.2e-005 38.5961 8.01904 -2.42884e-008 0.941808 0.336151 
-2.2e-005 40.9675 0.24258 -1.47001e-008 0.97869 0.205342 
-2.2e-005 41.8669 -7.09231 2.51825e-008 0.997804 -0.0662397 
13.833 32.5121 16.0899 0.349835 0.845438 0.403546 
15.1489 35.6049 8.01904 0.360047 0.869996 0.336859 
16.0797 37.7925 0.24258 0.37428 0.904193 0.205791 
16.4328 38.6223 -7.09231 0.381752 0.921879 -0.0663696 
25.0228 25.0229 16.0899 0.646802 0.646802 0.404096 
27.4032 27.4032 8.01904 0.665655 0.665655 0.337351 
29.0869 29.0869 0.24258 0.691923 0.691923 0.206119 
29.7255 29.7255 -7.09231 0.705543 0.705543 -0.0664796 
32.5121 13.8331 16.0899 0.845438 0.349835 0.403546 
35.6049 15.149 8.01904 0.869996 0.360047 0.336859 
37.7925 16.0797 0.24258 0.904193 0.37428 0.205791 
38.6222 16.4328 -7.09231 0.921879 0.381752 -0.0663697 
40.2315 -5e-006 -13.2988 0.886291 -0.175 -0.428793 
36.6336 -5e-006 -17.8861 0.722155 -0.142591 -0.676875 
33.0356 -5e-006 -21.0016 0.687527 -0.135754 -0.713357 
31.4002 -5e-006 -22.7924 0.730687 -0.144276 -0.667294 
37.1135 -15.7909 -13.2988 0.831437 -0.344179 -0.43618 
33.7944 -14.3787 -17.8861 0.673512 -0.278595 -0.684665 
30.4754 -12.9665 -21.0016 0.640399 -0.264874 -0.720924 
28.9667 -12.3246 -22.7924 0.681796 -0.281395 -0.675256 
28.5644 -28.5644 -13.2988 0.636092 -0.636092 -0.436777 
26.0098 -26.0098 -17.8861 0.514965 -0.514965 -0.68529 
23.4553 -23.4553 -21.0016 0.489651 -0.489651 -0.721446 
22.2941 -22.2941 -22.7924 0.521165 -0.521165 -0.67585 
15.7908 -37.1136 -13.2988 0.344179 -0.831437 -0.43618 
14.3787 -33.7945 -17.8861 0.278595 -0.673512 -0.684666 
12.9665 -30.4754 -21.0016 0.264874 -0.640399 -0.720924 
12.3246 -28.9667 -22.7924 0.281395 -0.681796 -0.675256 
-2.2e-005 -40.2315 -13.2988 -3.5206e-008 -0.900182 -0.435513 
-2.2e-005 -36.6336 -17.8861 -7.28409e-009 -0.729611 -0.683863 
-2.2e-005 -33.0356 -21.0016 2.14714e-008 -0.693951 -0.720022 
-2.2e-005 -31.4002 -22.7924 -1.76974e-008 -0.738412 -0.674349 
-15.7909 -37.1136 -13.2988 -0.344179 -0.831437 -0.43618 
-14.3787 -33.7945 -17.8861 -0.278595 -0.673512 -0.684666 
-12.9665 -30.4754 -21.0016 -0.264874 -0.640399 -0.720924 
-12.3246 -28.9667 -22.7924 -0.281395 -0.681796 -0.675256 
-28.5644 -28.5644 -13.2988 -0.636092 -0.636092 -0.436777 
-26.0099 -26.0098 -17.8861 -0.514965 -0.514965 -0.68529 
-23.4553 -23.4553 -21.0016 -0.489651 -0.489651 -0.721446 
-22.2942 -22.2941 -22.7924 -0.521165 -0.521165 -0.67585 
-37.1136 -15.7909 -13.2988 -0.831437 -0.344179 -0.43618 
-33.7945 -14.3787 -17.8861 -0.673512 -0.278595 -0.684666 
-30.4754 -12.9665 -21.0016 -0.640399 -0.264874 -0.720924 
-28.9667 -12.3246 -22.7924 -0.681796 -0.281395 -0.675256 
-40.2315 -5e-006 -13.2988 -0.886291 -0.175 -0.428793 
-36.6336 -5e-006 -17.8861 -0.722155 -0.142591 -0.676875 
-33.0357 -5e-006 -21.0016 -0.687527 -0.135754 -0.713357 
-31.4002 -5e-006 -22.7924 -0.730687 -0.144276 -0.667294 
-37.1136 15.7909 -13.2988 -0.831437 0.344179 -0.43618 
-33.7945 14.3787 -17.8861 -0.673512 0.278595 -0.684666 
-30.4754 12.9665 -21.0016 -0.640399 0.264874 -0.720924 
-28.9667 12.3246 -22.7924 -0.681796 0.281395 -0.675256 
-28.5644 28.5644 -13.2988 -0.636092 0.636092 -0.436777 
-26.0099 26.0098 -17.8861 -0.514965 0.514965 -0.68529 
-23.4553 23.4553 -21.0016 -0.489651 0.489651 -0.721446 
-22.2942 22.2941 -22.7924 -0.521165 0.521165 -0.67585 
-15.7909 37.1136 -13.2988 -0.344179 0.831437 -0.43618 
-14.3787 33.7945 -17.8861 -0.278595 0.673512 -0.684666 
-12.9665 30.4754 -21.0016 -0.264874 0.640399 -0.720924 
-12.3246 28.9667 -22.7924 -0.281395 0.681796 -0.675256 
-2.2e-005 40.2315 -13.2988 3.5206e-008 0.900182 -0.435513 
-2.2e-005 36.6336 -17.8861 7.28409e-009 0.729611 -0.683863 
-2.2e-005 33.0356 -21.0016 -2.14714e-008 0.693951 -0.720022 
-2.2e-005 31.4002 -22.7924 1.76974e-008 0.738412 -0.674349 
15.7908 37.1136 -13.2988 0.344179 0.831437 -0.43618 
14.3787 33.7945 -17.8861 0.278594 0.673512 -0.684665 
12.9665 30.4754 -21.0016 0.264874 0.640399 -0.720924 
12.3246 28.9667 -22.7924 0.281395 0.681796 -0.675256 
28.5644 28.5644 -13.2988 0.636092 0.636092 -0.436777 
26.0098 26.0098 -17.8861 0.514965 0.514965 -0.68529 
23.4553 23.4553 -21.0016 0.489651 0.489651 -0.721446 
22.2941 22.2941 -22.7924 0.521165 0.521165 -0.67585 
37.1135 15.7909 -13.2988 0.831437 0.344179 -0.43618 
33.7944 14.3787 -17.8861 0.673512 0.278595 -0.684666 
30.4754 12.9665 -21.0016 0.640399 0.264874 -0.720924 
28.9667 12.3246 -22.7924 0.681796 0.281395 -0.675256 
30.6888 -5e-006 -23.9454 0.619179 -0.122258 -0.775674 
26.8864 -5e-006 -24.9512 0.177182 -0.034985 -0.983556 
17.4909 -5e-006 -25.6626 0.0492048 -0.00971561 -0.998741 
-2.2e-005 -5e-006 -25.9324 0 1.44732e-010 -1 
28.3104 -12.0454 -23.9454 0.57623 -0.238217 -0.781801 
24.8027 -10.5529 -24.9512 0.163629 -0.0675273 -0.984208 
16.1353 -6.86518 -25.6626 0.0454216 -0.0187357 -0.998792 
21.789 -21.789 -23.9454 0.440416 -0.440416 -0.782348 
19.0893 -19.0894 -24.9512 0.124903 -0.124903 -0.984276 
12.4185 -12.4185 -25.6626 0.0346621 -0.0346621 -0.998798 
12.0453 -28.3104 -23.9454 0.238217 -0.57623 -0.781801 
10.5529 -24.8027 -24.9512 0.0675273 -0.163629 -0.984208 
6.86516 -16.1354 -25.6626 0.0187357 -0.0454217 -0.998792 
-2.2e-005 -30.6888 -23.9454 7.9369e-009 -0.623859 -0.781537 
-2.2e-005 -26.8864 -24.9512 1.49237e-009 -0.177291 -0.984158 
-2.2e-005 -17.4909 -25.6626 -9.64117e-010 -0.0492072 -0.998789 
-12.0454 -28.3104 -23.9454 -0.238217 -0.57623 -0.781801 
-10.5529 -24.8027 -24.9512 -0.0675273 -0.163629 -0.984208 
-6.8652 -16.1354 -25.6626 -0.0187357 -0.0454216 -0.998792 
-21.7891 -21.789 -23.9454 -0.440416 -0.440416 -0.782348 
-19.0894 -19.0894 -24.9512 -0.124903 -0.124903 -0.984276 
-12.4186 -12.4185 -25.6626 -0.0346621 -0.0346621 -0.998798 
-28.3104 -12.0454 -23.9454 -0.57623 -0.238217 -0.781801 
-24.8028 -10.5529 -24.9512 -0.163629 -0.0675273 -0.984208 
-16.1354 -6.86518 -25.6626 -0.0454216 -0.0187357 -0.998792 
-30.6888 -5e-006 -23.9454 -0.619179 -0.122258 -0.775674 
-26.8864 -5e-006 -24.9512 -0.177182 -0.034985 -0.983556 
-17.4909 -5e-006 -25.6626 -0.0492048 -0.0097156 -0.998741 
-28.3104 12.0453 -23.9454 -0.57623 0.238217 -0.781801 
-24.8028 10.5529 -24.9512 -0.163629 0.0675273 -0.984208 
-16.1354 6.86517 -25.6626 -0.0454216 0.0187357 -0.998792 
-21.7891 21.789 -23.9454 -0.440416 0.440416 -0.782348 
-19.0894 19.0894 -24.9512 -0.124903 0.124903 -0.984276 
-12.4186 12.4185 -25.6626 -0.0346621 0.0346621 -0.998798 
-12.0454 28.3104 -23.9454 -0.238217 0.57623 -0.781801 
-10.5529 24.8027 -24.9512 -0.0675273 0.163629 -0.984208 
-6.8652 16.1353 -25.6626 -0.0187357 0.0454216 -0.998792 
-2.2e-005 30.6888 -23.9454 -7.9369e-009 0.623859 -0.781537 
-2.2e-005 26.8864 -24.9512 -1.49237e-009 0.177291 -0.984158 
-2.2e-005 17.4909 -25.6626 8.15791e-010 0.0492071 -0.998789 
12.0453 28.3104 -23.9454 0.238217 0.57623 -0.781801 
10.5529 24.8027 -24.9512 0.0675273 0.163629 -0.984208 
6.86516 16.1353 -25.6626 0.0187357 0.0454216 -0.998792 
21.789 21.789 -23.9454 0.440416 0.440416 -0.782348 
19.0893 19.0894 -24.9512 0.124903 0.124903 -0.984276 
12.4185 12.4185 -25.6626 0.0346621 0.0346621 -0.998798 
28.3104 12.0453 -23.9454 0.57623 0.238217 -0.781801 
24.8027 10.5529 -24.9512 0.163629 0.0675273 -0.984208 
16.1353 6.86517 -25.6626 0.0454216 0.0187357 -0.998792 
-33.4936 -5e-006 16.4578 0.00787971 -0.202872 -0.979173 
-43.2734 -5e-006 16.3842 0.0393279 -0.201988 -0.978598 
-50.502 -5e-006 15.8691 0.178223 -0.203234 -0.962773 
-54.9831 -5e-006 14.4708 0.595214 -0.236029 -0.768121 
-56.5204 -5e-006 11.7478 0.950444 -0.263406 -0.165147 
-33.1665 -3.53253 17.1938 0.00703892 -0.582926 -0.812495 
-43.5647 -3.53253 17.1087 0.0361274 -0.545614 -0.837257 
-51.1971 -3.53253 16.513 0.161845 -0.563048 -0.810421 
-55.8979 -3.53253 14.8963 0.482365 -0.642746 -0.595148 
-57.5017 -3.53253 11.7478 0.73872 -0.664199 -0.114593 
-32.4469 -4.71004 18.8129 -0.00190865 -0.986769 0.162121 
-44.2056 -4.71004 18.7025 0.00276156 -0.99985 0.0171065 
-52.7262 -4.71004 17.9297 0.0105326 -0.997247 0.073399 
-57.9105 -4.71004 15.8323 -0.0660409 -0.989303 0.13007 
-59.6604 -4.71004 11.7478 -0.0944264 -0.995394 0.0165942 
-31.7273 -3.53253 20.4319 -0.00920291 -0.490293 0.871509 
-44.8465 -3.53253 20.2962 -0.0486064 -0.539458 0.840608 
-54.2553 -3.53253 19.3464 -0.223298 -0.552739 0.802881 
-59.9231 -3.53253 16.7683 -0.596365 -0.575135 0.559971 
-61.8192 -3.53253 11.7478 -0.803337 -0.591603 0.068236 
-31.4002 -5e-006 21.1679 -0.0105608 -0.000103318 0.999944 
-45.1378 -5e-006 21.0207 -0.0587986 -0.000709805 0.99827 
-54.9504 -5e-006 19.9904 -0.28071 -0.00326874 0.959787 
-60.8379 -5e-006 17.1938 -0.749723 -0.00426833 0.661738 
-62.8004 -5e-006 11.7478 -0.997351 -0.00205932 0.0727144 
-31.7273 3.53252 20.4319 -0.00879205 0.49033 0.871493 
-44.8465 3.53252 20.2962 -0.0464935 0.538756 0.841178 
-54.2553 3.53252 19.3464 -0.217909 0.549161 0.806807 
-59.9231 3.53252 16.7683 -0.597291 0.574121 0.560026 
-61.8192 3.53252 11.7478 -0.804 0.591292 0.0629128 
-32.4469 4.71003 18.8129 -0.00180565 0.98684 0.161691 
-44.2056 4.71003 18.7025 0.002031 0.999892 0.0145544 
-52.7262 4.71003 17.9297 0.00921499 0.998152 0.0600698 
-57.9105 4.71003 15.8323 -0.0593338 0.991723 0.113865 
-59.6604 4.71003 11.7478 -0.0868985 0.996141 0.0122905 
-33.1665 3.53252 17.1938 0.00641771 0.583095 -0.812379 
-43.5647 3.53252 17.1087 0.0337833 0.545373 -0.837512 
-51.1971 3.53252 16.513 0.157113 0.562189 -0.811947 
-55.8979 3.53252 14.8963 0.484406 0.646528 -0.589366 
-57.5017 3.53252 11.7478 0.73887 0.666187 -0.10132 
-55.7027 -5e-006 7.47935 0.912707 -0.260854 0.314517 
-53.1187 -5e-006 2.32775 0.802378 -0.233255 0.549346 
-48.5722 -5e-006 -2.82384 0.639269 -0.199248 0.742721 
-41.867 -5e-006 -7.09231 0.528086 -0.181536 0.82956 
-56.5945 -3.53253 7.0673 0.725608 -0.637362 0.259351 
-53.7524 -3.53253 1.69913 0.645945 -0.607719 0.461988 
-48.7945 -3.53253 -3.60003 0.531615 -0.558614 0.63666 
-41.5399 -3.53253 -8.07357 0.424963 -0.59554 0.681717 
-58.5565 -4.71004 6.16078 -0.0495622 -0.998576 -0.0197551 
-55.1466 -4.71004 0.316175 -0.0378168 -0.99865 -0.0356247 
-49.2836 -4.71004 -5.30765 -0.0379137 -0.998614 -0.0365121 
-40.8203 -4.71004 -10.2323 -0.168854 -0.93953 -0.297945 
-60.5185 -3.53253 5.25427 -0.742342 -0.599523 -0.299166 
-56.5408 -3.53253 -1.06678 -0.619602 -0.579502 -0.529406 
-49.7727 -3.53253 -7.01527 -0.483708 -0.543837 -0.685761 
-40.1007 -3.53253 -12.3911 -0.445293 -0.413176 -0.794355 
-61.4103 -5e-006 4.84222 -0.926513 -0.00199597 -0.376258 
-57.1746 -5e-006 -1.6954 -0.75392 -0.00431725 -0.656952 
-49.995 -5e-006 -7.79146 -0.566224 -0.00346113 -0.824244 
-39.7736 -5e-006 -13.3724 -0.481804 -0.00185049 -0.876277 
-60.5185 3.53252 5.25427 -0.744675 0.598976 -0.294425 
-56.5408 3.53252 -1.06678 -0.62195 0.578165 -0.528114 
-49.7727 3.53252 -7.01527 -0.481171 0.542828 -0.68834 
-40.1007 3.53252 -12.3911 -0.438055 0.415744 -0.797035 
-58.5565 4.71003 6.16078 -0.0443374 0.998871 -0.0170561 
-55.1466 4.71003 0.316175 -0.0261766 0.99926 -0.0281669 
-49.2836 4.71003 -5.30765 -0.0252938 0.999279 -0.0283321 
-40.8203 4.71003 -10.2323 -0.157482 0.944167 -0.289392 
-56.5945 3.53252 7.0673 0.728244 0.637142 0.25241 
-53.7524 3.53252 1.69913 0.647055 0.608254 0.459725 
-48.7945 3.53252 -3.60003 0.522994 0.56217 0.640657 
-41.5399 3.53252 -8.07357 0.409978 0.604669 0.682857 
35.5869 -5e-006 3.89776 -0.230787 0.00652331 0.972982 
45.6284 -5e-006 6.20371 -0.548936 0.00151112 0.835863 
49.9786 -5e-006 11.7478 -0.875671 -0.00989282 0.482807 
52.3664 -5e-006 18.4694 -0.877554 -0.0190923 0.479097 
56.5204 -5e-006 24.3079 -0.69619 -0.0244969 0.717439 
35.5869 -7.77156 1.19931 -0.152878 -0.71019 0.687211 
46.395 -7.01721 4.20287 -0.316721 -0.702113 0.63775 
50.9599 -5.35767 10.5826 -0.601067 -0.64533 0.471452 
53.5623 -3.69812 18.0478 -0.635889 -0.629801 0.44609 
58.4829 -2.94377 24.3079 -0.435746 -0.670011 0.601008 
35.5869 -10.3621 -4.7373 0.111113 -0.99016 -0.0850695 
48.0815 -9.35629 -0.198984 0.22331 -0.974726 0.00654018 
53.1187 -7.14355 8.01904 0.190096 -0.969458 0.154964 
56.1933 -4.93082 17.1202 0.00527091 -0.98187 0.189482 
62.8004 -3.92503 24.3079 -0.0117518 -0.969024 0.246688 
35.5869 -7.77156 -10.6739 0.343906 -0.599412 -0.722796 
49.7681 -7.01721 -4.60084 0.572489 -0.591627 -0.567656 
55.2774 -5.35767 5.4555 0.787436 -0.560512 -0.256459 
58.8243 -3.69812 16.1926 0.647097 -0.698141 -0.306374 
67.1179 -2.94377 24.3079 0.427528 -0.753575 -0.499344 
35.5869 -5e-006 -13.3724 0.393393 -0.301564 -0.868505 
50.5347 -5e-006 -6.60168 0.643061 -0.275859 -0.714405 
56.2587 -5e-006 4.29026 0.894326 -0.239708 -0.377785 
60.0202 -5e-006 15.771 0.806492 -0.304598 -0.506745 
69.0804 -5e-006 24.3079 0.508715 -0.326019 -0.796819 
35.5869 7.77155 -10.6739 0.341188 0.600931 -0.722822 
49.7681 7.01721 -4.60084 0.578663 0.591838 -0.561139 
55.2774 5.35766 5.4555 0.784869 0.566542 -0.25102 
58.8243 3.69811 16.1926 0.642681 0.70399 -0.302257 
67.1179 2.94376 24.3079 0.418589 0.758117 -0.500042 
35.5869 10.3621 -4.7373 0.115806 0.990114 -0.0791394 
48.0815 9.35628 -0.198984 0.232811 0.972441 0.012565 
53.1187 7.14354 8.01904 0.206661 0.96628 0.153601 
56.1933 4.93081 17.1202 0.0244997 0.986578 0.161443 
62.8004 3.92502 24.3079 0.00338206 0.977455 0.211116 
35.5869 7.77155 1.19931 -0.134912 0.713551 0.687491 
46.395 7.01721 4.20287 -0.31954 0.705062 0.633073 
50.9599 5.35766 10.5826 -0.603902 0.649903 0.461442 
53.5623 3.69811 18.0478 -0.631815 0.640072 0.437169 
58.4829 2.94376 24.3079 -0.424306 0.666751 0.612706 
58.0249 -5e-006 25.191 -0.4258 -0.0108051 0.904753 
59.137 -5e-006 25.4854 0.0220453 -0.00162363 0.999756 
59.4641 -5e-006 25.191 0.999598 -0.0115557 0.0258758 
58.6137 -5e-006 24.3079 0.709585 -0.00967157 -0.704554 
60.1267 -2.75979 25.2341 -0.259857 -0.552548 0.791938 
61.1098 -2.35502 25.5544 0.00953883 0.021675 0.99972 
61.1392 -1.95025 25.2514 0.410157 0.849082 0.332914 
59.922 -1.76627 24.3079 0.541523 0.637 -0.54862 
64.7506 -3.67972 25.329 0.0463107 -0.889173 0.455222 
65.4498 -3.14003 25.7062 -0.0106888 -0.1489 0.988795 
64.8242 -2.60033 25.3842 -0.0443759 0.72912 0.682946 
62.8004 -2.35502 24.3079 0.122825 0.992385 0.00923254 
69.3746 -2.75979 25.4239 0.481839 -0.85748 -0.180441 
69.7898 -2.35502 25.858 0.455271 -0.499924 0.736752 
68.5093 -1.95025 25.517 -0.220542 0.358278 0.907193 
65.6787 -1.76627 24.3079 -0.23592 0.715796 0.65725 
71.4763 -5e-006 25.467 0.639875 -0.472162 -0.60632 
71.7625 -5e-006 25.927 0.731498 -0.567037 0.378654 
70.1843 -5e-006 25.5774 -0.254476 0.187616 0.948705 
66.9871 -5e-006 24.3079 -0.360071 0.272194 0.892334 
69.3746 2.75978 25.4239 0.480165 0.858853 -0.178364 
69.7898 2.35501 25.858 0.488101 0.497947 0.716803 
68.5093 1.95024 25.517 -0.222005 -0.361893 0.905399 
65.6787 1.76626 24.3079 -0.235405 -0.710477 0.663179 
64.7506 3.67971 25.329 0.05872 0.897201 0.437702 
65.4498 3.14002 25.7062 0.00132587 0.164001 0.986459 
64.8242 2.60033 25.3842 -0.0441895 -0.730319 0.681675 
62.8004 2.35501 24.3079 0.138801 -0.98973 -0.034189 
60.1267 2.75978 25.2341 -0.258889 0.545379 0.797207 
61.1098 2.35501 25.5544 0.0122703 -0.0192874 0.999739 
61.1392 1.95024 25.2514 0.398631 -0.845662 0.354892 
59.922 1.76626 24.3079 0.537564 -0.610737 -0.581399 
-2.2e-005 -5e-006 40.008 -3.30379e-008 1.17992e-009 1 
7.13044 -5e-006 38.9777 0.813976 -0.15961 0.558541 
6.80336 -5e-006 36.4755 0.903174 -0.177194 -0.390997 
4.12125 -5e-006 33.3845 0.919806 -0.18101 -0.348126 
4.18667 -5e-006 30.5879 0.9808 -0.193661 0.0229431 
6.58032 -2.80616 38.9777 0.762641 -0.314825 0.565035 
6.2783 -2.67695 36.4755 0.847982 -0.350034 -0.397998 
3.80268 -1.62009 33.3845 0.864141 -0.356442 -0.355261 
3.8622 -1.64328 30.5879 0.92383 -0.382112 0.0229866 
5.06923 -5.06926 38.9777 0.583357 -0.583338 0.565165 
4.83626 -4.83629 36.4755 0.648485 -0.648448 -0.398726 
2.92829 -2.92832 33.3845 0.660872 -0.660748 -0.355894 
2.97253 -2.97256 30.5879 0.707 -0.706855 0.0224874 
2.80614 -6.58034 38.9777 0.314824 -0.762629 0.565051 
2.67693 -6.27833 36.4755 0.350045 -0.847988 -0.397976 
1.62006 -3.80271 33.3845 0.356474 -0.864153 -0.355199 
1.64325 -3.86223 30.5879 0.382141 -0.923825 0.0227091 
-2.2e-005 -7.13047 38.9777 -1.72046e-005 -0.82454 0.565803 
-2.2e-005 -6.80338 36.4755 -3.3458e-005 -0.917701 -0.397272 
-2.2e-005 -4.12128 33.3845 -0.000112803 -0.935269 -0.353939 
-2.2e-005 -4.1867 30.5879 -0.000132172 -0.99973 0.0232299 
-2.80618 -6.58034 38.9777 -0.314825 -0.76264 0.565035 
-2.67697 -6.27833 36.4755 -0.350034 -0.847982 -0.397998 
-1.62011 -3.80271 33.3845 -0.356442 -0.864141 -0.35526 
-1.6433 -3.86223 30.5879 -0.382112 -0.92383 0.0229866 
-5.06927 -5.06926 38.9777 -0.583338 -0.583357 0.565165 
-4.83631 -4.83629 36.4755 -0.648448 -0.648485 -0.398726 
-2.92834 -2.92832 33.3845 -0.660748 -0.660872 -0.355894 
-2.97257 -2.97256 30.5879 -0.706856 -0.707 0.0224874 
-6.58036 -2.80616 38.9777 -0.762629 -0.314824 0.565051 
-6.27835 -2.67695 36.4755 -0.847988 -0.350045 -0.397976 
-3.80273 -1.62009 33.3845 -0.864153 -0.356474 -0.355199 
-3.86225 -1.64328 30.5879 -0.923825 -0.382142 0.0227088 
-7.13049 -5e-006 38.9777 -0.813968 -0.159573 0.558563 
-6.8034 -5e-006 36.4755 -0.903196 -0.177124 -0.390978 
-4.1213 -5e-006 33.3845 -0.919867 -0.180805 -0.348071 
-4.18672 -5e-006 30.5879 -0.980859 -0.193401 0.0226388 
-6.58036 2.80615 38.9777 -0.762641 0.314825 0.565035 
-6.27835 2.67694 36.4755 -0.847982 0.350035 -0.397998 
-3.80273 1.62008 33.3845 -0.864141 0.356441 -0.355261 
-3.86225 1.64327 30.5879 -0.92383 0.382112 0.0229865 
-5.06927 5.06925 38.9777 -0.583357 0.583338 0.565165 
-4.83631 4.83628 36.4755 -0.648485 0.648448 -0.398726 
-2.92834 2.92831 33.3845 -0.660872 0.660748 -0.355894 
-2.97257 2.97255 30.5879 -0.707 0.706855 0.0224872 
-2.80618 6.58033 38.9777 -0.314824 0.762629 0.565051 
-2.67697 6.27832 36.4755 -0.350045 0.847988 -0.397976 
-1.62011 3.8027 33.3845 -0.356474 0.864153 -0.355199 
-1.6433 3.86222 30.5879 -0.382142 0.923825 0.0227088 
-2.2e-005 7.13046 38.9777 1.7349e-005 0.82454 0.565804 
-2.2e-005 6.80337 36.4755 3.35905e-005 0.917701 -0.397272 
-2.2e-005 4.12127 33.3845 0.000112847 0.935269 -0.353939 
-2.2e-005 4.18669 30.5879 0.000132356 0.99973 0.0232298 
2.80614 6.58033 38.9777 0.314825 0.762641 0.565035 
2.67693 6.27832 36.4755 0.350034 0.847982 -0.397998 
1.62006 3.8027 33.3845 0.356442 0.864141 -0.355261 
1.64325 3.86222 30.5879 0.382112 0.92383 0.0229863 
5.06923 5.06925 38.9777 0.583338 0.583357 0.565165 
4.83626 4.83628 36.4755 0.648448 0.648485 -0.398726 
2.92829 2.92831 33.3845 0.660748 0.660872 -0.355894 
2.97253 2.97255 30.5879 0.706855 0.707001 0.0224871 
6.58032 2.80615 38.9777 0.762629 0.314824 0.565051 
6.2783 2.67694 36.4755 0.847988 0.350045 -0.397976 
3.80268 1.62008 33.3845 0.864153 0.356474 -0.355199 
3.8622 1.64327 30.5879 0.923825 0.382142 0.022709 
9.55087 -5e-006 28.7236 0.236326 -0.046663 0.970553 
17.2701 -5e-006 27.4479 0.172983 -0.0341559 0.984332 
24.2043 -5e-006 26.1723 0.378641 -0.0747635 0.922519 
27.2135 -5e-006 24.3079 0.523848 -0.103435 0.845509 
8.81068 -3.74873 28.7236 0.217978 -0.0902162 0.971775 
15.9317 -6.77852 27.4479 0.159589 -0.0659614 0.984977 
22.3285 -9.5002 26.1723 0.350498 -0.14474 0.925312 
25.1044 -10.6813 24.3079 0.48559 -0.201475 0.850653 
6.78112 -6.78114 28.7236 0.166631 -0.166631 0.971838 
12.2618 -12.2618 27.4479 0.121908 -0.121908 0.985026 
17.185 -17.1851 26.1723 0.267668 -0.267668 0.925585 
19.3216 -19.3216 24.3079 0.371315 -0.371315 0.851029 
3.7487 -8.81071 28.7236 0.0902162 -0.217978 0.971775 
6.7785 -15.9317 27.4479 0.0659614 -0.159589 0.984977 
9.50018 -22.3285 26.1723 0.14474 -0.350498 0.925311 
10.6813 -25.1045 24.3079 0.201475 -0.48559 0.850653 
-2.2e-005 -9.5509 28.7236 9.507e-009 -0.236584 0.971611 
-2.2e-005 -17.2701 27.4479 -1.60214e-008 -0.173084 0.984907 
-2.2e-005 -24.2043 26.1723 -7.32353e-009 -0.379703 0.925108 
-2.2e-005 -27.2135 24.3079 -5.33008e-009 -0.526673 0.850068 
-3.74875 -8.81071 28.7236 -0.0902162 -0.217978 0.971775 
-6.77854 -15.9317 27.4479 -0.0659614 -0.159589 0.984977 
-9.50022 -22.3285 26.1723 -0.14474 -0.350498 0.925312 
-10.6813 -25.1045 24.3079 -0.201474 -0.48559 0.850653 
-6.78116 -6.78114 28.7236 -0.166631 -0.166631 0.971838 
-12.2618 -12.2618 27.4479 -0.121908 -0.121908 0.985026 
-17.1851 -17.1851 26.1723 -0.267668 -0.267668 0.925585 
-19.3216 -19.3216 24.3079 -0.371315 -0.371315 0.851029 
-8.81072 -3.74873 28.7236 -0.217978 -0.0902162 0.971775 
-15.9317 -6.77852 27.4479 -0.159589 -0.0659614 0.984977 
-22.3285 -9.5002 26.1723 -0.350498 -0.14474 0.925312 
-25.1045 -10.6813 24.3079 -0.48559 -0.201475 0.850653 
-9.55092 -5e-006 28.7236 -0.236326 -0.046663 0.970553 
-17.2701 -5e-006 27.4479 -0.172983 -0.0341559 0.984332 
-24.2043 -5e-006 26.1723 -0.378641 -0.0747635 0.922519 
-27.2135 -5e-006 24.3079 -0.523848 -0.103435 0.845509 
-8.81072 3.74872 28.7236 -0.217978 0.0902162 0.971775 
-15.9317 6.77851 27.4479 -0.159589 0.0659614 0.984977 
-22.3285 9.50019 26.1723 -0.350498 0.14474 0.925312 
-25.1045 10.6813 24.3079 -0.48559 0.201474 0.850653 
-6.78116 6.78113 28.7236 -0.166631 0.166631 0.971838 
-12.2618 12.2618 27.4479 -0.121908 0.121908 0.985026 
-17.1851 17.1851 26.1723 -0.267668 0.267668 0.925585 
-19.3216 19.3216 24.3079 -0.371315 0.371315 0.851029 
-3.74875 8.8107 28.7236 -0.0902162 0.217978 0.971775 
-6.77854 15.9317 27.4479 -0.0659614 0.159589 0.984977 
-9.50022 22.3285 26.1723 -0.14474 0.350498 0.925312 
-10.6813 25.1045 24.3079 -0.201475 0.48559 0.850653 
-2.2e-005 9.55089 28.7236 1.24779e-008 0.236583 0.971611 
-2.2e-005 17.2701 27.4479 6.52724e-009 0.173084 0.984907 
-2.2e-005 24.2043 26.1723 0 0.379703 0.925108 
-2.2e-005 27.2135 24.3079 5.33008e-009 0.526673 0.850068 
3.7487 8.8107 28.7236 0.0902162 0.217978 0.971775 
6.7785 15.9317 27.4479 0.0659614 0.159589 0.984977 
9.50018 22.3285 26.1723 0.14474 0.350498 0.925312 
10.6813 25.1045 24.3079 0.201475 0.48559 0.850653 
6.78112 6.78113 28.7236 0.166631 0.166631 0.971838 
12.2618 12.2618 27.4479 0.121908 0.121908 0.985026 
17.185 17.1851 26.1723 0.267668 0.267668 0.925585 
19.3216 19.3216 24.3079 0.371315 0.371315 0.851029 
8.81068 3.74872 28.7236 0.217978 0.0902162 0.971775 
15.9317 6.77851 27.4479 0.159589 0.0659614 0.984977 
22.3285 9.50019 26.1723 0.350498 0.14474 0.925311 
25.1044 10.6813 24.3079 0.48559 0.201475 0.850653 
-29.3069 -5e-006 24.3079 0.949597 -0.1875 -0.251216 
-28.898 -5e-006 25.8534 0.949597 -0.1875 -0.251217 
-29.3069 -5e-006 24.3079 0.949597 -0.1875 -0.251217 
-28.898 -5e-006 25.8534 0.728057 -0.143756 0.670274 
-29.3723 -5e-006 26.3685 0.728055 -0.143756 0.670276 
-28.898 -5e-006 25.8534 0.728056 -0.143756 0.670276 
-29.3723 -5e-006 26.3685 -0.468953 0.0925958 0.878356 
-30.3372 -5e-006 25.8534 -0.468953 0.0925959 0.878356 
-29.3723 -5e-006 26.3685 -0.468953 0.0925959 0.878356 
-30.3372 -5e-006 25.8534 -0.813223 0.160573 0.559361 
-31.4002 -5e-006 24.3079 -0.813223 0.160573 0.559361 
-30.3372 -5e-006 25.8534 -0.813223 0.160573 0.559361 
29.3068 -5e-006 24.3079 -0.949597 -0.1875 -0.251217 
28.898 -5e-006 25.8534 -0.949597 -0.1875 -0.251217 
28.898 -5e-006 25.8534 -0.949597 -0.1875 -0.251216 
28.898 -5e-006 25.8534 -0.728055 -0.143756 0.670276 
29.3723 -5e-006 26.3685 -0.728055 -0.143756 0.670276 
29.3723 -5e-006 26.3685 -0.728057 -0.143757 0.670274 
29.3723 -5e-006 26.3685 0.468953 0.0925959 0.878356 
30.3372 -5e-006 25.8534 0.468953 0.0925959 0.878356 
30.3372 -5e-006 25.8534 0.468953 0.0925958 0.878356 
30.3372 -5e-006 25.8534 0.813223 0.160573 0.559361 
31.4002 -5e-006 24.3079 0.813223 0.160573 0.559361 
31.4002 -5e-006 24.3079 0.813223 0.160573 0.559361 
-31.4002 -5e-006 24.3079 -0.891687 0.176066 0.417008 
-35.2435 -5e-006 16.0899 -0.891687 0.176066 0.417008 
-31.4002 -5e-006 24.3079 -0.891687 0.176066 0.417008 
-35.2435 -5e-006 16.0899 -0.908511 0.179388 0.377396 
-38.5961 -5e-006 8.01904 -0.908511 0.179387 0.377396 
-35.2435 -5e-006 16.0899 -0.908511 0.179387 0.377396 
-38.5961 -5e-006 8.01904 -0.939899 0.185585 0.286615 
-40.9675 -5e-006 0.24258 -0.939899 0.185585 0.286615 
-38.5961 -5e-006 8.01904 -0.939899 0.185585 0.286615 
-40.9675 -5e-006 0.24258 -0.974035 0.192325 0.119447 
-41.867 -5e-006 -7.09231 -0.974035 0.192325 0.119447 
-40.9675 -5e-006 0.24258 -0.974035 0.192325 0.119447 
31.4002 -5e-006 24.3079 0.891687 0.176066 0.417008 
35.2434 -5e-006 16.0899 0.891687 0.176066 0.417008 
35.2434 -5e-006 16.0899 0.891687 0.176066 0.417008 
35.2434 -5e-006 16.0899 0.908511 0.179388 0.377396 
38.5961 -5e-006 8.01904 0.908511 0.179388 0.377396 
38.5961 -5e-006 8.01904 0.908511 0.179387 0.377396 
38.5961 -5e-006 8.01904 0.939899 0.185585 0.286615 
40.9674 -5e-006 0.24258 0.939899 0.185585 0.286615 
40.9674 -5e-006 0.24258 0.939899 0.185585 0.286615 
40.9674 -5e-006 0.24258 0.974035 0.192325 0.119447 
41.8669 -5e-006 -7.09231 0.974035 0.192325 0.119447 
41.8669 -5e-006 -7.09231 0.974035 0.192325 0.119447 
-41.867 -5e-006 -7.09231 -0.949833 0.187547 -0.250286 
-40.2315 -5e-006 -13.2988 -0.949833 0.187547 -0.250286 
-41.867 -5e-006 -7.09231 -0.949833 0.187547 -0.250286 
-40.2315 -5e-006 -13.2988 -0.777525 0.153524 -0.609824 
-36.6336 -5e-006 -17.8861 -0.777525 0.153524 -0.609823 
-40.2315 -5e-006 -13.2988 -0.777525 0.153524 -0.609823 
-36.6336 -5e-006 -17.8861 -0.649203 0.128187 -0.749736 
-33.0357 -5e-006 -21.0016 -0.649203 0.128187 -0.749736 
-36.6336 -5e-006 -17.8861 -0.649203 0.128187 -0.749736 
-33.0357 -5e-006 -21.0016 -0.730687 0.144276 -0.667294 
-31.4002 -5e-006 -22.7924 -0.730687 0.144276 -0.667294 
-33.0357 -5e-006 -21.0016 -0.730687 0.144276 -0.667294 
41.8669 -5e-006 -7.09231 0.949833 0.187547 -0.250286 
40.2315 -5e-006 -13.2988 0.949833 0.187547 -0.250286 
40.2315 -5e-006 -13.2988 0.949833 0.187547 -0.250286 
40.2315 -5e-006 -13.2988 0.777525 0.153524 -0.609824 
36.6336 -5e-006 -17.8861 0.777525 0.153524 -0.609824 
36.6336 -5e-006 -17.8861 0.777525 0.153524 -0.609824 
36.6336 -5e-006 -17.8861 0.649203 0.128187 -0.749736 
33.0356 -5e-006 -21.0016 0.649203 0.128187 -0.749736 
33.0356 -5e-006 -21.0016 0.649203 0.128187 -0.749736 
33.0356 -5e-006 -21.0016 0.730687 0.144276 -0.667294 
31.4002 -5e-006 -22.7924 0.730687 0.144276 -0.667294 
31.4002 -5e-006 -22.7924 0.730687 0.144276 -0.667294 
31.4002 -5e-006 -22.7924 0.839269 -0.165716 -0.517847 
28.9667 -12.3246 -22.7924 0.839269 -0.165716 -0.517847 
31.4002 -5e-006 -22.7924 0.839268 -0.165715 -0.517848 
-2.2e-005 -5e-006 -25.9324 0 0 0 
28.9667 -12.3246 -22.7924 0.710178 -0.475316 -0.519348 
22.2941 -22.2941 -22.7924 0.710178 -0.475316 -0.519348 
28.9667 -12.3246 -22.7924 0.710178 -0.475316 -0.519348 
-2.2e-005 -5e-006 -25.9324 0.0130155 -0.00871114 -0.999877 
-2.2e-005 -5e-006 -25.9324 0 0 0 
22.2941 -22.2941 -22.7924 0.475316 -0.710178 -0.519348 
12.3246 -28.9667 -22.7924 0.475316 -0.710178 -0.519348 
22.2941 -22.2941 -22.7924 0.475316 -0.710178 -0.519348 
-2.2e-005 -5e-006 -25.9324 0.00871114 -0.0130155 -0.999877 
-2.2e-005 -5e-006 -25.9324 0 0 0 
-2.2e-005 -5e-006 -25.9324 0 0 0 
12.3246 -28.9667 -22.7924 0.165716 -0.839269 -0.517848 
-2.2e-005 -31.4002 -22.7924 0.165716 -0.839269 -0.517848 
12.3246 -28.9667 -22.7924 0.165716 -0.839269 -0.517847 
-2.2e-005 -5e-006 -25.9324 0.00304588 -0.0154259 -0.999876 
-2.2e-005 -5e-006 -25.9324 0 0 0 
-2.2e-005 -5e-006 -25.9324 0 0 0 
-2.2e-005 -31.4002 -22.7924 -0.165716 -0.839269 -0.517847 
-12.3246 -28.9667 -22.7924 -0.165716 -0.839269 -0.517847 
-2.2e-005 -31.4002 -22.7924 -0.165715 -0.839268 -0.517848 
-2.2e-005 -5e-006 -25.9324 -0.00304588 -0.0154259 -0.999876 
-2.2e-005 -5e-006 -25.9324 0 0 0 
-2.2e-005 -5e-006 -25.9324 0 0 0 
-12.3246 -28.9667 -22.7924 -0.475316 -0.710178 -0.519348 
-22.2942 -22.2941 -22.7924 -0.475316 -0.710178 -0.519348 
-12.3246 -28.9667 -22.7924 -0.475316 -0.710178 -0.519348 
-2.2e-005 -5e-006 -25.9324 -0.00871115 -0.0130155 -0.999877 
-2.2e-005 -5e-006 -25.9324 0 0 0 
-2.2e-005 -5e-006 -25.9324 0 0 0 
-22.2942 -22.2941 -22.7924 -0.710178 -0.475316 -0.519348 
-28.9667 -12.3246 -22.7924 -0.710178 -0.475316 -0.519348 
-22.2942 -22.2941 -22.7924 -0.710178 -0.475316 -0.519348 
-2.2e-005 -5e-006 -25.9324 -0.0130155 -0.00871115 -0.999877 
-2.2e-005 -5e-006 -25.9324 0 0 0 
-2.2e-005 -5e-006 -25.9324 0 0 0 
-28.9667 -12.3246 -22.7924 -0.839269 -0.165716 -0.517848 
-31.4002 -5e-006 -22.7924 -0.839269 -0.165716 -0.517848 
-28.9667 -12.3246 -22.7924 -0.839269 -0.165716 -0.517847 
-2.2e-005 -5e-006 -25.9324 -0.0154259 -0.00304588 -0.999876 
-2.2e-005 -5e-006 -25.9324 0 0 0 
-2.2e-005 -5e-006 -25.9324 0 0 0 
-31.4002 -5e-006 -22.7924 -0.839269 0.165716 -0.517847 
-28.9667 12.3246 -22.7924 -0.839269 0.165716 -0.517847 
-30.6888 -5e-006 -23.9454 -0.839269 0.165715 -0.517848 
-31.4002 -5e-006 -22.7924 -0.839268 0.165715 -0.517848 
-30.6888 -5e-006 -23.9454 -0.255396 0.0504285 -0.965521 
-26.8864 -5e-006 -24.9512 -0.255396 0.0504285 -0.965521 
-30.6888 -5e-006 -23.9454 -0.255396 0.0504285 -0.965521 
-26.8864 -5e-006 -24.9512 -0.0754935 0.0149064 -0.997035 
-17.4909 -5e-006 -25.6626 -0.0754935 0.0149064 -0.997035 
-26.8864 -5e-006 -24.9512 -0.0754935 0.0149064 -0.997035 
-17.4909 -5e-006 -25.6626 -0.0154259 0.00304588 -0.999876 
-2.2e-005 -5e-006 -25.9324 0 0 0 
-17.4909 -5e-006 -25.6626 0 0 0 
-28.9667 12.3246 -22.7924 -0.710178 0.475316 -0.519348 
-22.2942 22.2941 -22.7924 -0.710178 0.475316 -0.519348 
-28.9667 12.3246 -22.7924 -0.710178 0.475316 -0.519348 
-2.2e-005 -5e-006 -25.9324 -0.0130155 0.00871115 -0.999877 
-2.2e-005 -5e-006 -25.9324 0 0 0 
-22.2942 22.2941 -22.7924 -0.475316 0.710178 -0.519347 
-12.3246 28.9667 -22.7924 -0.475316 0.710178 -0.519347 
-22.2942 22.2941 -22.7924 -0.475316 0.710178 -0.519348 
-2.2e-005 -5e-006 -25.9324 -0.00871115 0.0130155 -0.999877 
-2.2e-005 -5e-006 -25.9324 0 0 0 
-2.2e-005 -5e-006 -25.9324 0 0 0 
-12.3246 28.9667 -22.7924 -0.165716 0.839269 -0.517848 
-2.2e-005 31.4002 -22.7924 -0.165716 0.839269 -0.517848 
-12.3246 28.9667 -22.7924 -0.165716 0.839269 -0.517847 
-2.2e-005 -5e-006 -25.9324 -0.00304588 0.0154259 -0.999876 
-2.2e-005 -5e-006 -25.9324 0 0 0 
-2.2e-005 -5e-006 -25.9324 0 0 0 
-2.2e-005 31.4002 -22.7924 0.165716 0.839269 -0.517847 
12.3246 28.9667 -22.7924 0.165716 0.839269 -0.517847 
-2.2e-005 31.4002 -22.7924 0.165715 0.839268 -0.517848 
-2.2e-005 -5e-006 -25.9324 0.00304588 0.0154259 -0.999876 
-2.2e-005 -5e-006 -25.9324 0 0 0 
-2.2e-005 -5e-006 -25.9324 0 0 0 
12.3246 28.9667 -22.7924 0.475316 0.710178 -0.519348 
22.2941 22.2941 -22.7924 0.475316 0.710178 -0.519348 
12.3246 28.9667 -22.7924 0.475316 0.710178 -0.519348 
-2.2e-005 -5e-006 -25.9324 0.00871115 0.0130155 -0.999877 
-2.2e-005 -5e-006 -25.9324 0 0 0 
-2.2e-005 -5e-006 -25.9324 0 0 0 
22.2941 22.2941 -22.7924 0.710178 0.475316 -0.519347 
28.9667 12.3246 -22.7924 0.710178 0.475316 -0.519347 
22.2941 22.2941 -22.7924 0.710178 0.475316 -0.519348 
-2.2e-005 -5e-006 -25.9324 0.0130155 0.00871114 -0.999877 
-2.2e-005 -5e-006 -25.9324 0 0 0 
-2.2e-005 -5e-006 -25.9324 0 0 0 
28.9667 12.3246 -22.7924 0.839269 0.165716 -0.517848 
31.4002 -5e-006 -22.7924 0.839269 0.165716 -0.517848 
30.6888 -5e-006 -23.9454 0.839269 0.165716 -0.517848 
30.6888 -5e-006 -23.9454 0.839269 0.165716 -0.517847 
28.9667 12.3246 -22.7924 0.839269 0.165716 -0.517847 
30.6888 -5e-006 -23.9454 0.255396 0.0504285 -0.965521 
26.8864 -5e-006 -24.9512 0.255396 0.0504285 -0.965521 
26.8864 -5e-006 -24.9512 0.255396 0.0504285 -0.965521 
26.8864 -5e-006 -24.9512 0.0754935 0.0149064 -0.997035 
17.4909 -5e-006 -25.6626 0.0754935 0.0149064 -0.997035 
17.4909 -5e-006 -25.6626 0.0754935 0.0149064 -0.997035 
17.4909 -5e-006 -25.6626 0.0154259 0.00304588 -0.999876 
-2.2e-005 -5e-006 -25.9324 0.0154259 0.00304588 -0.999876 
-2.2e-005 -5e-006 -25.9324 0 0 0 
-2.2e-005 -5e-006 -25.9324 0 0 0 
-33.4936 -5e-006 16.4578 0.00736801 0.203295 -0.97909 
-43.2734 -5e-006 16.3842 0.00736801 0.203295 -0.97909 
-43.2734 -5e-006 16.3842 0.00801536 0.201525 -0.979451 
-43.2734 -5e-006 16.3842 0.0695628 0.205913 -0.976095 
-50.502 -5e-006 15.8691 0.0695628 0.205913 -0.976095 
-50.502 -5e-006 15.8691 0.0763389 0.19333 -0.978159 
-50.502 -5e-006 15.8691 0.290132 0.226576 -0.929778 
-54.9831 -5e-006 14.4708 0.290132 0.226576 -0.929778 
-54.9831 -5e-006 14.4708 0.319033 0.194344 -0.927604 
-54.9831 -5e-006 14.4708 0.83752 0.273842 -0.472833 
-56.5204 -5e-006 11.7478 0.83752 0.273842 -0.472833 
-56.5204 -5e-006 11.7478 0.864959 0.240267 -0.440587 
-56.5204 -5e-006 11.7478 0.947512 0.263198 0.181516 
-55.7027 -5e-006 7.47935 0.947512 0.263198 0.181516 
-55.7027 -5e-006 7.47935 0.947782 0.260703 0.183694 
-55.7027 -5e-006 7.47935 0.861208 0.267808 0.431971 
-53.1187 -5e-006 2.32775 0.861208 0.267808 0.431971 
-53.1187 -5e-006 2.32775 0.859023 0.235038 0.454793 
-53.1187 -5e-006 2.32775 0.726994 0.244595 0.641601 
-48.5722 -5e-006 -2.82384 0.726994 0.244595 0.641601 
-48.5722 -5e-006 -2.82384 0.716585 0.19241 0.670436 
-48.5722 -5e-006 -2.82384 0.52456 0.214072 0.824021 
-41.867 -5e-006 -7.09231 0.52456 0.214072 0.824021 
-41.867 -5e-006 -7.09231 0.515852 0.18461 0.83655 
35.5869 -5e-006 -13.3724 0.3888 0.302205 -0.870349 
50.5347 -5e-006 -6.60168 0.394674 0.291564 -0.871334 
35.5869 -5e-006 -13.3724 0.394674 0.291564 -0.871334 
50.5347 -5e-006 -6.60168 0.870282 0.22064 -0.440371 
56.2587 -5e-006 4.29026 0.85603 0.254623 -0.449866 
50.5347 -5e-006 -6.60168 0.85603 0.254623 -0.449866 
56.2587 -5e-006 4.29026 0.934031 0.230427 -0.272927 
60.0202 -5e-006 15.771 0.898942 0.324282 -0.294525 
56.2587 -5e-006 4.29026 0.898942 0.324282 -0.294525 
60.0202 -5e-006 15.771 0.681543 0.296667 -0.668946 
69.0804 -5e-006 24.3079 0.623685 0.415789 -0.661919 
60.0202 -5e-006 15.771 0.623685 0.415789 -0.661919 
69.0804 -5e-006 24.3079 0.442767 0.295178 -0.846657 
71.4763 -5e-006 25.467 0.415068 0.3027 -0.857958 
69.0804 -5e-006 24.3079 0.415068 0.3027 -0.857958 
71.4763 -5e-006 25.467 0.781677 0.592252 -0.195495 
71.7625 -5e-006 25.927 0.696964 0.571124 -0.433657 
71.4763 -5e-006 25.467 0.696964 0.571124 -0.433657 
71.7625 -5e-006 25.927 -0.210503 -0.148024 0.966322 
70.1843 -5e-006 25.5774 -0.213689 -0.153671 0.964739 
71.7625 -5e-006 25.927 -0.213689 -0.153671 0.964739 
70.1843 -5e-006 25.5774 -0.361204 -0.282726 0.888593 
66.9871 -5e-006 24.3079 -0.355974 -0.263684 0.896523 
70.1843 -5e-006 25.5774 -0.355974 -0.263684 0.896523 
-2.2e-005 -5e-006 40.008 0 0 0 
-2.2e-005 -5e-006 40.008 0 0 0 
-2.2e-005 -5e-006 40.008 0 0 0 
-2.2e-005 -5e-006 40.008 0.120585 -0.0805156 0.989432 
-2.2e-005 -5e-006 40.008 0 0 0 
-2.2e-005 -5e-006 40.008 0 0 0 
-2.2e-005 -5e-006 40.008 0.0805156 -0.120585 0.989432 
-2.2e-005 -5e-006 40.008 0 0 0 
-2.2e-005 -5e-006 40.008 0 0 0 
-2.2e-005 -5e-006 40.008 0.0280252 -0.142954 0.989332 
-2.2e-005 -5e-006 40.008 0 0 0 
-2.2e-005 -5e-006 40.008 0 0 0 
-2.2e-005 -5e-006 40.008 -0.0280251 -0.142954 0.989332 
-2.2e-005 -5e-006 40.008 0 0 0 
-2.2e-005 -5e-006 40.008 0 0 0 
-2.2e-005 -5e-006 40.008 -0.0805156 -0.120585 0.989432 
-2.2e-005 -5e-006 40.008 0 0 0 
-2.2e-005 -5e-006 40.008 0 0 0 
-2.2e-005 -5e-006 40.008 -0.120585 -0.0805156 0.989432 
-2.2e-005 -5e-006 40.008 0 0 0 
-2.2e-005 -5e-006 40.008 0 0 0 
-2.2e-005 -5e-006 40.008 -0.142954 -0.0280251 0.989332 
-2.2e-005 -5e-006 40.008 0 0 0 
-7.13049 -5e-006 38.9777 -0.142954 0.0280251 0.989332 
-7.13049 -5e-006 38.9777 -0.973332 0.190815 -0.127333 
-6.8034 -5e-006 36.4755 -0.973327 0.190908 -0.127232 
-7.13049 -5e-006 38.9777 -0.973327 0.190908 -0.127232 
-6.8034 -5e-006 36.4755 -0.747045 0.146525 -0.648425 
-4.1213 -5e-006 33.3845 -0.747098 0.146908 -0.648276 
-6.8034 -5e-006 36.4755 -0.747098 0.146908 -0.648276 
-4.1213 -5e-006 33.3845 -0.980962 0.192894 0.0224773 
-4.18672 -5e-006 30.5879 -0.9808 0.193661 0.0229431 
-4.1213 -5e-006 33.3845 -0.9808 0.193661 0.0229431 
-2.2e-005 -5e-006 40.008 0 0 0 
-2.2e-005 -5e-006 40.008 0 0 0 
-2.2e-005 -5e-006 40.008 -0.120585 0.0805156 0.989432 
-2.2e-005 -5e-006 40.008 0 0 0 
-2.2e-005 -5e-006 40.008 0 0 0 
-2.2e-005 -5e-006 40.008 -0.0805156 0.120585 0.989432 
-2.2e-005 -5e-006 40.008 0 0 0 
-2.2e-005 -5e-006 40.008 0 0 0 
-2.2e-005 -5e-006 40.008 -0.0280251 0.142954 0.989332 
-2.2e-005 -5e-006 40.008 0 0 0 
-2.2e-005 -5e-006 40.008 0 0 0 
-2.2e-005 -5e-006 40.008 0.0280251 0.142954 0.989332 
-2.2e-005 -5e-006 40.008 0 0 0 
-2.2e-005 -5e-006 40.008 0 0 0 
-2.2e-005 -5e-006 40.008 0.0805156 0.120585 0.989432 
-2.2e-005 -5e-006 40.008 0 0 0 
-2.2e-005 -5e-006 40.008 0 0 0 
-2.2e-005 -5e-006 40.008 0.120585 0.0805156 0.989432 
-2.2e-005 -5e-006 40.008 0 0 0 
-2.2e-005 -5e-006 40.008 0 0 0 
7.13044 -5e-006 38.9777 0 0 0 
7.13044 -5e-006 38.9777 0.142954 0.0280251 0.989332 
-2.2e-005 -5e-006 40.008 0.142954 0.0280251 0.989332 
7.13044 -5e-006 38.9777 0.973345 0.190817 -0.127234 
6.80336 -5e-006 36.4755 0.973345 0.190817 -0.127234 
6.80336 -5e-006 36.4755 0.973314 0.190905 -0.127336 
6.80336 -5e-006 36.4755 0.747139 0.146543 -0.648312 
4.12125 -5e-006 33.3845 0.747139 0.146543 -0.648312 
4.12125 -5e-006 33.3845 0.746942 0.146877 -0.648463 
4.12125 -5e-006 33.3845 0.980951 0.192893 0.0229466 
4.18667 -5e-006 30.5879 0.980952 0.192893 0.0229466 
4.18667 -5e-006 30.5879 0.98081 0.193663 0.0224808 
4.18667 -5e-006 30.5879 0.32761 -0.0646873 0.942596 
3.8622 -1.64328 30.5879 0.32761 -0.0646873 0.942596 
4.18667 -5e-006 30.5879 0.32761 -0.0646872 0.942596 
3.8622 -1.64328 30.5879 0.27654 -0.185086 0.943011 
2.97253 -2.97256 30.5879 0.27654 -0.185086 0.943011 
3.8622 -1.64328 30.5879 0.27654 -0.185086 0.943011 
2.97253 -2.97256 30.5879 0.185086 -0.27654 0.943011 
1.64325 -3.86223 30.5879 0.185086 -0.27654 0.943011 
2.97253 -2.97256 30.5879 0.185085 -0.27654 0.943011 
1.64325 -3.86223 30.5879 0.0646871 -0.32761 0.942596 
-2.2e-005 -4.1867 30.5879 0.0646871 -0.32761 0.942596 
1.64325 -3.86223 30.5879 0.0646872 -0.32761 0.942596 
-2.2e-005 -4.1867 30.5879 -0.0646871 -0.32761 0.942596 
-1.6433 -3.86223 30.5879 -0.0646871 -0.32761 0.942596 
-2.2e-005 -4.1867 30.5879 -0.0646872 -0.32761 0.942596 
-1.6433 -3.86223 30.5879 -0.185086 -0.276539 0.943011 
-2.97257 -2.97256 30.5879 -0.185086 -0.276539 0.943011 
-1.6433 -3.86223 30.5879 -0.185086 -0.27654 0.943011 
-2.97257 -2.97256 30.5879 -0.27654 -0.185086 0.943011 
-3.86225 -1.64328 30.5879 -0.27654 -0.185086 0.943011 
-2.97257 -2.97256 30.5879 -0.27654 -0.185086 0.943011 
-3.86225 -1.64328 30.5879 -0.32761 -0.0646873 0.942596 
-4.18672 -5e-006 30.5879 -0.32761 -0.0646873 0.942596 
-3.86225 -1.64328 30.5879 -0.32761 -0.0646872 0.942596 
-4.18672 -5e-006 30.5879 -0.32761 0.0646873 0.942596 
-3.86225 1.64327 30.5879 -0.32761 0.0646873 0.942596 
-9.55092 -5e-006 28.7236 -0.32761 0.0646872 0.942596 
-4.18672 -5e-006 30.5879 -0.32761 0.0646872 0.942596 
-9.55092 -5e-006 28.7236 -0.162959 0.0321765 0.986108 
-17.2701 -5e-006 27.4479 -0.162959 0.0321765 0.986108 
-9.55092 -5e-006 28.7236 -0.162959 0.0321765 0.986108 
-17.2701 -5e-006 27.4479 -0.180811 0.0357014 0.98287 
-24.2043 -5e-006 26.1723 -0.180811 0.0357015 0.98287 
-17.2701 -5e-006 27.4479 -0.180811 0.0357015 0.98287 
-24.2043 -5e-006 26.1723 -0.523848 0.103435 0.845509 
-27.2135 -5e-006 24.3079 -0.523848 0.103435 0.845509 
-24.2043 -5e-006 26.1723 -0.523848 0.103435 0.845509 
-3.86225 1.64327 30.5879 -0.276539 0.185086 0.943011 
-2.97257 2.97255 30.5879 -0.276539 0.185086 0.943011 
-3.86225 1.64327 30.5879 -0.27654 0.185086 0.943011 
-2.97257 2.97255 30.5879 -0.185086 0.276539 0.943011 
-1.6433 3.86222 30.5879 -0.185086 0.276539 0.943011 
-2.97257 2.97255 30.5879 -0.185086 0.276539 0.943011 
-1.6433 3.86222 30.5879 -0.0646873 0.32761 0.942596 
-2.2e-005 4.18669 30.5879 -0.0646873 0.32761 0.942596 
-1.6433 3.86222 30.5879 -0.0646872 0.32761 0.942596 
-2.2e-005 4.18669 30.5879 0.0646873 0.32761 0.942596 
1.64325 3.86222 30.5879 0.0646873 0.32761 0.942596 
-2.2e-005 4.18669 30.5879 0.0646872 0.32761 0.942596 
1.64325 3.86222 30.5879 0.185085 0.276539 0.943011 
2.97253 2.97255 30.5879 0.185085 0.276539 0.943011 
1.64325 3.86222 30.5879 0.185085 0.27654 0.943011 
2.97253 2.97255 30.5879 0.276539 0.185086 0.943011 
3.8622 1.64327 30.5879 0.276539 0.185086 0.943011 
2.97253 2.97255 30.5879 0.27654 0.185085 0.943011 
3.8622 1.64327 30.5879 0.32761 0.0646873 0.942596 
4.18667 -5e-006 30.5879 0.32761 0.0646873 0.942596 
9.55087 -5e-006 28.7236 0.32761 0.0646873 0.942596 
9.55087 -5e-006 28.7236 0.32761 0.0646872 0.942596 
3.8622 1.64327 30.5879 0.32761 0.0646872 0.942596 
9.55087 -5e-006 28.7236 0.162959 0.0321765 0.986108 
17.2701 -5e-006 27.4479 0.162959 0.0321765 0.986108 
17.2701 -5e-006 27.4479 0.162959 0.0321765 0.986108 
17.2701 -5e-006 27.4479 0.180811 0.0357014 0.98287 
24.2043 -5e-006 26.1723 0.180811 0.0357014 0.98287 
24.2043 -5e-006 26.1723 0.180811 0.0357015 0.98287 
24.2043 -5e-006 26.1723 0.523848 0.103435 0.845509 
27.2135 -5e-006 24.3079 0.523848 0.103435 0.845508 
27.2135 -5e-006 24.3079 0.523848 0.103435 0.845509 
3 0 5 6 
3 6 1 0 
3 1 6 7 
3 7 2 1 
3 2 7 8 
3 8 3 2 
3 3 8 9 
3 9 4 3 
3 5 10 11 
3 11 6 5 
3 6 11 12 
3 12 7 6 
3 7 12 13 
3 13 8 7 
3 8 13 14 
3 14 9 8 
3 10 15 16 
3 16 11 10 
3 11 16 17 
3 17 12 11 
3 12 17 18 
3 18 13 12 
3 13 18 19 
3 19 14 13 
3 15 20 21 
3 21 16 15 
3 16 21 22 
3 22 17 16 
3 17 22 23 
3 23 18 17 
3 18 23 24 
3 24 19 18 
3 20 25 26 
3 26 21 20 
3 21 26 27 
3 27 22 21 
3 22 27 28 
3 28 23 22 
3 23 28 29 
3 29 24 23 
3 25 30 31 
3 31 26 25 
3 26 31 32 
3 32 27 26 
3 27 32 33 
3 33 28 27 
3 28 33 34 
3 34 29 28 
3 30 35 36 
3 36 31 30 
3 31 36 37 
3 37 32 31 
3 32 37 38 
3 38 33 32 
3 33 38 39 
3 39 34 33 
3 35 40 41 
3 41 36 35 
3 36 41 42 
3 42 37 36 
3 37 42 43 
3 43 38 37 
3 38 43 44 
3 44 39 38 
3 530 45 46 
3 46 531 532 
3 533 46 47 
3 47 534 535 
3 536 47 48 
3 48 537 538 
3 539 48 49 
3 49 540 541 
3 45 50 51 
3 51 46 45 
3 46 51 52 
3 52 47 46 
3 47 52 53 
3 53 48 47 
3 48 53 54 
3 54 49 48 
3 50 55 56 
3 56 51 50 
3 51 56 57 
3 57 52 51 
3 52 57 58 
3 58 53 52 
3 53 58 59 
3 59 54 53 
3 55 60 61 
3 61 56 55 
3 56 61 62 
3 62 57 56 
3 57 62 63 
3 63 58 57 
3 58 63 64 
3 64 59 58 
3 60 65 66 
3 66 61 60 
3 61 66 67 
3 67 62 61 
3 62 67 68 
3 68 63 62 
3 63 68 69 
3 69 64 63 
3 65 70 71 
3 71 66 65 
3 66 71 72 
3 72 67 66 
3 67 72 73 
3 73 68 67 
3 68 73 74 
3 74 69 68 
3 70 75 76 
3 76 71 70 
3 71 76 77 
3 77 72 71 
3 72 77 78 
3 78 73 72 
3 73 78 79 
3 79 74 73 
3 75 542 543 
3 544 76 75 
3 76 545 546 
3 547 77 76 
3 77 548 549 
3 550 78 77 
3 78 551 552 
3 553 79 78 
3 4 9 84 
3 84 80 4 
3 80 84 85 
3 85 81 80 
3 81 85 86 
3 86 82 81 
3 82 86 87 
3 87 83 82 
3 9 14 88 
3 88 84 9 
3 84 88 89 
3 89 85 84 
3 85 89 90 
3 90 86 85 
3 86 90 91 
3 91 87 86 
3 14 19 92 
3 92 88 14 
3 88 92 93 
3 93 89 88 
3 89 93 94 
3 94 90 89 
3 90 94 95 
3 95 91 90 
3 19 24 96 
3 96 92 19 
3 92 96 97 
3 97 93 92 
3 93 97 98 
3 98 94 93 
3 94 98 99 
3 99 95 94 
3 24 29 100 
3 100 96 24 
3 96 100 101 
3 101 97 96 
3 97 101 102 
3 102 98 97 
3 98 102 103 
3 103 99 98 
3 29 34 104 
3 104 100 29 
3 100 104 105 
3 105 101 100 
3 101 105 106 
3 106 102 101 
3 102 106 107 
3 107 103 102 
3 34 39 108 
3 108 104 34 
3 104 108 109 
3 109 105 104 
3 105 109 110 
3 110 106 105 
3 106 110 111 
3 111 107 106 
3 39 44 112 
3 112 108 39 
3 108 112 113 
3 113 109 108 
3 109 113 114 
3 114 110 109 
3 110 114 115 
3 115 111 110 
3 554 49 116 
3 116 555 556 
3 557 116 117 
3 117 558 559 
3 560 117 118 
3 118 561 562 
3 563 118 119 
3 119 564 565 
3 49 54 120 
3 120 116 49 
3 116 120 121 
3 121 117 116 
3 117 121 122 
3 122 118 117 
3 118 122 123 
3 123 119 118 
3 54 59 124 
3 124 120 54 
3 120 124 125 
3 125 121 120 
3 121 125 126 
3 126 122 121 
3 122 126 127 
3 127 123 122 
3 59 64 128 
3 128 124 59 
3 124 128 129 
3 129 125 124 
3 125 129 130 
3 130 126 125 
3 126 130 131 
3 131 127 126 
3 64 69 132 
3 132 128 64 
3 128 132 133 
3 133 129 128 
3 129 133 134 
3 134 130 129 
3 130 134 135 
3 135 131 130 
3 69 74 136 
3 136 132 69 
3 132 136 137 
3 137 133 132 
3 133 137 138 
3 138 134 133 
3 134 138 139 
3 139 135 134 
3 74 79 140 
3 140 136 74 
3 136 140 141 
3 141 137 136 
3 137 141 142 
3 142 138 137 
3 138 142 143 
3 143 139 138 
3 79 566 567 
3 568 140 79 
3 140 569 570 
3 571 141 140 
3 141 572 573 
3 574 142 141 
3 142 575 576 
3 577 143 142 
3 83 87 148 
3 148 144 83 
3 144 148 149 
3 149 145 144 
3 145 149 150 
3 150 146 145 
3 146 150 151 
3 151 147 146 
3 87 91 152 
3 152 148 87 
3 148 152 153 
3 153 149 148 
3 149 153 154 
3 154 150 149 
3 150 154 155 
3 155 151 150 
3 91 95 156 
3 156 152 91 
3 152 156 157 
3 157 153 152 
3 153 157 158 
3 158 154 153 
3 154 158 159 
3 159 155 154 
3 95 99 160 
3 160 156 95 
3 156 160 161 
3 161 157 156 
3 157 161 162 
3 162 158 157 
3 158 162 163 
3 163 159 158 
3 99 103 164 
3 164 160 99 
3 160 164 165 
3 165 161 160 
3 161 165 166 
3 166 162 161 
3 162 166 167 
3 167 163 162 
3 103 107 168 
3 168 164 103 
3 164 168 169 
3 169 165 164 
3 165 169 170 
3 170 166 165 
3 166 170 171 
3 171 167 166 
3 107 111 172 
3 172 168 107 
3 168 172 173 
3 173 169 168 
3 169 173 174 
3 174 170 169 
3 170 174 175 
3 175 171 170 
3 111 115 176 
3 176 172 111 
3 172 176 177 
3 177 173 172 
3 173 177 178 
3 178 174 173 
3 174 178 179 
3 179 175 174 
3 578 119 180 
3 180 579 580 
3 581 180 181 
3 181 582 583 
3 584 181 182 
3 182 585 586 
3 587 182 183 
3 183 588 589 
3 119 123 184 
3 184 180 119 
3 180 184 185 
3 185 181 180 
3 181 185 186 
3 186 182 181 
3 182 186 187 
3 187 183 182 
3 123 127 188 
3 188 184 123 
3 184 188 189 
3 189 185 184 
3 185 189 190 
3 190 186 185 
3 186 190 191 
3 191 187 186 
3 127 131 192 
3 192 188 127 
3 188 192 193 
3 193 189 188 
3 189 193 194 
3 194 190 189 
3 190 194 195 
3 195 191 190 
3 131 135 196 
3 196 192 131 
3 192 196 197 
3 197 193 192 
3 193 197 198 
3 198 194 193 
3 194 198 199 
3 199 195 194 
3 135 139 200 
3 200 196 135 
3 196 200 201 
3 201 197 196 
3 197 201 202 
3 202 198 197 
3 198 202 203 
3 203 199 198 
3 139 143 204 
3 204 200 139 
3 200 204 205 
3 205 201 200 
3 201 205 206 
3 206 202 201 
3 202 206 207 
3 207 203 202 
3 143 590 591 
3 592 204 143 
3 204 593 594 
3 595 205 204 
3 205 596 597 
3 598 206 205 
3 206 599 600 
3 601 207 206 
3 602 603 212 
3 212 208 604 
3 208 212 213 
3 213 209 208 
3 209 213 214 
3 214 210 209 
3 210 214 211 
3 211 605 210 
3 606 607 215 
3 215 212 608 
3 212 215 216 
3 216 213 212 
3 213 216 217 
3 217 214 213 
3 214 217 609 
3 610 211 214 
3 611 612 218 
3 218 215 613 
3 215 218 219 
3 219 216 215 
3 216 219 220 
3 220 217 216 
3 217 220 614 
3 615 616 217 
3 617 618 221 
3 221 218 619 
3 218 221 222 
3 222 219 218 
3 219 222 223 
3 223 220 219 
3 220 223 620 
3 621 622 220 
3 623 624 224 
3 224 221 625 
3 221 224 225 
3 225 222 221 
3 222 225 226 
3 226 223 222 
3 223 226 626 
3 627 628 223 
3 629 630 227 
3 227 224 631 
3 224 227 228 
3 228 225 224 
3 225 228 229 
3 229 226 225 
3 226 229 632 
3 633 634 226 
3 635 636 230 
3 230 227 637 
3 227 230 231 
3 231 228 227 
3 228 231 232 
3 232 229 228 
3 229 232 638 
3 639 640 229 
3 641 642 233 
3 233 230 643 
3 230 233 234 
3 234 231 230 
3 231 234 235 
3 235 232 231 
3 232 235 644 
3 645 646 232 
3 647 648 236 
3 236 649 650 
3 651 236 237 
3 237 652 653 
3 654 237 238 
3 238 655 656 
3 657 238 211 
3 211 658 659 
3 660 661 239 
3 239 236 662 
3 236 239 240 
3 240 237 236 
3 237 240 241 
3 241 238 237 
3 238 241 663 
3 664 211 238 
3 665 666 242 
3 242 239 667 
3 239 242 243 
3 243 240 239 
3 240 243 244 
3 244 241 240 
3 241 244 668 
3 669 670 241 
3 671 672 245 
3 245 242 673 
3 242 245 246 
3 246 243 242 
3 243 246 247 
3 247 244 243 
3 244 247 674 
3 675 676 244 
3 677 678 248 
3 248 245 679 
3 245 248 249 
3 249 246 245 
3 246 249 250 
3 250 247 246 
3 247 250 680 
3 681 682 247 
3 683 684 251 
3 251 248 685 
3 248 251 252 
3 252 249 248 
3 249 252 253 
3 253 250 249 
3 250 253 686 
3 687 688 250 
3 689 690 254 
3 254 251 691 
3 251 254 255 
3 255 252 251 
3 252 255 256 
3 256 253 252 
3 253 256 692 
3 693 694 253 
3 695 696 697 
3 698 254 699 
3 254 700 701 
3 702 255 254 
3 255 703 704 
3 705 256 255 
3 256 706 707 
3 708 709 256 
3 257 262 263 
3 263 258 257 
3 258 263 264 
3 264 259 258 
3 259 264 265 
3 265 260 259 
3 260 265 266 
3 266 261 260 
3 262 267 268 
3 268 263 262 
3 263 268 269 
3 269 264 263 
3 264 269 270 
3 270 265 264 
3 265 270 271 
3 271 266 265 
3 267 272 273 
3 273 268 267 
3 268 273 274 
3 274 269 268 
3 269 274 275 
3 275 270 269 
3 270 275 276 
3 276 271 270 
3 272 277 278 
3 278 273 272 
3 273 278 279 
3 279 274 273 
3 274 279 280 
3 280 275 274 
3 275 280 281 
3 281 276 275 
3 277 282 283 
3 283 278 277 
3 278 283 284 
3 284 279 278 
3 279 284 285 
3 285 280 279 
3 280 285 286 
3 286 281 280 
3 282 287 288 
3 288 283 282 
3 283 288 289 
3 289 284 283 
3 284 289 290 
3 290 285 284 
3 285 290 291 
3 291 286 285 
3 287 292 293 
3 293 288 287 
3 288 293 294 
3 294 289 288 
3 289 294 295 
3 295 290 289 
3 290 295 296 
3 296 291 290 
3 292 710 711 
3 712 293 292 
3 293 713 714 
3 715 294 293 
3 294 716 717 
3 718 295 294 
3 295 719 720 
3 721 296 295 
3 261 266 301 
3 301 297 261 
3 297 301 302 
3 302 298 297 
3 298 302 303 
3 303 299 298 
3 299 303 304 
3 304 300 299 
3 266 271 305 
3 305 301 266 
3 301 305 306 
3 306 302 301 
3 302 306 307 
3 307 303 302 
3 303 307 308 
3 308 304 303 
3 271 276 309 
3 309 305 271 
3 305 309 310 
3 310 306 305 
3 306 310 311 
3 311 307 306 
3 307 311 312 
3 312 308 307 
3 276 281 313 
3 313 309 276 
3 309 313 314 
3 314 310 309 
3 310 314 315 
3 315 311 310 
3 311 315 316 
3 316 312 311 
3 281 286 317 
3 317 313 281 
3 313 317 318 
3 318 314 313 
3 314 318 319 
3 319 315 314 
3 315 319 320 
3 320 316 315 
3 286 291 321 
3 321 317 286 
3 317 321 322 
3 322 318 317 
3 318 322 323 
3 323 319 318 
3 319 323 324 
3 324 320 319 
3 291 296 325 
3 325 321 291 
3 321 325 326 
3 326 322 321 
3 322 326 327 
3 327 323 322 
3 323 327 328 
3 328 324 323 
3 296 722 723 
3 724 325 296 
3 325 725 726 
3 727 326 325 
3 326 728 729 
3 730 327 326 
3 327 731 732 
3 733 328 327 
3 329 334 335 
3 335 330 329 
3 330 335 336 
3 336 331 330 
3 331 336 337 
3 337 332 331 
3 332 337 338 
3 338 333 332 
3 334 339 340 
3 340 335 334 
3 335 340 341 
3 341 336 335 
3 336 341 342 
3 342 337 336 
3 337 342 343 
3 343 338 337 
3 339 344 345 
3 345 340 339 
3 340 345 346 
3 346 341 340 
3 341 346 347 
3 347 342 341 
3 342 347 348 
3 348 343 342 
3 344 349 350 
3 350 345 344 
3 345 350 351 
3 351 346 345 
3 346 351 352 
3 352 347 346 
3 347 352 353 
3 353 348 347 
3 734 354 355 
3 355 735 736 
3 737 355 356 
3 356 738 739 
3 740 356 357 
3 357 741 742 
3 743 357 358 
3 358 744 745 
3 354 359 360 
3 360 355 354 
3 355 360 361 
3 361 356 355 
3 356 361 362 
3 362 357 356 
3 357 362 363 
3 363 358 357 
3 359 364 365 
3 365 360 359 
3 360 365 366 
3 366 361 360 
3 361 366 367 
3 367 362 361 
3 362 367 368 
3 368 363 362 
3 364 329 330 
3 330 365 364 
3 365 330 331 
3 331 366 365 
3 366 331 332 
3 332 367 366 
3 367 332 333 
3 333 368 367 
3 333 338 373 
3 373 369 333 
3 369 373 374 
3 374 370 369 
3 370 374 375 
3 375 371 370 
3 371 375 376 
3 376 372 371 
3 338 343 377 
3 377 373 338 
3 373 377 378 
3 378 374 373 
3 374 378 379 
3 379 375 374 
3 375 379 380 
3 380 376 375 
3 343 348 381 
3 381 377 343 
3 377 381 382 
3 382 378 377 
3 378 382 383 
3 383 379 378 
3 379 383 384 
3 384 380 379 
3 348 353 385 
3 385 381 348 
3 381 385 386 
3 386 382 381 
3 382 386 387 
3 387 383 382 
3 383 387 388 
3 388 384 383 
3 746 358 389 
3 389 747 748 
3 749 389 390 
3 390 750 751 
3 752 390 391 
3 391 753 754 
3 755 391 392 
3 392 756 757 
3 358 363 393 
3 393 389 358 
3 389 393 394 
3 394 390 389 
3 390 394 395 
3 395 391 390 
3 391 395 396 
3 396 392 391 
3 363 368 397 
3 397 393 363 
3 393 397 398 
3 398 394 393 
3 394 398 399 
3 399 395 394 
3 395 399 400 
3 400 396 395 
3 368 333 369 
3 369 397 368 
3 397 369 370 
3 370 398 397 
3 398 370 371 
3 371 399 398 
3 399 371 372 
3 372 400 399 
3 401 758 406 
3 406 402 401 
3 402 406 407 
3 407 403 402 
3 403 407 408 
3 408 404 403 
3 404 408 409 
3 409 405 404 
3 759 760 410 
3 410 406 761 
3 406 410 411 
3 411 407 406 
3 407 411 412 
3 412 408 407 
3 408 412 413 
3 413 409 408 
3 762 763 414 
3 414 410 764 
3 410 414 415 
3 415 411 410 
3 411 415 416 
3 416 412 411 
3 412 416 417 
3 417 413 412 
3 765 766 418 
3 418 414 767 
3 414 418 419 
3 419 415 414 
3 415 419 420 
3 420 416 415 
3 416 420 421 
3 421 417 416 
3 768 769 422 
3 422 418 770 
3 418 422 423 
3 423 419 418 
3 419 423 424 
3 424 420 419 
3 420 424 425 
3 425 421 420 
3 771 772 426 
3 426 422 773 
3 422 426 427 
3 427 423 422 
3 423 427 428 
3 428 424 423 
3 424 428 429 
3 429 425 424 
3 774 775 430 
3 430 426 776 
3 426 430 431 
3 431 427 426 
3 427 431 432 
3 432 428 427 
3 428 432 433 
3 433 429 428 
3 777 778 434 
3 434 430 779 
3 430 434 435 
3 435 431 430 
3 431 435 436 
3 436 432 431 
3 432 436 437 
3 437 433 432 
3 401 780 438 
3 438 781 401 
3 782 438 439 
3 439 783 784 
3 785 439 440 
3 440 786 787 
3 788 440 441 
3 441 789 790 
3 791 792 442 
3 442 438 793 
3 438 442 443 
3 443 439 438 
3 439 443 444 
3 444 440 439 
3 440 444 445 
3 445 441 440 
3 794 795 446 
3 446 442 796 
3 442 446 447 
3 447 443 442 
3 443 447 448 
3 448 444 443 
3 444 448 449 
3 449 445 444 
3 797 798 450 
3 450 446 799 
3 446 450 451 
3 451 447 446 
3 447 451 452 
3 452 448 447 
3 448 452 453 
3 453 449 448 
3 800 801 454 
3 454 450 802 
3 450 454 455 
3 455 451 450 
3 451 455 456 
3 456 452 451 
3 452 456 457 
3 457 453 452 
3 803 804 458 
3 458 454 805 
3 454 458 459 
3 459 455 454 
3 455 459 460 
3 460 456 455 
3 456 460 461 
3 461 457 456 
3 806 807 462 
3 462 458 808 
3 458 462 463 
3 463 459 458 
3 459 463 464 
3 464 460 459 
3 460 464 465 
3 465 461 460 
3 809 810 811 
3 812 462 813 
3 462 814 815 
3 816 463 462 
3 463 817 818 
3 819 464 463 
3 464 820 821 
3 822 465 464 
3 823 824 470 
3 470 466 825 
3 466 470 471 
3 471 467 466 
3 467 471 472 
3 472 468 467 
3 468 472 473 
3 473 469 468 
3 826 827 474 
3 474 470 828 
3 470 474 475 
3 475 471 470 
3 471 475 476 
3 476 472 471 
3 472 476 477 
3 477 473 472 
3 829 830 478 
3 478 474 831 
3 474 478 479 
3 479 475 474 
3 475 479 480 
3 480 476 475 
3 476 480 481 
3 481 477 476 
3 832 833 482 
3 482 478 834 
3 478 482 483 
3 483 479 478 
3 479 483 484 
3 484 480 479 
3 480 484 485 
3 485 481 480 
3 835 836 486 
3 486 482 837 
3 482 486 487 
3 487 483 482 
3 483 487 488 
3 488 484 483 
3 484 488 489 
3 489 485 484 
3 838 839 490 
3 490 486 840 
3 486 490 491 
3 491 487 486 
3 487 491 492 
3 492 488 487 
3 488 492 493 
3 493 489 488 
3 841 842 494 
3 494 490 843 
3 490 494 495 
3 495 491 490 
3 491 495 496 
3 496 492 491 
3 492 496 497 
3 497 493 492 
3 844 845 498 
3 498 494 846 
3 494 498 499 
3 499 495 494 
3 495 499 500 
3 500 496 495 
3 496 500 501 
3 501 497 496 
3 847 848 502 
3 502 849 850 
3 851 502 503 
3 503 852 853 
3 854 503 504 
3 504 855 856 
3 857 504 505 
3 505 858 859 
3 860 861 506 
3 506 502 862 
3 502 506 507 
3 507 503 502 
3 503 507 508 
3 508 504 503 
3 504 508 509 
3 509 505 504 
3 863 864 510 
3 510 506 865 
3 506 510 511 
3 511 507 506 
3 507 511 512 
3 512 508 507 
3 508 512 513 
3 513 509 508 
3 866 867 514 
3 514 510 868 
3 510 514 515 
3 515 511 510 
3 511 515 516 
3 516 512 511 
3 512 516 517 
3 517 513 512 
3 869 870 518 
3 518 514 871 
3 514 518 519 
3 519 515 514 
3 515 519 520 
3 520 516 515 
3 516 520 521 
3 521 517 516 
3 872 873 522 
3 522 518 874 
3 518 522 523 
3 523 519 518 
3 519 523 524 
3 524 520 519 
3 520 524 525 
3 525 521 520 
3 875 876 526 
3 526 522 877 
3 522 526 527 
3 527 523 522 
3 523 527 528 
3 528 524 523 
3 524 528 529 
3 529 525 524 
3 878 879 880 
3 881 526 882 
3 526 883 884 
3 885 527 526 
3 527 886 887 
3 888 528 527 
3 528 889 890 
3 891 529 528 
