ply
format ascii 1.0
comment VCGLIB generated
element vertex 180
property float x
property float y
property float z
property float nx
property float ny
property float nz
property float texture_u
property float texture_v
element face 60
property list uchar int vertex_indices
end_header
-1.405136 -0.402475 -1.020879 -0.904989 -0.330385 -0.268031 0.348473 0.606998
-1.65183 -0.554942 0 -0.904989 -0.330385 -0.268031 0.399982 0.494103
-1.846811 0.465958 -0.600056 -0.904989 -0.330385 -0.268031 0.463581 0.621469
0.536704 -0.402475 -1.651832 -0.024747 -0.330386 -0.943521 0.651458 0.167354
-0.510452 -0.554945 -1.570978 -0.024747 -0.330386 -0.943521 0.669788 0.293242
0 0.465958 -1.941849 -0.024747 -0.330386 -0.943521 0.547056 0.231875
1.736841 -0.402467 0 0.718719 -0.668413 -0.191486 0.095953 0.668209
1.33636 -0.554942 -0.970919 0.718719 -0.668413 -0.191486 0.165889 0.763442
1.927177 -0.01052 -0.653752 0.718719 -0.668413 -0.191486 0.184929 0.690127
0.536704 -0.402475 1.651832 0.574602 -0.330388 0.748783 0.903617 0.302854
1.33636 -0.554942 0.970919 0.574602 -0.330388 0.748783 0.999808 0.320882
1.141391 0.465958 1.570988 0.574602 -0.330388 0.748783 0.975984 0.198224
-1.405136 -0.402475 1.020879 -0.534576 -0.330387 0.777865 0.670172 0.303587
-0.510452 -0.554945 1.570978 -0.534576 -0.330387 0.777865 0.777787 0.321579
-1.141391 0.465958 1.570988 -0.534576 -0.330387 0.777865 0.701551 0.199086
-1.405136 -0.402475 -1.020879 -0.816196 -0.14396 -0.559553 0.348473 0.606998
-1.846811 0.465958 -0.600056 -0.816196 -0.14396 -0.559553 0.463581 0.621469
-1.195674 0.465128 -1.549626 -0.816196 -0.14396 -0.559553 0.401291 0.717133
0.536704 -0.402475 -1.651832 0.306569 -0.125629 -0.943522 0.651458 0.167354
0 0.465958 -1.941849 0.306569 -0.125629 -0.943522 0.547056 0.231875
1.141391 0.465958 -1.570988 0.306569 -0.125629 -0.943522 0.547056 0.094659
1.736841 -0.402467 0 0.963642 -0.223357 0.146649 0.095953 0.668209
1.927177 -0.01052 -0.653752 0.963642 -0.223357 0.146649 0.184929 0.690127
1.846811 0.465958 0.600056 0.963642 -0.223357 0.146649 0.118292 0.543291
0.536704 -0.402475 1.651832 0.306569 -0.125629 0.943522 0.903617 0.302854
1.141391 0.465958 1.570988 0.306569 -0.125629 0.943522 0.975984 0.198224
0 0.465958 1.941849 0.306569 -0.125629 0.943522 0.838767 0.198655
-1.405136 -0.402475 1.020879 -0.840065 -0.084331 0.535892 0.482228 0.401184
-1.141391 0.465958 1.570988 -0.840065 -0.084331 0.535892 0.605806 0.402623
-1.662634 0.443188 0.750304 -0.840065 -0.084331 0.535892 0.549748 0.483858
-0.536704 1.334391 -1.651832 -0.288239 0.789362 -0.542057 0.000192 0.058802
-1.212138 1.592202 -0.917237 -0.288239 0.789362 -0.542057 0.104870 0.000192
-0.138939 2.015785 -0.871076 -0.288239 0.789362 -0.542057 0.080473 0.127005
1.337393 1.240991 -0.801818 0.579554 0.488227 -0.652497 0.453882 0.071095
0.54932 1.449956 -1.345436 0.579554 0.488227 -0.652497 0.428761 0.165837
0.825912 2.1178 -0.600053 0.579554 0.488227 -0.652497 0.348473 0.132585
1.342094 1.271208 0.91099 0.714883 0.525641 0.461132 0.159952 0.448248
1.766958 1.509917 -0.019769 0.714883 0.525641 0.461132 0.259589 0.506700
0.688182 2.406155 0.631017 0.714883 0.525641 0.461132 0.279954 0.375113
-0.536704 1.334391 1.651832 -0.03853 0.661699 0.748779 0.773918 0.094456
0.510452 1.486861 1.570978 -0.03853 0.661699 0.748779 0.899748 0.075731
-0.315464 2.1178 0.970915 -0.03853 0.661699 0.748779 0.800219 0.000192
-1.497548 1.337102 -0.057311 -0.874315 0.48407 0.035346 0.586949 0.623827
-1.359197 1.500496 1.127198 -0.874315 0.48407 0.035346 0.681017 0.515130
-0.958738 2.315349 -0.126643 -0.874315 0.48407 0.035346 0.681017 0.694901
-0.958738 2.315349 -0.126643 -0.125225 0.961051 0.246373 0.190310 0.051782
-0.315464 2.1178 0.970915 -0.125225 0.961051 0.246373 0.300830 0.157498
0 2.407807 0 -0.125225 0.961051 0.246373 0.178505 0.167441
-0.958738 2.315349 -0.126643 -0.423197 0.815492 0.394813 0.190310 0.051782
-1.359197 1.500496 1.127198 -0.423197 0.815492 0.394813 0.348089 0.039752
-0.315464 2.1178 0.970915 -0.423197 0.815492 0.394813 0.300830 0.157498
-1.359197 1.500496 1.127198 -0.296454 0.672839 0.677793 0.674976 0.074798
-0.536704 1.334391 1.651832 -0.296454 0.672839 0.677793 0.773918 0.094456
-0.315464 2.1178 0.970915 -0.296454 0.672839 0.677793 0.800219 0.000192
-0.315464 2.1178 0.970915 -0.199706 0.954771 0.220297 0.300830 0.157498
0.688182 2.406155 0.631017 -0.199706 0.954771 0.220297 0.233208 0.265457
0 2.407807 0 -0.199706 0.954771 0.220297 0.178505 0.167441
-0.315464 2.1178 0.970915 0.033373 0.711363 0.702032 0.300830 0.157498
0.510452 1.486861 1.570978 0.033373 0.711363 0.702032 0.348089 0.270764
0.688182 2.406155 0.631017 0.033373 0.711363 0.702032 0.233208 0.265457
0.510452 1.486861 1.570978 0.613417 0.503517 0.608433 0.121898 0.373956
1.342094 1.271208 0.91099 0.613417 0.503517 0.608433 0.159952 0.448248
0.688182 2.406155 0.631017 0.613417 0.503517 0.608433 0.279954 0.375113
0.688182 2.406155 0.631017 0.189199 0.960552 -0.203824 0.233208 0.265457
0.825912 2.1178 -0.600053 0.189199 0.960552 -0.203824 0.085386 0.247387
0 2.407807 0 0.189199 0.960552 -0.203824 0.178505 0.167441
0.688182 2.406155 0.631017 0.590164 0.798174 -0.120931 0.233208 0.265457
1.766958 1.509917 -0.019769 0.590164 0.798174 -0.120931 0.127135 0.373572
0.825912 2.1178 -0.600053 0.590164 0.798174 -0.120931 0.085386 0.247387
1.766958 1.509917 -0.019769 0.665613 0.513006 -0.542018 0.771731 0.509401
1.337393 1.240991 -0.801818 0.665613 0.513006 -0.542018 0.681401 0.550934
0.825912 2.1178 -0.600053 0.665613 0.513006 -0.542018 0.771731 0.610432
0.825912 2.1178 -0.600053 0.019717 0.910548 -0.412932 0.085386 0.247387
-0.138939 2.015785 -0.871076 0.019717 0.910548 -0.412932 0.080473 0.127005
0 2.407807 0 0.019717 0.910548 -0.412932 0.178505 0.167441
0.825912 2.1178 -0.600053 0.116934 0.717716 -0.686447 0.085386 0.247387
0.54932 1.449956 -1.345436 0.116934 0.717716 -0.686447 0.005879 0.194340
-0.138939 2.015785 -0.871076 0.116934 0.717716 -0.686447 0.080473 0.127005
0.54932 1.449956 -1.345436 0.117215 0.717876 -0.686232 0.005879 0.194340
-0.536704 1.334391 -1.651832 0.117215 0.717876 -0.686232 0.000192 0.058802
-0.138939 2.015785 -0.871076 0.117215 0.717876 -0.686232 0.080473 0.127005
-0.138939 2.015785 -0.871076 -0.034514 0.913412 -0.405571 0.080473 0.127005
-0.958738 2.315349 -0.126643 -0.034514 0.913412 -0.405571 0.190310 0.051782
0 2.407807 0 -0.034514 0.913412 -0.405571 0.178505 0.167441
-0.138939 2.015785 -0.871076 -0.270941 0.751954 -0.600962 0.080473 0.127005
-1.212138 1.592202 -0.917237 -0.270941 0.751954 -0.600962 0.104870 0.000192
-0.958738 2.315349 -0.126643 -0.270941 0.751954 -0.600962 0.190310 0.051782
-1.212138 1.592202 -0.917237 -0.870484 0.468836 -0.149833 0.791778 0.401184
-1.497548 1.337102 -0.057311 -0.870484 0.468836 -0.149833 0.791778 0.509017
-0.958738 2.315349 -0.126643 -0.870484 0.468836 -0.149833 0.681401 0.467579
-1.662634 0.443188 0.750304 -0.965303 0.249089 0.078388 0.549748 0.483858
-1.359197 1.500496 1.127198 -0.965303 0.249089 0.078388 0.681017 0.515130
-1.497548 1.337102 -0.057311 -0.965303 0.249089 0.078388 0.586949 0.623827
-1.662634 0.443188 0.750304 -0.843654 0.051625 0.534399 0.549748 0.483858
-1.141391 0.465958 1.570988 -0.843654 0.051625 0.534399 0.605806 0.402623
-1.359197 1.500496 1.127198 -0.843654 0.051625 0.534399 0.681017 0.515130
-1.141391 0.465958 1.570988 -0.482076 0.257716 0.837368 0.701551 0.199086
-0.536704 1.334391 1.651832 -0.482076 0.257716 0.837368 0.773918 0.094456
-1.359197 1.500496 1.127198 -0.482076 0.257716 0.837368 0.674976 0.074798
0 0.465958 1.941849 0.024747 0.330386 0.943521 0.838767 0.198655
0.510452 1.486861 1.570978 0.024747 0.330386 0.943521 0.899748 0.075731
-0.536704 1.334391 1.651832 0.024747 0.330386 0.943521 0.773918 0.094456
0 0.465958 1.941849 0.303531 0.187597 0.934171 0.838767 0.198655
1.141391 0.465958 1.570988 0.303531 0.187597 0.934171 0.975984 0.198224
0.510452 1.486861 1.570978 0.303531 0.187597 0.934171 0.899748 0.075731
1.141391 0.465958 1.570988 0.63225 0.39075 0.669011 0.975984 0.198224
1.342094 1.271208 0.91099 0.63225 0.39075 0.669011 0.999808 0.101343
0.510452 1.486861 1.570978 0.63225 0.39075 0.669011 0.899748 0.075731
1.846811 0.465958 0.600056 0.821042 0.336569 0.461099 0.118292 0.543291
1.766958 1.509917 -0.019769 0.821042 0.336569 0.461099 0.259589 0.506700
1.342094 1.271208 0.91099 0.821042 0.336569 0.461099 0.159952 0.448248
1.846811 0.465958 0.600056 0.995258 0.093017 0.028445 0.118292 0.543291
1.927177 -0.01052 -0.653752 0.995258 0.093017 0.028445 0.184929 0.690127
1.766958 1.509917 -0.019769 0.995258 0.093017 0.028445 0.259589 0.506700
1.927177 -0.01052 -0.653752 0.785769 0.306756 -0.537093 0.184929 0.690127
1.337393 1.240991 -0.801818 0.785769 0.306756 -0.537093 0.303547 0.595875
1.766958 1.509917 -0.019769 0.785769 0.306756 -0.537093 0.259589 0.506700
1.141391 0.465958 -1.570988 0.578258 0.496356 -0.647493 0.547056 0.094659
0.54932 1.449956 -1.345436 0.578258 0.496356 -0.647493 0.428761 0.165837
1.337393 1.240991 -0.801818 0.578258 0.496356 -0.647493 0.453882 0.071095
1.141391 0.465958 -1.570988 0.286525 0.374536 -0.881831 0.547056 0.094659
0 0.465958 -1.941849 0.286525 0.374536 -0.881831 0.547056 0.231875
0.54932 1.449956 -1.345436 0.286525 0.374536 -0.881831 0.428761 0.165837
0 0.465958 -1.941849 0.204428 0.421399 -0.883534 0.547056 0.231875
-0.536704 1.334391 -1.651832 0.204428 0.421399 -0.883534 0.442653 0.296397
0.54932 1.449956 -1.345436 0.204428 0.421399 -0.883534 0.428761 0.165837
-1.195674 0.465128 -1.549626 -0.610176 0.380879 -0.694706 0.547155 0.375618
-1.212138 1.592202 -0.917237 -0.610176 0.380879 -0.694706 0.411660 0.377597
-0.536704 1.334391 -1.651832 -0.610176 0.380879 -0.694706 0.442653 0.296397
-1.195674 0.465128 -1.549626 -0.788652 0.292056 -0.541047 0.401291 0.717133
-1.846811 0.465958 -0.600056 -0.788652 0.292056 -0.541047 0.463581 0.621469
-1.212138 1.592202 -0.917237 -0.788652 0.292056 -0.541047 0.556330 0.727221
-1.846811 0.465958 -0.600056 -0.878619 0.450652 -0.157927 0.463581 0.621469
-1.497548 1.337102 -0.057311 -0.878619 0.450652 -0.157927 0.586949 0.623827
-1.212138 1.592202 -0.917237 -0.878619 0.450652 -0.157927 0.556330 0.727221
-1.141391 0.465958 1.570988 -0.306569 0.125629 0.943522 0.701551 0.199086
0 0.465958 1.941849 -0.306569 0.125629 0.943522 0.838767 0.198655
-0.536704 1.334391 1.651832 -0.306569 0.125629 0.943522 0.773918 0.094456
-1.141391 0.465958 1.570988 -0.303531 -0.187597 0.934171 0.701551 0.199086
-0.510452 -0.554945 1.570978 -0.303531 -0.187597 0.934171 0.777787 0.321579
0 0.465958 1.941849 -0.303531 -0.187597 0.934171 0.838767 0.198655
-0.510452 -0.554945 1.570978 -0.024747 -0.330386 0.943521 0.777787 0.321579
0.536704 -0.402475 1.651832 -0.024747 -0.330386 0.943521 0.903617 0.302854
0 0.465958 1.941849 -0.024747 -0.330386 0.943521 0.838767 0.198655
1.141391 0.465958 1.570988 0.779032 0.269733 0.565997 0.035443 0.461069
1.846811 0.465958 0.600056 0.779032 0.269733 0.565997 0.118292 0.543291
1.342094 1.271208 0.91099 0.779032 0.269733 0.565997 0.159952 0.448248
1.141391 0.465958 1.570988 0.794656 -0.187595 0.577348 0.035443 0.461069
1.33636 -0.554942 0.970919 0.794656 -0.187595 0.577348 0.000192 0.598998
1.846811 0.465958 0.600056 0.794656 -0.187595 0.577348 0.118292 0.543291
1.33636 -0.554942 0.970919 0.889697 -0.330385 0.315095 0.000192 0.598998
1.736841 -0.402467 0 0.889697 -0.330385 0.315095 0.095953 0.668209
1.846811 0.465958 0.600056 0.889697 -0.330385 0.315095 0.118292 0.543291
1.927177 -0.01052 -0.653752 0.795463 0.313512 -0.518604 0.184929 0.690127
1.141391 0.465958 -1.570988 0.795463 0.313512 -0.518604 0.303547 0.727145
1.337393 1.240991 -0.801818 0.795463 0.313512 -0.518604 0.303547 0.595875
1.927177 -0.01052 -0.653752 0.646643 -0.290964 -0.705119 0.604338 0.000192
1.33636 -0.554942 -0.970919 0.646643 -0.290964 -0.705119 0.669788 0.071220
1.141391 0.465958 -1.570988 0.646643 -0.290964 -0.705119 0.547056 0.094659
1.33636 -0.554942 -0.970919 0.574602 -0.330388 -0.748783 0.669788 0.071220
0.536704 -0.402475 -1.651832 0.574602 -0.330388 -0.748783 0.651458 0.167354
1.141391 0.465958 -1.570988 0.574602 -0.330388 -0.748783 0.547056 0.094659
0 0.465958 -1.941849 -0.309378 0.123673 -0.942863 0.547056 0.231875
-1.195674 0.465128 -1.549626 -0.309378 0.123673 -0.942863 0.547155 0.375618
-0.536704 1.334391 -1.651832 -0.309378 0.123673 -0.942863 0.442653 0.296397
0 0.465958 -1.941849 -0.306132 -0.186098 -0.933623 0.547056 0.231875
-0.510452 -0.554945 -1.570978 -0.306132 -0.186098 -0.933623 0.669788 0.293242
-1.195674 0.465128 -1.549626 -0.306132 -0.186098 -0.933623 0.547155 0.375618
-0.510452 -0.554945 -1.570978 -0.533766 -0.342366 -0.773227 0.669788 0.293242
-1.405136 -0.402475 -1.020879 -0.533766 -0.342366 -0.773227 0.651458 0.400800
-1.195674 0.465128 -1.549626 -0.533766 -0.342366 -0.773227 0.547155 0.375618
-1.846811 0.465958 -0.600056 -0.945829 0.295727 0.133989 0.463581 0.621469
-1.662634 0.443188 0.750304 -0.945829 0.295727 0.133989 0.549748 0.483858
-1.497548 1.337102 -0.057311 -0.945829 0.295727 0.133989 0.586949 0.623827
-1.846811 0.465958 -0.600056 -0.985033 -0.110257 0.132491 0.463581 0.621469
-1.65183 -0.554942 0 -0.985033 -0.110257 0.132491 0.399982 0.494103
-1.662634 0.443188 0.750304 -0.985033 -0.110257 0.132491 0.549748 0.483858
-1.65183 -0.554942 0 -0.944026 -0.204679 0.258691 0.399982 0.494103
-1.405136 -0.402475 1.020879 -0.944026 -0.204679 0.258691 0.482228 0.401184
-1.662634 0.443188 0.750304 -0.944026 -0.204679 0.258691 0.549748 0.483858
3 0 1 2 
3 3 4 5 
3 6 7 8 
3 9 10 11 
3 12 13 14 
3 15 16 17 
3 18 19 20 
3 21 22 23 
3 24 25 26 
3 27 28 29 
3 30 31 32 
3 33 34 35 
3 36 37 38 
3 39 40 41 
3 42 43 44 
3 45 46 47 
3 48 49 50 
3 51 52 53 
3 54 55 56 
3 57 58 59 
3 60 61 62 
3 63 64 65 
3 66 67 68 
3 69 70 71 
3 72 73 74 
3 75 76 77 
3 78 79 80 
3 81 82 83 
3 84 85 86 
3 87 88 89 
3 90 91 92 
3 93 94 95 
3 96 97 98 
3 99 100 101 
3 102 103 104 
3 105 106 107 
3 108 109 110 
3 111 112 113 
3 114 115 116 
3 117 118 119 
3 120 121 122 
3 123 124 125 
3 126 127 128 
3 129 130 131 
3 132 133 134 
3 135 136 137 
3 138 139 140 
3 141 142 143 
3 144 145 146 
3 147 148 149 
3 150 151 152 
3 153 154 155 
3 156 157 158 
3 159 160 161 
3 162 163 164 
3 165 166 167 
3 168 169 170 
3 171 172 173 
3 174 175 176 
3 177 178 179 
