ply
format ascii 1.0
comment VCGLIB generated
element vertex 960
property float x
property float y
property float z
property float nx
property float ny
property float nz
element face 320
property list uchar int vertex_indices
end_header
0 0 -1 -0.04815025 0.1481889 0.9877862 
0.203181 -0.147618 -0.96795 -0.04815025 0.1481889 0.9877862 
-0.077607 -0.238853 -0.96795 -0.04815025 0.1481889 0.9877862 
0.723607 -0.525725 -0.44722 -0.7229919 0.4120723 0.554508 
0.609547 -0.442856 -0.657519 -0.7229919 0.4120724 0.554508 
0.812729 -0.295238 -0.502301 -0.7229919 0.4120724 0.554508 
0 0 -1 0.1260598 0.09158531 0.9877859 
-0.077607 -0.238853 -0.96795 0.1260598 0.09158531 0.9877859 
-0.251147 0 -0.967949 0.1260598 0.09158531 0.9877859 
0 0 -1 0.1260598 -0.09158532 0.9877859 
-0.251147 0 -0.967949 0.1260598 -0.09158532 0.9877859 
-0.077607 0.238853 -0.96795 0.1260598 -0.09158532 0.9877859 
0 0 -1 -0.04815025 -0.1481889 0.9877862 
-0.077607 0.238853 -0.96795 -0.04815025 -0.1481889 0.9877862 
0.203181 0.147618 -0.96795 -0.04815025 -0.1481889 0.9877862 
0.723607 -0.525725 -0.44722 -0.8192942 0.4120724 0.3986895 
0.812729 -0.295238 -0.502301 -0.8192942 0.4120724 0.3986895 
0.860698 -0.442858 -0.251151 -0.8192942 0.4120724 0.3986895 
-0.276388 -0.850649 -0.44722 0.1387263 0.9065328 0.3986896 
-0.029639 -0.864184 -0.502302 0.1387262 0.9065328 0.3986896 
-0.155215 -0.955422 -0.251152 0.1387263 0.9065328 0.3986896 
-0.894426 0 -0.447216 0.9050359 0.1481911 0.3986847 
-0.831051 -0.238853 -0.502299 0.9050359 0.1481911 0.3986847 
-0.956626 -0.147618 -0.251149 0.9050359 0.1481911 0.3986847 
-0.276388 0.850649 -0.44722 0.4206058 -0.8149463 0.3986895 
-0.483971 0.716565 -0.502302 0.4206058 -0.8149462 0.3986896 
-0.436007 0.864188 -0.251152 0.4206058 -0.8149462 0.3986895 
0.723607 0.525725 -0.44722 -0.6450858 -0.6518519 0.3986897 
0.531941 0.681712 -0.502302 -0.6450858 -0.6518519 0.3986897 
0.687159 0.681715 -0.251152 -0.6450858 -0.6518519 0.3986897 
0.723607 -0.525725 -0.44722 -0.771144 0.5602651 0.3023905 
0.860698 -0.442858 -0.251151 -0.771144 0.5602651 0.3023905 
0.687159 -0.681715 -0.251152 -0.7711439 0.5602651 0.3023905 
-0.276388 -0.850649 -0.44722 0.2945476 0.9065331 0.3023898 
-0.155215 -0.955422 -0.251152 0.2945476 0.9065331 0.3023898 
-0.436007 -0.864188 -0.251152 0.2945476 0.9065331 0.3023898 
-0.894426 0 -0.447216 0.9531853 0 0.3023871 
-0.956626 -0.147618 -0.251149 0.9531853 0 0.3023871 
-0.956626 0.147618 -0.251149 0.9531853 0 0.3023871 
-0.276388 0.850649 -0.44722 0.2945476 -0.9065331 0.3023898 
-0.436007 0.864188 -0.251152 0.2945476 -0.9065331 0.3023898 
-0.155215 0.955422 -0.251152 0.2945476 -0.9065331 0.3023898 
0.723607 0.525725 -0.44722 -0.771144 -0.5602651 0.3023905 
0.687159 0.681715 -0.251152 -0.771144 -0.5602651 0.3023905 
0.860698 0.442858 -0.251151 -0.771144 -0.5602651 0.3023905 
0.276388 -0.850649 0.44722 -0.3426956 0.75834 -0.5545089 
0.483971 -0.716565 0.502302 -0.3426956 0.75834 -0.5545089 
0.232822 -0.716563 0.657519 -0.3426956 0.75834 -0.5545089 
-0.723607 -0.525725 0.44722 0.6153262 0.5602627 -0.5545082 
-0.531941 -0.681712 0.502302 0.6153262 0.5602627 -0.5545081 
-0.609547 -0.442856 0.657519 0.6153262 0.5602628 -0.5545082 
-0.723607 0.525725 0.44722 0.7229919 -0.4120723 -0.554508 
-0.812729 0.295238 0.502301 0.7229919 -0.4120724 -0.554508 
-0.609547 0.442856 0.657519 0.7229919 -0.4120724 -0.554508 
0.276388 0.850649 0.44722 -0.168486 -0.814943 -0.5545092 
0.029639 0.864184 0.502302 -0.168486 -0.814943 -0.5545092 
0.232822 0.716563 0.657519 -0.168486 -0.814943 -0.5545092 
0.894426 0 0.447216 -0.8271263 -0.09158517 -0.5545037 
0.831051 0.238853 0.502299 -0.8271263 -0.09158517 -0.5545037 
0.753442 0 0.657515 -0.8271263 -0.09158517 -0.5545037 
0.251147 0 0.967949 -0.1260598 -0.09158531 -0.9877859 
0.077607 0.238853 0.96795 -0.1260598 -0.09158531 -0.9877859 
0 0 1 -0.1260598 -0.09158531 -0.9877859 
0.52573 0 0.850652 -0.3911936 -0.0914522 -0.9157533 
0.3618 0.262863 0.894429 -0.3911936 -0.0914522 -0.9157533 
0.251147 0 0.967949 -0.3911936 -0.0914522 -0.9157533 
0.753442 0 0.657515 -0.6441244 -0.0914512 -0.7594343 
0.638194 0.262864 0.72361 -0.6441244 -0.0914512 -0.7594343 
0.52573 0 0.850652 -0.6441244 -0.0914512 -0.7594343 
0.251147 0 0.967949 -0.2333781 -0.1695581 -0.9574888 
0.3618 0.262863 0.894429 -0.233378 -0.1695581 -0.9574888 
0.077607 0.238853 0.96795 -0.233378 -0.1695581 -0.9574888 
0.3618 0.262863 0.894429 -0.2078612 -0.3437875 -0.9157532 
0.162456 0.499995 0.850654 -0.2078612 -0.3437875 -0.9157532 
0.077607 0.238853 0.96795 -0.2078612 -0.3437875 -0.9157532 
0.52573 0 0.850652 -0.5168439 -0.1830471 -0.8362812 
0.638194 0.262864 0.72361 -0.5168439 -0.1830471 -0.8362812 
0.3618 0.262863 0.894429 -0.5168439 -0.1830471 -0.8362812 
0.638194 0.262864 0.72361 -0.4911193 -0.3568189 -0.7946585 
0.447209 0.525728 0.723612 -0.4911193 -0.3568189 -0.7946585 
0.3618 0.262863 0.894429 -0.4911193 -0.3568189 -0.7946585 
0.3618 0.262863 0.894429 -0.3337966 -0.4349841 -0.8362827 
0.447209 0.525728 0.723612 -0.3337966 -0.4349841 -0.8362827 
0.162456 0.499995 0.850654 -0.3337966 -0.4349841 -0.8362827 
0.447209 0.525728 0.723612 -0.2860159 -0.5843356 -0.7594385 
0.232822 0.716563 0.657519 -0.2860159 -0.5843356 -0.7594385 
0.162456 0.499995 0.850654 -0.2860159 -0.5843356 -0.7594385 
0.753442 0 0.657515 -0.7520306 -0.1695595 -0.6369455 
0.831051 0.238853 0.502299 -0.7520306 -0.1695595 -0.6369455 
0.638194 0.262864 0.72361 -0.7520306 -0.1695595 -0.6369455 
0.831051 0.238853 0.502299 -0.7261131 -0.3437882 -0.5954574 
0.688189 0.499997 0.525736 -0.7261131 -0.3437882 -0.5954574 
0.638194 0.262864 0.72361 -0.7261131 -0.3437882 -0.5954574 
0.638194 0.262864 0.72361 -0.598706 -0.4349874 -0.6725601 
0.688189 0.499997 0.525736 -0.598706 -0.4349874 -0.6725601 
0.447209 0.525728 0.723612 -0.598706 -0.4349874 -0.6725601 
0.688189 0.499997 0.525736 -0.5513436 -0.5843351 -0.5954601 
0.483971 0.716565 0.502302 -0.5513436 -0.5843351 -0.5954601 
0.447209 0.525728 0.723612 -0.5513436 -0.5843351 -0.5954601 
0.447209 0.525728 0.723612 -0.3936464 -0.6628266 -0.6369485 
0.483971 0.716565 0.502302 -0.3936464 -0.6628266 -0.6369485 
0.232822 0.716563 0.657519 -0.3936464 -0.6628266 -0.6369485 
0.483971 0.716565 0.502302 -0.3426956 -0.75834 -0.5545089 
0.276388 0.850649 0.44722 -0.3426956 -0.75834 -0.5545089 
0.232822 0.716563 0.657519 -0.3426956 -0.75834 -0.5545089 
0.077607 0.238853 0.96795 0.04815025 -0.1481889 -0.9877862 
-0.203181 0.147618 0.96795 0.04815025 -0.1481889 -0.9877862 
0 0 1 0.04815025 -0.1481889 -0.9877862 
0.162456 0.499995 0.850654 -0.03390829 -0.4003075 -0.9157534 
-0.138197 0.425319 0.89443 -0.03390829 -0.4003075 -0.9157534 
0.077607 0.238853 0.96795 -0.03390829 -0.4003075 -0.9157534 
0.232822 0.716563 0.657519 -0.1120661 -0.6408544 -0.7594386 
-0.05279 0.688185 0.723612 -0.1120661 -0.6408544 -0.7594386 
0.162456 0.499995 0.850654 -0.1120661 -0.6408544 -0.7594386 
0.077607 0.238853 0.96795 0.08914339 -0.2743508 -0.957489 
-0.138197 0.425319 0.89443 0.08914338 -0.2743508 -0.957489 
-0.203181 0.147618 0.96795 0.08914339 -0.2743508 -0.957489 
-0.138197 0.425319 0.89443 0.2627298 -0.303922 -0.9157535 
-0.425323 0.309011 0.850654 0.2627298 -0.303922 -0.9157535 
-0.203181 0.147618 0.96795 0.2627298 -0.303922 -0.9157535 
0.162456 0.499995 0.850654 0.01437423 -0.5481108 -0.8362823 
-0.05279 0.688185 0.723612 0.01437423 -0.5481108 -0.8362823 
-0.138197 0.425319 0.89443 0.01437423 -0.5481108 -0.8362823 
-0.05279 0.688185 0.723612 0.1875944 -0.5773433 -0.7946591 
-0.361804 0.587778 0.723612 0.1875944 -0.5773433 -0.7946591 
-0.138197 0.425319 0.89443 0.1875944 -0.5773433 -0.7946591 
-0.138197 0.425319 0.89443 0.3105467 -0.4518776 -0.8362819 
-0.361804 0.587778 0.723612 0.3105467 -0.4518776 -0.8362819 
-0.425323 0.309011 0.850654 0.3105467 -0.4518776 -0.8362819 
-0.361804 0.587778 0.723612 0.4673528 -0.4525871 -0.7594382 
-0.609547 0.442856 0.657519 0.4673528 -0.4525871 -0.7594382 
-0.425323 0.309011 0.850654 0.4673528 -0.4525871 -0.7594382 
0.232822 0.716563 0.657519 -0.07112562 -0.7676187 -0.636948 
0.029639 0.864184 0.502302 -0.07112562 -0.7676187 -0.636948 
-0.05279 0.688185 0.723612 -0.07112562 -0.7676187 -0.636948 
0.029639 0.864184 0.502302 0.1025827 -0.7968076 -0.5954615 
-0.262869 0.809012 0.525738 0.1025827 -0.7968076 -0.5954615 
-0.05279 0.688185 0.723612 0.1025827 -0.7968076 -0.5954615 
-0.05279 0.688185 0.723612 0.2286893 -0.7038173 -0.6725641 
-0.262869 0.809012 0.525738 0.2286893 -0.7038173 -0.6725641 
-0.361804 0.587778 0.723612 0.2286893 -0.7038173 -0.6725641 
-0.262869 0.809012 0.525738 0.3853687 -0.7049228 -0.5954619 
-0.531941 0.681712 0.502302 0.3853687 -0.7049228 -0.5954619 
-0.361804 0.587778 0.723612 0.3853687 -0.7049228 -0.5954619 
-0.361804 0.587778 0.723612 0.5087424 -0.5792052 -0.636948 
-0.531941 0.681712 0.502302 0.5087424 -0.5792052 -0.636948 
-0.609547 0.442856 0.657519 0.5087424 -0.5792052 -0.636948 
-0.531941 0.681712 0.502302 0.6153262 -0.5602628 -0.5545081 
-0.723607 0.525725 0.44722 0.6153262 -0.5602629 -0.5545081 
-0.609547 0.442856 0.657519 0.6153262 -0.5602629 -0.5545081 
-0.203181 0.147618 0.96795 0.1558146 0 -0.9877864 
-0.203181 -0.147618 0.96795 0.1558146 0 -0.9877864 
0 0 1 0.1558146 0 -0.9877864 
-0.425323 0.309011 0.850654 0.3702356 -0.1559507 -0.9157538 
-0.44721 0 0.894429 0.3702356 -0.1559507 -0.9157538 
-0.203181 0.147618 0.96795 0.3702356 -0.1559507 -0.9157538 
-0.609547 0.442856 0.657519 0.574858 -0.3046172 -0.7594383 
-0.670817 0.162457 0.723611 0.5748581 -0.3046172 -0.7594384 
-0.425323 0.309011 0.850654 0.574858 -0.3046172 -0.7594383 
-0.203181 0.147618 0.96795 0.2884717 0 -0.9574884 
-0.44721 0 0.894429 0.2884717 0 -0.9574884 
-0.203181 -0.147618 0.96795 0.2884717 0 -0.9574884 
-0.44721 0 0.894429 0.3702356 0.1559507 -0.9157538 
-0.425323 -0.309011 0.850654 0.3702356 0.1559507 -0.9157538 
-0.203181 -0.147618 0.96795 0.3702356 0.1559507 -0.9157538 
-0.425323 0.309011 0.850654 0.5257277 -0.1557059 -0.8362812 
-0.670817 0.162457 0.723611 0.5257277 -0.1557059 -0.8362812 
-0.44721 0 0.894429 0.5257277 -0.1557059 -0.8362812 
-0.670817 0.162457 0.723611 0.6070563 0 -0.7946588 
-0.670817 -0.162457 0.723611 0.6070563 0 -0.7946588 
-0.44721 0 0.894429 0.6070563 0 -0.7946588 
-0.44721 0 0.894429 0.5257277 0.1557059 -0.8362812 
-0.670817 -0.162457 0.723611 0.5257277 0.1557059 -0.8362812 
-0.425323 -0.309011 0.850654 0.5257277 0.1557059 -0.8362812 
-0.670817 -0.162457 0.723611 0.5748581 0.3046172 -0.7594383 
-0.609547 -0.442856 0.657519 0.5748581 0.3046172 -0.7594383 
-0.425323 -0.309011 0.850654 0.5748581 0.3046172 -0.7594383 
-0.609547 0.442856 0.657519 0.7080711 -0.3048533 -0.6369457 
-0.812729 0.295238 0.502301 0.7080711 -0.3048533 -0.6369458 
-0.670817 0.162457 0.723611 0.7080711 -0.3048533 -0.6369458 
-0.812729 0.295238 0.502301 0.7895104 -0.1486666 -0.5954592 
-0.850648 0 0.525736 0.7895104 -0.1486665 -0.5954592 
-0.670817 0.162457 0.723611 0.7895104 -0.1486666 -0.5954592 
-0.670817 0.162457 0.723611 0.7400432 0 -0.6725594 
-0.850648 0 0.525736 0.7400432 0 -0.6725594 
-0.670817 -0.162457 0.723611 0.7400432 0 -0.6725594 
-0.850648 0 0.525736 0.7895104 0.1486666 -0.5954592 
-0.812729 -0.295238 0.502301 0.7895104 0.1486666 -0.5954592 
-0.670817 -0.162457 0.723611 0.7895104 0.1486666 -0.5954592 
-0.670817 -0.162457 0.723611 0.7080711 0.3048533 -0.6369458 
-0.812729 -0.295238 0.502301 0.7080711 0.3048533 -0.6369458 
-0.609547 -0.442856 0.657519 0.7080711 0.3048533 -0.6369457 
-0.812729 -0.295238 0.502301 0.7229919 0.4120724 -0.554508 
-0.723607 -0.525725 0.44722 0.7229919 0.4120723 -0.554508 
-0.609547 -0.442856 0.657519 0.7229919 0.4120724 -0.554508 
-0.203181 -0.147618 0.96795 0.04815025 0.1481889 -0.9877862 
0.077607 -0.238853 0.96795 0.04815025 0.1481889 -0.9877862 
0 0 1 0.04815025 0.1481889 -0.9877862 
-0.425323 -0.309011 0.850654 0.2627298 0.303922 -0.9157535 
-0.138197 -0.425319 0.89443 0.2627298 0.303922 -0.9157535 
-0.203181 -0.147618 0.96795 0.2627298 0.303922 -0.9157535 
-0.609547 -0.442856 0.657519 0.4673527 0.452587 -0.7594382 
-0.361804 -0.587778 0.723612 0.4673527 0.4525871 -0.7594382 
-0.425323 -0.309011 0.850654 0.4673527 0.4525871 -0.7594382 
-0.203181 -0.147618 0.96795 0.08914339 0.2743508 -0.957489 
-0.138197 -0.425319 0.89443 0.08914338 0.2743508 -0.957489 
0.077607 -0.238853 0.96795 0.08914339 0.2743508 -0.957489 
-0.138197 -0.425319 0.89443 -0.03390829 0.4003075 -0.9157534 
0.162456 -0.499995 0.850654 -0.03390829 0.4003075 -0.9157534 
0.077607 -0.238853 0.96795 -0.03390829 0.4003075 -0.9157534 
-0.425323 -0.309011 0.850654 0.3105467 0.4518776 -0.8362819 
-0.361804 -0.587778 0.723612 0.3105467 0.4518776 -0.8362819 
-0.138197 -0.425319 0.89443 0.3105467 0.4518776 -0.8362819 
-0.361804 -0.587778 0.723612 0.1875944 0.5773433 -0.7946591 
-0.05279 -0.688185 0.723612 0.1875944 0.5773433 -0.7946591 
-0.138197 -0.425319 0.89443 0.1875944 0.5773433 -0.7946591 
-0.138197 -0.425319 0.89443 0.01437423 0.5481108 -0.8362823 
-0.05279 -0.688185 0.723612 0.01437423 0.5481108 -0.8362823 
0.162456 -0.499995 0.850654 0.01437423 0.5481108 -0.8362823 
-0.05279 -0.688185 0.723612 -0.1120661 0.6408544 -0.7594386 
0.232822 -0.716563 0.657519 -0.1120661 0.6408544 -0.7594386 
0.162456 -0.499995 0.850654 -0.1120661 0.6408544 -0.7594386 
-0.609547 -0.442856 0.657519 0.5087424 0.5792052 -0.636948 
-0.531941 -0.681712 0.502302 0.5087424 0.5792052 -0.636948 
-0.361804 -0.587778 0.723612 0.5087424 0.5792052 -0.636948 
-0.531941 -0.681712 0.502302 0.3853687 0.7049227 -0.5954619 
-0.262869 -0.809012 0.525738 0.3853687 0.7049227 -0.5954619 
-0.361804 -0.587778 0.723612 0.3853687 0.7049227 -0.5954619 
-0.361804 -0.587778 0.723612 0.2286893 0.7038173 -0.6725641 
-0.262869 -0.809012 0.525738 0.2286893 0.7038173 -0.6725641 
-0.05279 -0.688185 0.723612 0.2286893 0.7038173 -0.6725641 
-0.262869 -0.809012 0.525738 0.1025827 0.7968076 -0.5954615 
0.029639 -0.864184 0.502302 0.1025827 0.7968076 -0.5954615 
-0.05279 -0.688185 0.723612 0.1025827 0.7968076 -0.5954615 
-0.05279 -0.688185 0.723612 -0.07112562 0.7676187 -0.636948 
0.029639 -0.864184 0.502302 -0.07112562 0.7676187 -0.636948 
0.232822 -0.716563 0.657519 -0.07112562 0.7676187 -0.636948 
0.029639 -0.864184 0.502302 -0.168486 0.814943 -0.5545092 
0.276388 -0.850649 0.44722 -0.168486 0.814943 -0.5545092 
0.232822 -0.716563 0.657519 -0.168486 0.814943 -0.5545092 
0.077607 -0.238853 0.96795 -0.1260598 0.09158532 -0.9877859 
0.251147 0 0.967949 -0.1260598 0.09158532 -0.9877859 
0 0 1 -0.1260598 0.09158532 -0.9877859 
0.162456 -0.499995 0.850654 -0.2078612 0.3437874 -0.9157532 
0.3618 -0.262863 0.894429 -0.2078612 0.3437874 -0.9157532 
0.077607 -0.238853 0.96795 -0.2078612 0.3437874 -0.9157532 
0.232822 -0.716563 0.657519 -0.2860159 0.5843356 -0.7594385 
0.447209 -0.525728 0.723612 -0.2860159 0.5843356 -0.7594385 
0.162456 -0.499995 0.850654 -0.2860159 0.5843356 -0.7594385 
0.077607 -0.238853 0.96795 -0.233378 0.1695581 -0.9574888 
0.3618 -0.262863 0.894429 -0.233378 0.1695581 -0.9574888 
0.251147 0 0.967949 -0.2333781 0.1695581 -0.9574888 
0.3618 -0.262863 0.894429 -0.3911936 0.09145218 -0.9157533 
0.52573 0 0.850652 -0.3911936 0.09145218 -0.9157533 
0.251147 0 0.967949 -0.3911936 0.09145218 -0.9157533 
0.162456 -0.499995 0.850654 -0.3337966 0.4349841 -0.8362827 
0.447209 -0.525728 0.723612 -0.3337966 0.4349841 -0.8362827 
0.3618 -0.262863 0.894429 -0.3337966 0.4349841 -0.8362827 
0.447209 -0.525728 0.723612 -0.4911194 0.3568189 -0.7946585 
0.638194 -0.262864 0.72361 -0.4911194 0.3568189 -0.7946585 
0.3618 -0.262863 0.894429 -0.4911194 0.3568189 -0.7946585 
0.3618 -0.262863 0.894429 -0.5168439 0.1830471 -0.8362812 
0.638194 -0.262864 0.72361 -0.5168439 0.1830471 -0.8362812 
0.52573 0 0.850652 -0.5168439 0.1830471 -0.8362812 
0.638194 -0.262864 0.72361 -0.6441244 0.0914512 -0.7594343 
0.753442 0 0.657515 -0.6441244 0.0914512 -0.7594343 
0.52573 0 0.850652 -0.6441244 0.0914512 -0.7594343 
0.232822 -0.716563 0.657519 -0.3936464 0.6628266 -0.6369485 
0.483971 -0.716565 0.502302 -0.3936464 0.6628266 -0.6369485 
0.447209 -0.525728 0.723612 -0.3936464 0.6628266 -0.6369485 
0.483971 -0.716565 0.502302 -0.5513437 0.5843352 -0.5954601 
0.688189 -0.499997 0.525736 -0.5513437 0.5843352 -0.5954601 
0.447209 -0.525728 0.723612 -0.5513437 0.5843352 -0.5954601 
0.447209 -0.525728 0.723612 -0.598706 0.4349874 -0.6725601 
0.688189 -0.499997 0.525736 -0.598706 0.4349874 -0.6725601 
0.638194 -0.262864 0.72361 -0.598706 0.4349874 -0.6725601 
0.688189 -0.499997 0.525736 -0.726113 0.3437882 -0.5954574 
0.831051 -0.238853 0.502299 -0.726113 0.3437882 -0.5954574 
0.638194 -0.262864 0.72361 -0.726113 0.3437882 -0.5954574 
0.638194 -0.262864 0.72361 -0.7520306 0.1695595 -0.6369455 
0.831051 -0.238853 0.502299 -0.7520306 0.1695595 -0.6369455 
0.753442 0 0.657515 -0.7520306 0.1695595 -0.6369455 
0.831051 -0.238853 0.502299 -0.8271263 0.09158517 -0.5545037 
0.894426 0 0.447216 -0.8271262 0.09158517 -0.5545037 
0.753442 0 0.657515 -0.8271262 0.09158517 -0.5545037 
0.956626 0.147618 0.251149 -0.9050359 -0.1481911 -0.3986847 
0.831051 0.238853 0.502299 -0.9050359 -0.1481911 -0.3986847 
0.894426 0 0.447216 -0.9050359 -0.1481911 -0.3986847 
0.951058 0.309013 0 -0.9365706 -0.3039234 -0.1745453 
0.861804 0.425322 0.276396 -0.9365706 -0.3039234 -0.1745453 
0.956626 0.147618 0.251149 -0.9365706 -0.3039234 -0.1745453 
0.860698 0.442858 -0.251151 -0.8882663 -0.4525912 0.07838575 
0.809019 0.587782 0 -0.8882663 -0.4525912 0.07838575 
0.951058 0.309013 0 -0.8882663 -0.4525912 0.07838575 
0.956626 0.147618 0.251149 -0.8962697 -0.2743504 -0.3484719 
0.861804 0.425322 0.276396 -0.8962697 -0.2743504 -0.3484719 
0.831051 0.238853 0.502299 -0.8962697 -0.2743504 -0.3484719 
0.861804 0.425322 0.276396 -0.803907 -0.4003098 -0.43987 
0.688189 0.499997 0.525736 -0.803907 -0.4003098 -0.43987 
0.831051 0.238853 0.502299 -0.803907 -0.4003098 -0.43987 
0.951058 0.309013 0 -0.8868722 -0.4518809 -0.09623531 
0.809019 0.587782 0 -0.8868722 -0.4518809 -0.09623531 
0.861804 0.425322 0.276396 -0.8868722 -0.4518809 -0.09623531 
0.809019 0.587782 0 -0.7946563 -0.5773476 -0.1875931 
0.670821 0.688189 0.276397 -0.7946563 -0.5773476 -0.1875931 
0.861804 0.425322 0.276396 -0.7946563 -0.5773476 -0.1875931 
0.861804 0.425322 0.276396 -0.7544181 -0.5481125 -0.3611455 
0.670821 0.688189 0.276397 -0.7544181 -0.5481125 -0.3611455 
0.688189 0.499997 0.525736 -0.7544181 -0.5481125 -0.3611455 
0.670821 0.688189 0.276397 -0.6291375 -0.6408573 -0.4398726 
0.483971 0.716565 0.502302 -0.6291375 -0.6408573 -0.4398726 
0.688189 0.499997 0.525736 -0.6291375 -0.6408573 -0.4398726 
0.860698 0.442858 -0.251151 -0.7972169 -0.5792087 0.1701841 
0.687159 0.681715 -0.251152 -0.7972169 -0.5792087 0.1701841 
0.809019 0.587782 0 -0.7972169 -0.5792087 0.1701841 
0.687159 0.681715 -0.251152 -0.7049341 -0.7049279 0.07838804 
0.587786 0.809017 -0 -0.7049341 -0.7049279 0.07838804 
0.809019 0.587782 0 -0.7049341 -0.7049279 0.07838804 
0.809019 0.587782 0 -0.703828 -0.7038218 -0.09623478 
0.587786 0.809017 -0 -0.703828 -0.7038217 -0.09623477 
0.670821 0.688189 0.276397 -0.703828 -0.7038217 -0.09623477 
0.587786 0.809017 -0 -0.5784656 -0.796813 -0.1745475 
0.436007 0.864188 0.251152 -0.5784656 -0.796813 -0.1745475 
0.670821 0.688189 0.276397 -0.5784656 -0.796813 -0.1745475 
0.670821 0.688189 0.276397 -0.537887 -0.7676217 -0.3484747 
0.436007 0.864188 0.251152 -0.537887 -0.7676217 -0.3484747 
0.483971 0.716565 0.502302 -0.537887 -0.7676217 -0.3484747 
0.436007 0.864188 0.251152 -0.4206058 -0.8149462 -0.3986895 
0.276388 0.850649 0.44722 -0.4206058 -0.8149463 -0.3986895 
0.483971 0.716565 0.502302 -0.4206058 -0.8149462 -0.3986896 
0.155215 0.955422 0.251152 -0.1387263 -0.9065328 -0.3986896 
0.029639 0.864184 0.502302 -0.1387262 -0.9065328 -0.3986896 
0.276388 0.850649 0.44722 -0.1387263 -0.9065328 -0.3986896 
0 1 0 -0.0003627491 -0.9846491 -0.1745453 
-0.138199 0.951055 0.276397 -0.0003627492 -0.9846491 -0.1745453 
0.155215 0.955422 0.251152 -0.0003627491 -0.9846491 -0.1745453 
-0.155215 0.955422 -0.251152 0.155952 -0.9846493 0.07838924 
-0.309016 0.951057 -0 0.1559521 -0.9846492 0.07838925 
0 1 0 0.155952 -0.9846492 0.07838924 
0.155215 0.955422 0.251152 -0.01603409 -0.9371803 -0.3484767 
-0.138199 0.951055 0.276397 -0.01603409 -0.9371803 -0.3484767 
0.029639 0.864184 0.502302 -0.01603409 -0.9371803 -0.3484767 
-0.138199 0.951055 0.276397 0.1322987 -0.8882627 -0.4398708 
-0.262869 0.809012 0.525738 0.1322987 -0.8882627 -0.4398708 
0.029639 0.864184 0.502302 0.1322987 -0.8882627 -0.4398708 
0 1 0 0.1557073 -0.9831042 -0.09623639 
-0.309016 0.951057 -0 0.1557073 -0.9831042 -0.09623639 
-0.138199 0.951055 0.276397 0.1557073 -0.9831042 -0.09623638 
-0.309016 0.951057 -0 0.3035326 -0.9341716 -0.187594 
-0.447215 0.850649 0.276397 0.3035326 -0.9341716 -0.187594 
-0.138199 0.951055 0.276397 0.3035326 -0.9341716 -0.187594 
-0.138199 0.951055 0.276397 0.2881629 -0.886869 -0.3611449 
-0.447215 0.850649 0.276397 0.2881629 -0.886869 -0.3611449 
-0.262869 0.809012 0.525738 0.2881629 -0.886869 -0.3611449 
-0.447215 0.850649 0.276397 0.415085 -0.7963778 -0.4398716 
-0.531941 0.681712 0.502302 0.415085 -0.7963778 -0.4398716 
-0.262869 0.809012 0.525738 0.415085 -0.7963778 -0.4398716 
-0.155215 0.955422 -0.251152 0.3045064 -0.9371833 0.1701862 
-0.436007 0.864188 -0.251152 0.3045064 -0.9371833 0.1701862 
-0.309016 0.951057 -0 0.3045064 -0.9371833 0.1701862 
-0.436007 0.864188 -0.251152 0.4525925 -0.8882653 0.07838897 
-0.587786 0.809017 -0 0.4525925 -0.8882653 0.07838897 
-0.309016 0.951057 -0 0.4525925 -0.8882653 0.07838897 
-0.309016 0.951057 -0 0.4518823 -0.8868715 -0.09623595 
-0.587786 0.809017 -0 0.4518823 -0.8868716 -0.09623595 
-0.447215 0.850649 0.276397 0.4518823 -0.8868715 -0.09623595 
-0.587786 0.809017 -0 0.5790608 -0.7963805 -0.174547 
-0.687159 0.681715 0.251152 0.5790608 -0.7963805 -0.174547 
-0.447215 0.850649 0.276397 0.5790608 -0.7963805 -0.174547 
-0.447215 0.850649 0.276397 0.5638374 -0.7487665 -0.348477 
-0.687159 0.681715 0.251152 0.5638374 -0.7487665 -0.348477 
-0.531941 0.681712 0.502302 0.5638374 -0.7487665 -0.348477 
-0.687159 0.681715 0.251152 0.6450858 -0.6518519 -0.3986897 
-0.723607 0.525725 0.44722 0.6450858 -0.6518519 -0.3986897 
-0.531941 0.681712 0.502302 0.6450858 -0.6518519 -0.3986897 
-0.860698 0.442858 0.251151 0.8192942 -0.4120724 -0.3986895 
-0.812729 0.295238 0.502301 0.8192942 -0.4120724 -0.3986895 
-0.723607 0.525725 0.44722 0.8192942 -0.4120724 -0.3986895 
-0.951058 0.309013 0 0.9363459 -0.304616 -0.1745439 
-0.947213 0.162458 0.276396 0.9363459 -0.304616 -0.1745439 
-0.860698 0.442858 0.251151 0.9363459 -0.304616 -0.1745439 
-0.956626 0.147618 -0.251149 0.9846497 -0.1559503 0.07838791 
-1 -0 1e-06 0.9846497 -0.1559503 0.0783879 
-0.951058 0.309013 0 0.9846497 -0.1559503 0.07838791 
-0.860698 0.442858 0.251151 0.8863573 -0.304852 -0.3484767 
-0.947213 0.162458 0.276396 0.8863573 -0.304852 -0.3484767 
-0.812729 0.295238 0.502301 0.8863573 -0.304852 -0.3484767 
-0.947213 0.162458 0.276396 0.8856711 -0.1486668 -0.4398691 
-0.850648 0 0.525736 0.8856712 -0.1486668 -0.4398691 
-0.812729 0.295238 0.502301 0.8856712 -0.1486668 -0.4398691 
-0.951058 0.309013 0 0.9831043 -0.1557061 -0.09623701 
-1 -0 1e-06 0.9831043 -0.1557061 -0.09623701 
-0.947213 0.162458 0.276396 0.9831043 -0.1557061 -0.09623702 
-1 -0 1e-06 0.9822469 -5.678187e-07 -0.187593 
-0.947213 -0.162458 0.276397 0.9822469 -5.678186e-07 -0.187593 
-0.947213 0.162458 0.276396 0.9822469 -5.678187e-07 -0.187593 
-0.947213 0.162458 0.276396 0.9325095 -1.093138e-06 -0.3611454 
-0.947213 -0.162458 0.276397 0.9325095 -1.093138e-06 -0.3611454 
-0.850648 0 0.525736 0.9325095 -1.093138e-06 -0.3611454 
-0.947213 -0.162458 0.276397 0.8856704 0.1486668 -0.4398706 
-0.812729 -0.295238 0.502301 0.8856704 0.1486668 -0.4398706 
-0.850648 0 0.525736 0.8856704 0.1486668 -0.4398706 
-0.956626 0.147618 -0.251149 0.9854127 0 0.1701823 
-0.956626 -0.147618 -0.251149 0.9854127 0 0.1701823 
-1 -0 1e-06 0.9854126 0 0.1701823 
-0.956626 -0.147618 -0.251149 0.9846497 0.1559503 0.07838791 
-0.951058 -0.309013 -0 0.9846497 0.1559503 0.07838791 
-1 -0 1e-06 0.9846497 0.1559503 0.0783879 
-1 -0 1e-06 0.9831043 0.1557061 -0.09623667 
-0.951058 -0.309013 -0 0.9831043 0.1557061 -0.09623666 
-0.947213 -0.162458 0.276397 0.9831043 0.1557061 -0.09623667 
-0.951058 -0.309013 -0 0.9363458 0.3046166 -0.1745435 
-0.860698 -0.442858 0.251151 0.9363458 0.3046166 -0.1745435 
-0.947213 -0.162458 0.276397 0.9363458 0.3046166 -0.1745435 
-0.947213 -0.162458 0.276397 0.8863567 0.3048531 -0.3484772 
-0.860698 -0.442858 0.251151 0.8863567 0.3048531 -0.3484772 
-0.812729 -0.295238 0.502301 0.8863567 0.3048531 -0.3484772 
-0.860698 -0.442858 0.251151 0.8192942 0.4120724 -0.3986895 
-0.723607 -0.525725 0.44722 0.8192942 0.4120724 -0.3986895 
-0.812729 -0.295238 0.502301 0.8192942 0.4120724 -0.3986895 
-0.687159 -0.681715 0.251152 0.6450858 0.6518519 -0.3986897 
-0.531941 -0.681712 0.502302 0.6450858 0.6518519 -0.3986897 
-0.723607 -0.525725 0.44722 0.6450858 0.6518519 -0.3986897 
-0.587786 -0.809017 0 0.5790602 0.7963809 -0.1745474 
-0.447216 -0.850648 0.276397 0.5790602 0.7963809 -0.1745474 
-0.687159 -0.681715 0.251152 0.5790602 0.7963809 -0.1745474 
-0.436007 -0.864188 -0.251152 0.4525915 0.8882659 0.07838825 
-0.309017 -0.951056 -1e-06 0.4525915 0.8882658 0.07838826 
-0.587786 -0.809017 0 0.4525915 0.8882659 0.07838825 
-0.687159 -0.681715 0.251152 0.5638369 0.748767 -0.3484767 
-0.447216 -0.850648 0.276397 0.5638369 0.748767 -0.3484767 
-0.531941 -0.681712 0.502302 0.5638369 0.748767 -0.3484767 
-0.447216 -0.850648 0.276397 0.4150852 0.7963784 -0.4398703 
-0.262869 -0.809012 0.525738 0.4150851 0.7963784 -0.4398703 
-0.531941 -0.681712 0.502302 0.4150851 0.7963784 -0.4398703 
-0.587786 -0.809017 0 0.4518808 0.8868722 -0.09623665 
-0.309017 -0.951056 -1e-06 0.4518808 0.8868722 -0.09623665 
-0.447216 -0.850648 0.276397 0.4518808 0.8868722 -0.09623665 
-0.309017 -0.951056 -1e-06 0.3035345 0.9341713 -0.1875922 
-0.138199 -0.951055 0.276397 0.3035345 0.9341713 -0.1875922 
-0.447216 -0.850648 0.276397 0.3035345 0.9341713 -0.1875922 
-0.447216 -0.850648 0.276397 0.2881648 0.8868687 -0.3611439 
-0.138199 -0.951055 0.276397 0.2881648 0.8868687 -0.3611439 
-0.262869 -0.809012 0.525738 0.2881648 0.8868687 -0.3611439 
-0.138199 -0.951055 0.276397 0.1322988 0.8882627 -0.4398708 
0.029639 -0.864184 0.502302 0.1322988 0.8882627 -0.4398708 
-0.262869 -0.809012 0.525738 0.1322988 0.8882627 -0.4398708 
-0.436007 -0.864188 -0.251152 0.3045065 0.9371836 0.1701844 
-0.155215 -0.955422 -0.251152 0.3045065 0.9371836 0.1701844 
-0.309017 -0.951056 -1e-06 0.3045065 0.9371836 0.1701844 
-0.155215 -0.955422 -0.251152 0.1559545 0.9846489 0.07838769 
0 -1 -0 0.1559545 0.984649 0.0783877 
-0.309017 -0.951056 -1e-06 0.1559545 0.9846489 0.07838769 
-0.309017 -0.951056 -1e-06 0.1557103 0.9831039 -0.09623484 
0 -1 -0 0.1557103 0.9831039 -0.09623483 
-0.138199 -0.951055 0.276397 0.1557103 0.9831039 -0.09623483 
0 -1 -0 -0.0003627505 0.9846491 -0.1745453 
0.155215 -0.955422 0.251152 -0.0003627505 0.9846491 -0.1745453 
-0.138199 -0.951055 0.276397 -0.0003627506 0.9846491 -0.1745453 
-0.138199 -0.951055 0.276397 -0.01603409 0.9371803 -0.3484767 
0.155215 -0.955422 0.251152 -0.01603409 0.9371803 -0.3484767 
0.029639 -0.864184 0.502302 -0.01603409 0.9371803 -0.3484767 
0.155215 -0.955422 0.251152 -0.1387262 0.9065328 -0.3986896 
0.276388 -0.850649 0.44722 -0.1387262 0.9065328 -0.3986896 
0.029639 -0.864184 0.502302 -0.1387262 0.9065328 -0.3986896 
0.436007 -0.864188 0.251152 -0.4206058 0.8149462 -0.3986895 
0.483971 -0.716565 0.502302 -0.4206058 0.8149462 -0.3986896 
0.276388 -0.850649 0.44722 -0.4206058 0.8149463 -0.3986895 
0.587786 -0.809017 0 -0.5784656 0.796813 -0.1745475 
0.67082 -0.68819 0.276396 -0.5784656 0.796813 -0.1745475 
0.436007 -0.864188 0.251152 -0.5784656 0.796813 -0.1745475 
0.687159 -0.681715 -0.251152 -0.7049322 0.7049296 0.07838972 
0.809019 -0.587783 -2e-06 -0.7049322 0.7049296 0.07838972 
0.587786 -0.809017 0 -0.7049322 0.7049296 0.07838972 
0.436007 -0.864188 0.251152 -0.5378875 0.7676215 -0.3484744 
0.67082 -0.68819 0.276396 -0.5378875 0.7676215 -0.3484744 
0.483971 -0.716565 0.502302 -0.5378875 0.7676215 -0.3484744 
0.67082 -0.68819 0.276396 -0.6291382 0.6408578 -0.439871 
0.688189 -0.499997 0.525736 -0.6291383 0.6408578 -0.439871 
0.483971 -0.716565 0.502302 -0.6291382 0.6408578 -0.439871 
0.587786 -0.809017 0 -0.7038268 0.7038227 -0.09623605 
0.809019 -0.587783 -2e-06 -0.7038268 0.7038227 -0.09623605 
0.67082 -0.68819 0.276396 -0.7038268 0.7038227 -0.09623605 
0.809019 -0.587783 -2e-06 -0.794655 0.5773491 -0.1875942 
0.861804 -0.425323 0.276394 -0.794655 0.5773491 -0.1875942 
0.67082 -0.68819 0.276396 -0.794655 0.5773491 -0.1875942 
0.67082 -0.68819 0.276396 -0.7544178 0.5481138 -0.3611442 
0.861804 -0.425323 0.276394 -0.7544178 0.5481138 -0.3611442 
0.688189 -0.499997 0.525736 -0.7544178 0.5481138 -0.3611442 
0.861804 -0.425323 0.276394 -0.8039076 0.4003104 -0.4398684 
0.831051 -0.238853 0.502299 -0.8039076 0.4003104 -0.4398684 
0.688189 -0.499997 0.525736 -0.8039076 0.4003104 -0.4398684 
0.687159 -0.681715 -0.251152 -0.7972164 0.5792083 0.1701875 
0.860698 -0.442858 -0.251151 -0.7972164 0.5792083 0.1701875 
0.809019 -0.587783 -2e-06 -0.7972164 0.5792083 0.1701875 
0.860698 -0.442858 -0.251151 -0.8882671 0.4525895 0.07838694 
0.951058 -0.309013 -0 -0.888267 0.4525894 0.07838694 
0.809019 -0.587783 -2e-06 -0.888267 0.4525894 0.07838694 
0.809019 -0.587783 -2e-06 -0.8868727 0.4518803 -0.09623475 
0.951058 -0.309013 -0 -0.8868727 0.4518803 -0.09623475 
0.861804 -0.425323 0.276394 -0.8868727 0.4518803 -0.09623475 
0.951058 -0.309013 -0 -0.9365706 0.3039235 -0.1745453 
0.956626 -0.147618 0.251149 -0.9365706 0.3039235 -0.1745453 
0.861804 -0.425323 0.276394 -0.9365706 0.3039235 -0.1745453 
0.861804 -0.425323 0.276394 -0.8962694 0.2743519 -0.3484712 
0.956626 -0.147618 0.251149 -0.8962694 0.2743519 -0.3484712 
0.831051 -0.238853 0.502299 -0.8962694 0.2743519 -0.3484712 
0.956626 -0.147618 0.251149 -0.9050359 0.1481911 -0.3986847 
0.894426 0 0.447216 -0.9050359 0.1481911 -0.3986847 
0.831051 -0.238853 0.502299 -0.9050359 0.1481911 -0.3986847 
0.436007 0.864188 0.251152 -0.2945476 -0.9065331 -0.3023898 
0.155215 0.955422 0.251152 -0.2945476 -0.9065331 -0.3023898 
0.276388 0.850649 0.44722 -0.2945476 -0.9065331 -0.3023898 
0.587786 0.809017 -0 -0.4525912 -0.888266 -0.07838809 
0.309017 0.951056 -0 -0.4525912 -0.888266 -0.07838809 
0.436007 0.864188 0.251152 -0.4525912 -0.888266 -0.07838809 
0.687159 0.681715 -0.251152 -0.5790607 -0.7963806 0.1745471 
0.447216 0.850648 -0.276398 -0.5790607 -0.7963806 0.1745471 
0.587786 0.809017 -0 -0.5790607 -0.7963806 0.1745471 
0.436007 0.864188 0.251152 -0.3045065 -0.9371837 -0.1701837 
0.309017 0.951056 -0 -0.3045065 -0.9371837 -0.1701837 
0.155215 0.955422 0.251152 -0.3045065 -0.9371837 -0.1701837 
0.309017 0.951056 -0 -0.1559547 -0.9846489 -0.07838754 
0 1 0 -0.1559547 -0.9846489 -0.07838754 
0.155215 0.955422 0.251152 -0.1559547 -0.9846489 -0.07838754 
0.587786 0.809017 -0 -0.451881 -0.8868721 0.09623647 
0.447216 0.850648 -0.276398 -0.451881 -0.8868721 0.09623647 
0.309017 0.951056 -0 -0.451881 -0.8868721 0.09623647 
0.447216 0.850648 -0.276398 -0.3035345 -0.9341713 0.1875922 
0.138199 0.951055 -0.276398 -0.3035345 -0.9341713 0.1875922 
0.309017 0.951056 -0 -0.3035345 -0.9341713 0.1875922 
0.309017 0.951056 -0 -0.15571 -0.983104 0.09623466 
0.138199 0.951055 -0.276398 -0.15571 -0.9831039 0.09623464 
0 1 0 -0.15571 -0.9831039 0.09623465 
0.138199 0.951055 -0.276398 0.0003633229 -0.9846492 0.1745449 
-0.155215 0.955422 -0.251152 0.0003633229 -0.9846491 0.1745449 
0 1 0 0.0003633229 -0.9846492 0.1745449 
0.687159 0.681715 -0.251152 -0.5638378 -0.7487661 0.3484772 
0.531941 0.681712 -0.502302 -0.5638378 -0.7487661 0.3484772 
0.447216 0.850648 -0.276398 -0.5638378 -0.7487661 0.3484772 
0.531941 0.681712 -0.502302 -0.4150849 -0.7963776 0.4398718 
0.262869 0.809012 -0.525738 -0.4150849 -0.7963776 0.4398718 
0.447216 0.850648 -0.276398 -0.4150849 -0.7963776 0.4398718 
0.447216 0.850648 -0.276398 -0.2881647 -0.8868682 0.3611452 
0.262869 0.809012 -0.525738 -0.2881647 -0.8868682 0.3611452 
0.138199 0.951055 -0.276398 -0.2881647 -0.8868682 0.3611452 
0.262869 0.809012 -0.525738 -0.1322985 -0.8882621 0.4398723 
-0.029639 0.864184 -0.502302 -0.1322985 -0.8882621 0.4398723 
0.138199 0.951055 -0.276398 -0.1322985 -0.8882621 0.4398723 
0.138199 0.951055 -0.276398 0.01603533 -0.9371801 0.3484772 
-0.029639 0.864184 -0.502302 0.01603533 -0.9371801 0.3484772 
-0.155215 0.955422 -0.251152 0.01603533 -0.9371801 0.3484772 
-0.029639 0.864184 -0.502302 0.1387262 -0.9065328 0.3986896 
-0.276388 0.850649 -0.44722 0.1387262 -0.9065328 0.3986896 
-0.155215 0.955422 -0.251152 0.1387262 -0.9065328 0.3986896 
-0.687159 0.681715 0.251152 0.7711439 -0.5602651 -0.3023905 
-0.860698 0.442858 0.251151 0.771144 -0.5602651 -0.3023905 
-0.723607 0.525725 0.44722 0.771144 -0.5602651 -0.3023905 
-0.587786 0.809017 -0 0.7049342 -0.7049277 -0.07838794 
-0.809018 0.587783 -0 0.7049342 -0.7049277 -0.07838794 
-0.687159 0.681715 0.251152 0.7049342 -0.7049277 -0.07838794 
-0.436007 0.864188 -0.251152 0.5784646 -0.7968138 0.1745468 
-0.670819 0.688191 -0.276397 0.5784646 -0.7968138 0.1745468 
-0.587786 0.809017 -0 0.5784646 -0.7968138 0.1745468 
-0.687159 0.681715 0.251152 0.797217 -0.5792087 -0.1701831 
-0.809018 0.587783 -0 0.797217 -0.5792087 -0.1701831 
-0.860698 0.442858 0.251151 0.797217 -0.5792087 -0.1701831 
-0.809018 0.587783 -0 0.8882657 -0.4525926 -0.07838482 
-0.951058 0.309013 0 0.8882657 -0.4525926 -0.07838482 
-0.860698 0.442858 0.251151 0.8882657 -0.4525926 -0.07838482 
-0.587786 0.809017 -0 0.7038281 -0.7038217 0.09623484 
-0.670819 0.688191 -0.276397 0.7038281 -0.7038217 0.09623484 
-0.809018 0.587783 -0 0.7038281 -0.7038217 0.09623484 
-0.670819 0.688191 -0.276397 0.7946548 -0.5773498 0.1875925 
-0.861803 0.425324 -0.276396 0.7946548 -0.5773498 0.1875925 
-0.809018 0.587783 -0 0.7946549 -0.5773498 0.1875925 
-0.809018 0.587783 -0 0.8868717 -0.4518823 0.09623451 
-0.861803 0.425324 -0.276396 0.8868717 -0.4518823 0.09623451 
-0.951058 0.309013 0 0.8868717 -0.4518823 0.09623451 
-0.861803 0.425324 -0.276396 0.9365702 -0.3039244 0.1745459 
-0.956626 0.147618 -0.251149 0.9365702 -0.3039244 0.1745459 
-0.951058 0.309013 0 0.9365702 -0.3039245 0.1745459 
-0.436007 0.864188 -0.251152 0.5378856 -0.7676223 0.3484753 
-0.483971 0.716565 -0.502302 0.5378856 -0.7676223 0.3484753 
-0.670819 0.688191 -0.276397 0.5378856 -0.7676223 0.3484753 
-0.483971 0.716565 -0.502302 0.6291376 -0.6408573 0.4398725 
-0.688189 0.499997 -0.525736 0.6291376 -0.6408573 0.4398725 
-0.670819 0.688191 -0.276397 0.6291376 -0.6408573 0.4398725 
-0.670819 0.688191 -0.276397 0.7544168 -0.5481144 0.3611453 
-0.688189 0.499997 -0.525736 0.7544168 -0.5481144 0.3611453 
-0.861803 0.425324 -0.276396 0.7544168 -0.5481144 0.3611453 
-0.688189 0.499997 -0.525736 0.803907 -0.4003099 0.4398699 
-0.831051 0.238853 -0.502299 0.803907 -0.4003099 0.4398699 
-0.861803 0.425324 -0.276396 0.803907 -0.4003099 0.4398699 
-0.861803 0.425324 -0.276396 0.8962695 -0.2743517 0.3484713 
-0.831051 0.238853 -0.502299 0.8962695 -0.2743517 0.3484713 
-0.956626 0.147618 -0.251149 0.8962695 -0.2743517 0.3484713 
-0.831051 0.238853 -0.502299 0.9050359 -0.1481911 0.3986847 
-0.894426 0 -0.447216 0.9050359 -0.1481911 0.3986847 
-0.956626 0.147618 -0.251149 0.9050359 -0.1481911 0.3986847 
-0.860698 -0.442858 0.251151 0.771144 0.5602651 -0.3023905 
-0.687159 -0.681715 0.251152 0.771144 0.5602651 -0.3023905 
-0.723607 -0.525725 0.44722 0.771144 0.5602651 -0.3023905 
-0.951058 -0.309013 -0 0.8882657 0.4525926 -0.0783848 
-0.809018 -0.587783 0 0.8882657 0.4525926 -0.0783848 
-0.860698 -0.442858 0.251151 0.8882657 0.4525926 -0.0783848 
-0.956626 -0.147618 -0.251149 0.9365702 0.3039244 0.1745459 
-0.861803 -0.425324 -0.276396 0.9365702 0.3039244 0.1745459 
-0.951058 -0.309013 -0 0.9365702 0.3039245 0.1745459 
-0.860698 -0.442858 0.251151 0.797217 0.5792087 -0.1701831 
-0.809018 -0.587783 0 0.797217 0.5792087 -0.1701831 
-0.687159 -0.681715 0.251152 0.797217 0.5792087 -0.1701831 
-0.809018 -0.587783 0 0.7049342 0.7049277 -0.07838794 
-0.587786 -0.809017 0 0.7049342 0.7049277 -0.07838794 
-0.687159 -0.681715 0.251152 0.7049342 0.7049277 -0.07838794 
-0.951058 -0.309013 -0 0.8868717 0.4518823 0.09623451 
-0.861803 -0.425324 -0.276396 0.8868717 0.4518823 0.09623451 
-0.809018 -0.587783 0 0.8868717 0.4518823 0.09623451 
-0.861803 -0.425324 -0.276396 0.7946549 0.5773497 0.1875925 
-0.670819 -0.688191 -0.276397 0.7946549 0.5773497 0.1875924 
-0.809018 -0.587783 0 0.7946549 0.5773497 0.1875925 
-0.809018 -0.587783 0 0.7038281 0.7038217 0.09623484 
-0.670819 -0.688191 -0.276397 0.7038281 0.7038217 0.09623484 
-0.587786 -0.809017 0 0.7038281 0.7038217 0.09623484 
-0.670819 -0.688191 -0.276397 0.5784646 0.7968138 0.1745468 
-0.436007 -0.864188 -0.251152 0.5784646 0.7968138 0.1745468 
-0.587786 -0.809017 0 0.5784646 0.7968138 0.1745468 
-0.956626 -0.147618 -0.251149 0.8962695 0.2743517 0.3484713 
-0.831051 -0.238853 -0.502299 0.8962695 0.2743517 0.3484713 
-0.861803 -0.425324 -0.276396 0.8962695 0.2743517 0.3484713 
-0.831051 -0.238853 -0.502299 0.803907 0.4003099 0.4398699 
-0.688189 -0.499997 -0.525736 0.803907 0.4003099 0.4398699 
-0.861803 -0.425324 -0.276396 0.803907 0.4003099 0.4398699 
-0.861803 -0.425324 -0.276396 0.7544168 0.5481144 0.3611453 
-0.688189 -0.499997 -0.525736 0.7544168 0.5481144 0.3611453 
-0.670819 -0.688191 -0.276397 0.7544168 0.5481144 0.3611453 
-0.688189 -0.499997 -0.525736 0.6291376 0.6408573 0.4398725 
-0.483971 -0.716565 -0.502302 0.6291376 0.6408573 0.4398725 
-0.670819 -0.688191 -0.276397 0.6291376 0.6408573 0.4398725 
-0.670819 -0.688191 -0.276397 0.5378856 0.7676223 0.3484753 
-0.483971 -0.716565 -0.502302 0.5378856 0.7676223 0.3484753 
-0.436007 -0.864188 -0.251152 0.5378856 0.7676223 0.3484753 
-0.483971 -0.716565 -0.502302 0.4206058 0.8149462 0.3986896 
-0.276388 -0.850649 -0.44722 0.4206058 0.8149463 0.3986895 
-0.436007 -0.864188 -0.251152 0.4206058 0.8149462 0.3986895 
0.155215 -0.955422 0.251152 -0.2945476 0.9065331 -0.3023898 
0.436007 -0.864188 0.251152 -0.2945476 0.9065331 -0.3023898 
0.276388 -0.850649 0.44722 -0.2945476 0.9065331 -0.3023898 
0 -1 -0 -0.1559547 0.9846489 -0.07838754 
0.309017 -0.951056 0 -0.1559547 0.9846489 -0.07838754 
0.155215 -0.955422 0.251152 -0.1559547 0.9846489 -0.07838754 
-0.155215 -0.955422 -0.251152 0.0003633215 0.9846491 0.1745449 
0.138199 -0.951055 -0.276398 0.0003633214 0.9846491 0.1745449 
0 -1 -0 0.0003633215 0.9846492 0.1745449 
0.155215 -0.955422 0.251152 -0.3045065 0.9371837 -0.1701837 
0.309017 -0.951056 0 -0.3045065 0.9371837 -0.1701837 
0.436007 -0.864188 0.251152 -0.3045065 0.9371837 -0.1701837 
0.309017 -0.951056 0 -0.4525912 0.888266 -0.07838809 
0.587786 -0.809017 0 -0.4525912 0.888266 -0.07838809 
0.436007 -0.864188 0.251152 -0.4525912 0.888266 -0.07838809 
0 -1 -0 -0.15571 0.9831039 0.09623465 
0.138199 -0.951055 -0.276398 -0.15571 0.9831039 0.09623464 
0.309017 -0.951056 0 -0.15571 0.983104 0.09623466 
0.138199 -0.951055 -0.276398 -0.3035345 0.9341713 0.1875922 
0.447216 -0.850648 -0.276398 -0.3035345 0.9341713 0.1875922 
0.309017 -0.951056 0 -0.3035345 0.9341713 0.1875922 
0.309017 -0.951056 0 -0.451881 0.8868721 0.09623647 
0.447216 -0.850648 -0.276398 -0.451881 0.8868721 0.09623647 
0.587786 -0.809017 0 -0.451881 0.8868721 0.09623647 
0.447216 -0.850648 -0.276398 -0.5790607 0.7963806 0.1745471 
0.687159 -0.681715 -0.251152 -0.5790607 0.7963806 0.1745471 
0.587786 -0.809017 0 -0.5790607 0.7963806 0.1745471 
-0.155215 -0.955422 -0.251152 0.01603533 0.9371801 0.3484772 
-0.029639 -0.864184 -0.502302 0.01603533 0.9371801 0.3484772 
0.138199 -0.951055 -0.276398 0.01603533 0.9371801 0.3484772 
-0.029639 -0.864184 -0.502302 -0.1322985 0.8882621 0.4398723 
0.262869 -0.809012 -0.525738 -0.1322985 0.8882621 0.4398723 
0.138199 -0.951055 -0.276398 -0.1322985 0.8882621 0.4398723 
0.138199 -0.951055 -0.276398 -0.2881647 0.8868682 0.3611452 
0.262869 -0.809012 -0.525738 -0.2881647 0.8868682 0.3611452 
0.447216 -0.850648 -0.276398 -0.2881647 0.8868682 0.3611452 
0.262869 -0.809012 -0.525738 -0.4150849 0.7963776 0.4398718 
0.531941 -0.681712 -0.502302 -0.4150849 0.7963776 0.4398718 
0.447216 -0.850648 -0.276398 -0.4150849 0.7963776 0.4398718 
0.447216 -0.850648 -0.276398 -0.5638378 0.7487661 0.3484772 
0.531941 -0.681712 -0.502302 -0.5638378 0.7487661 0.3484772 
0.687159 -0.681715 -0.251152 -0.5638378 0.7487661 0.3484772 
0.531941 -0.681712 -0.502302 -0.6450858 0.6518519 0.3986897 
0.723607 -0.525725 -0.44722 -0.6450858 0.6518519 0.3986897 
0.687159 -0.681715 -0.251152 -0.6450858 0.6518519 0.3986897 
0.956626 -0.147618 0.251149 -0.9531853 0 -0.3023871 
0.956626 0.147618 0.251149 -0.9531853 0 -0.3023871 
0.894426 0 0.447216 -0.9531853 0 -0.3023871 
0.951058 -0.309013 -0 -0.9846496 0.1559505 -0.07838807 
1 0 0 -0.9846496 0.1559506 -0.07838807 
0.956626 -0.147618 0.251149 -0.9846496 0.1559505 -0.07838807 
0.860698 -0.442858 -0.251151 -0.9363459 0.304616 0.1745439 
0.947213 -0.162458 -0.276396 -0.9363459 0.304616 0.1745439 
0.951058 -0.309013 -0 -0.9363459 0.304616 0.1745439 
0.956626 -0.147618 0.251149 -0.9854125 0 -0.170183 
1 0 0 -0.9854125 0 -0.170183 
0.956626 0.147618 0.251149 -0.9854125 0 -0.170183 
1 0 0 -0.9846496 -0.1559506 -0.07838807 
0.951058 0.309013 0 -0.9846496 -0.1559505 -0.07838807 
0.956626 0.147618 0.251149 -0.9846496 -0.1559505 -0.07838807 
0.951058 -0.309013 -0 -0.9831043 0.1557058 0.09623684 
0.947213 -0.162458 -0.276396 -0.9831043 0.1557058 0.09623683 
1 0 0 -0.9831043 0.1557058 0.09623685 
0.947213 -0.162458 -0.276396 -0.9822469 0 0.1875927 
0.947213 0.162458 -0.276396 -0.9822469 0 0.1875927 
1 0 0 -0.9822469 0 0.1875927 
1 0 0 -0.9831043 -0.1557058 0.09623685 
0.947213 0.162458 -0.276396 -0.9831043 -0.1557058 0.09623683 
0.951058 0.309013 0 -0.9831043 -0.1557058 0.09623684 
0.947213 0.162458 -0.276396 -0.9363459 -0.304616 0.1745439 
0.860698 0.442858 -0.251151 -0.9363459 -0.304616 0.1745439 
0.951058 0.309013 0 -0.9363459 -0.304616 0.1745439 
0.860698 -0.442858 -0.251151 -0.8863574 0.304852 0.3484767 
0.812729 -0.295238 -0.502301 -0.8863573 0.304852 0.3484767 
0.947213 -0.162458 -0.276396 -0.8863573 0.304852 0.3484767 
0.812729 -0.295238 -0.502301 -0.8856712 0.1486668 0.4398691 
0.850648 0 -0.525736 -0.8856712 0.1486668 0.4398691 
0.947213 -0.162458 -0.276396 -0.8856711 0.1486668 0.4398691 
0.947213 -0.162458 -0.276396 -0.9325098 0 0.3611447 
0.850648 0 -0.525736 -0.9325098 0 0.3611447 
0.947213 0.162458 -0.276396 -0.9325098 0 0.3611447 
0.850648 0 -0.525736 -0.8856711 -0.1486668 0.4398692 
0.812729 0.295238 -0.502301 -0.8856711 -0.1486668 0.4398692 
0.947213 0.162458 -0.276396 -0.8856711 -0.1486668 0.4398692 
0.947213 0.162458 -0.276396 -0.8863573 -0.304852 0.3484767 
0.812729 0.295238 -0.502301 -0.8863573 -0.304852 0.3484767 
0.860698 0.442858 -0.251151 -0.8863574 -0.304852 0.3484767 
0.812729 0.295238 -0.502301 -0.8192942 -0.4120724 0.3986895 
0.723607 0.525725 -0.44722 -0.8192942 -0.4120724 0.3986895 
0.860698 0.442858 -0.251151 -0.8192942 -0.4120724 0.3986895 
0.609547 0.442856 -0.657519 -0.6153262 -0.5602628 0.5545082 
0.531941 0.681712 -0.502302 -0.6153262 -0.5602627 0.5545081 
0.723607 0.525725 -0.44722 -0.6153262 -0.5602627 0.5545082 
0.425323 0.309011 -0.850654 -0.4673527 -0.4525871 0.7594382 
0.361803 0.587779 -0.723612 -0.4673527 -0.4525871 0.7594382 
0.609547 0.442856 -0.657519 -0.4673527 -0.4525871 0.7594382 
0.203181 0.147618 -0.96795 -0.2627292 -0.3039227 0.9157534 
0.138197 0.425321 -0.894429 -0.2627292 -0.3039227 0.9157535 
0.425323 0.309011 -0.850654 -0.2627292 -0.3039227 0.9157534 
0.609547 0.442856 -0.657519 -0.5087426 -0.5792052 0.6369478 
0.361803 0.587779 -0.723612 -0.5087426 -0.5792052 0.6369478 
0.531941 0.681712 -0.502302 -0.5087426 -0.5792052 0.6369478 
0.361803 0.587779 -0.723612 -0.385369 -0.7049235 0.595461 
0.262869 0.809012 -0.525738 -0.385369 -0.7049235 0.595461 
0.531941 0.681712 -0.502302 -0.385369 -0.7049235 0.595461 
0.425323 0.309011 -0.850654 -0.3105469 -0.4518771 0.8362821 
0.138197 0.425321 -0.894429 -0.3105469 -0.4518771 0.8362821 
0.361803 0.587779 -0.723612 -0.3105469 -0.4518771 0.8362821 
0.138197 0.425321 -0.894429 -0.1875925 -0.5773453 0.7946582 
0.052789 0.688186 -0.723611 -0.1875925 -0.5773453 0.7946582 
0.361803 0.587779 -0.723612 -0.1875925 -0.5773453 0.7946582 
0.361803 0.587779 -0.723612 -0.2286874 -0.7038183 0.6725637 
0.052789 0.688186 -0.723611 -0.2286874 -0.7038183 0.6725637 
0.262869 0.809012 -0.525738 -0.2286874 -0.7038183 0.6725637 
0.052789 0.688186 -0.723611 -0.1025827 -0.7968078 0.5954612 
-0.029639 0.864184 -0.502302 -0.1025827 -0.7968078 0.5954612 
0.262869 0.809012 -0.525738 -0.1025827 -0.7968078 0.5954612 
0.203181 0.147618 -0.96795 -0.08914381 -0.2743521 0.9574886 
-0.077607 0.238853 -0.96795 -0.08914381 -0.2743521 0.9574886 
0.138197 0.425321 -0.894429 -0.08914381 -0.2743521 0.9574886 
-0.077607 0.238853 -0.96795 0.03390808 -0.4003075 0.9157534 
-0.162456 0.499995 -0.850654 0.03390808 -0.4003075 0.9157533 
0.138197 0.425321 -0.894429 0.03390808 -0.4003075 0.9157533 
0.138197 0.425321 -0.894429 -0.01437373 -0.5481124 0.8362812 
-0.162456 0.499995 -0.850654 -0.01437372 -0.5481124 0.8362812 
0.052789 0.688186 -0.723611 -0.01437373 -0.5481124 0.8362812 
-0.162456 0.499995 -0.850654 0.1120661 -0.6408544 0.7594386 
-0.232822 0.716563 -0.657519 0.1120661 -0.6408544 0.7594386 
0.052789 0.688186 -0.723611 0.1120661 -0.6408544 0.7594386 
0.052789 0.688186 -0.723611 0.07112619 -0.767619 0.6369475 
-0.232822 0.716563 -0.657519 0.07112619 -0.767619 0.6369475 
-0.029639 0.864184 -0.502302 0.07112619 -0.767619 0.6369475 
-0.232822 0.716563 -0.657519 0.168486 -0.814943 0.5545092 
-0.276388 0.850649 -0.44722 0.168486 -0.814943 0.5545092 
-0.029639 0.864184 -0.502302 0.168486 -0.814943 0.5545092 
-0.232822 0.716563 -0.657519 0.3426956 -0.75834 0.5545089 
-0.483971 0.716565 -0.502302 0.3426956 -0.75834 0.5545089 
-0.276388 0.850649 -0.44722 0.3426956 -0.75834 0.5545089 
-0.162456 0.499995 -0.850654 0.286016 -0.5843356 0.7594385 
-0.447211 0.525727 -0.723612 0.286016 -0.5843356 0.7594385 
-0.232822 0.716563 -0.657519 0.286016 -0.5843356 0.7594385 
-0.077607 0.238853 -0.96795 0.2078605 -0.3437878 0.9157533 
-0.361801 0.262863 -0.894429 0.2078605 -0.3437878 0.9157532 
-0.162456 0.499995 -0.850654 0.2078605 -0.3437878 0.9157532 
-0.232822 0.716563 -0.657519 0.3936462 -0.662827 0.6369483 
-0.447211 0.525727 -0.723612 0.3936462 -0.662827 0.6369483 
-0.483971 0.716565 -0.502302 0.3936462 -0.662827 0.6369483 
-0.447211 0.525727 -0.723612 0.5513445 -0.5843358 0.5954585 
-0.688189 0.499997 -0.525736 0.5513446 -0.5843359 0.5954586 
-0.483971 0.716565 -0.502302 0.5513446 -0.5843359 0.5954586 
-0.162456 0.499995 -0.850654 0.3337958 -0.4349848 0.8362827 
-0.361801 0.262863 -0.894429 0.3337958 -0.4349848 0.8362827 
-0.447211 0.525727 -0.723612 0.3337958 -0.4349848 0.8362827 
-0.361801 0.262863 -0.894429 0.4911229 -0.3568165 0.7946574 
-0.638195 0.262863 -0.723609 0.4911229 -0.3568165 0.7946574 
-0.447211 0.525727 -0.723612 0.4911229 -0.3568165 0.7946574 
-0.447211 0.525727 -0.723612 0.5987086 -0.4349843 0.6725598 
-0.638195 0.262863 -0.723609 0.5987086 -0.4349843 0.6725598 
-0.688189 0.499997 -0.525736 0.5987086 -0.4349843 0.6725599 
-0.638195 0.262863 -0.723609 0.7261125 -0.3437879 0.5954582 
-0.831051 0.238853 -0.502299 0.7261125 -0.3437879 0.5954582 
-0.688189 0.499997 -0.525736 0.7261125 -0.3437879 0.5954582 
-0.077607 0.238853 -0.96795 0.2333773 -0.1695576 0.957489 
-0.251147 0 -0.967949 0.2333773 -0.1695576 0.957489 
-0.361801 0.262863 -0.894429 0.2333773 -0.1695576 0.957489 
-0.251147 0 -0.967949 0.3911936 -0.09145068 0.9157534 
-0.52573 0 -0.850652 0.3911936 -0.09145068 0.9157534 
-0.361801 0.262863 -0.894429 0.3911936 -0.09145068 0.9157534 
-0.361801 0.262863 -0.894429 0.5168466 -0.1830471 0.8362795 
-0.52573 0 -0.850652 0.5168466 -0.1830471 0.8362795 
-0.638195 0.262863 -0.723609 0.5168466 -0.1830471 0.8362795 
-0.52573 0 -0.850652 0.6441244 -0.09145213 0.7594343 
-0.753442 0 -0.657515 0.6441244 -0.09145213 0.7594342 
-0.638195 0.262863 -0.723609 0.6441244 -0.09145213 0.7594343 
-0.638195 0.262863 -0.723609 0.7520303 -0.1695597 0.6369458 
-0.753442 0 -0.657515 0.7520303 -0.1695597 0.6369458 
-0.831051 0.238853 -0.502299 0.7520303 -0.1695597 0.6369458 
-0.753442 0 -0.657515 0.8271262 -0.09158517 0.5545037 
-0.894426 0 -0.447216 0.8271262 -0.09158517 0.5545037 
-0.831051 0.238853 -0.502299 0.8271263 -0.09158517 0.5545037 
-0.753442 0 -0.657515 0.8271263 0.09158517 0.5545037 
-0.831051 -0.238853 -0.502299 0.8271263 0.09158517 0.5545037 
-0.894426 0 -0.447216 0.8271263 0.09158517 0.5545037 
-0.52573 0 -0.850652 0.6441244 0.09145178 0.7594342 
-0.638195 -0.262864 -0.723609 0.6441244 0.09145178 0.7594342 
-0.753442 0 -0.657515 0.6441244 0.09145178 0.7594342 
-0.251147 0 -0.967949 0.3911934 0.09145384 0.9157532 
-0.361801 -0.262864 -0.894428 0.3911935 0.09145385 0.9157532 
-0.52573 0 -0.850652 0.3911935 0.09145385 0.9157532 
-0.753442 0 -0.657515 0.7520308 0.1695593 0.6369454 
-0.638195 -0.262864 -0.723609 0.7520307 0.1695593 0.6369454 
-0.831051 -0.238853 -0.502299 0.7520307 0.1695593 0.6369454 
-0.638195 -0.262864 -0.723609 0.7261132 0.3437883 0.5954571 
-0.688189 -0.499997 -0.525736 0.7261132 0.3437883 0.5954571 
-0.831051 -0.238853 -0.502299 0.7261132 0.3437883 0.5954571 
-0.52573 0 -0.850652 0.5168444 0.183048 0.8362807 
-0.361801 -0.262864 -0.894428 0.5168444 0.183048 0.8362807 
-0.638195 -0.262864 -0.723609 0.5168444 0.183048 0.8362807 
-0.361801 -0.262864 -0.894428 0.4911202 0.3568192 0.7946578 
-0.447211 -0.525729 -0.72361 0.4911202 0.3568192 0.7946578 
-0.638195 -0.262864 -0.723609 0.4911202 0.3568192 0.7946578 
-0.638195 -0.262864 -0.723609 0.5987069 0.4349865 0.6725599 
-0.447211 -0.525729 -0.72361 0.5987069 0.4349865 0.6725599 
-0.688189 -0.499997 -0.525736 0.5987069 0.4349865 0.6725599 
-0.447211 -0.525729 -0.72361 0.5513445 0.5843359 0.5954586 
-0.483971 -0.716565 -0.502302 0.5513445 0.5843359 0.5954586 
-0.688189 -0.499997 -0.525736 0.5513445 0.5843359 0.5954586 
-0.251147 0 -0.967949 0.2333798 0.1695593 0.9574882 
-0.077607 -0.238853 -0.96795 0.2333797 0.1695593 0.9574881 
-0.361801 -0.262864 -0.894428 0.2333797 0.1695593 0.9574881 
-0.077607 -0.238853 -0.96795 0.2078626 0.343787 0.9157531 
-0.162456 -0.499995 -0.850654 0.2078626 0.343787 0.9157531 
-0.361801 -0.262864 -0.894428 0.2078626 0.343787 0.9157531 
-0.361801 -0.262864 -0.894428 0.3337981 0.4349848 0.8362817 
-0.162456 -0.499995 -0.850654 0.3337981 0.4349848 0.8362817 
-0.447211 -0.525729 -0.72361 0.3337981 0.4349848 0.8362817 
-0.162456 -0.499995 -0.850654 0.2860172 0.5843351 0.7594384 
-0.232822 -0.716563 -0.657519 0.2860172 0.5843351 0.7594384 
-0.447211 -0.525729 -0.72361 0.2860172 0.5843351 0.7594385 
-0.447211 -0.525729 -0.72361 0.3936462 0.6628271 0.6369482 
-0.232822 -0.716563 -0.657519 0.3936462 0.6628271 0.6369481 
-0.483971 -0.716565 -0.502302 0.3936462 0.6628271 0.6369482 
-0.232822 -0.716563 -0.657519 0.3426956 0.75834 0.5545089 
-0.276388 -0.850649 -0.44722 0.3426956 0.75834 0.5545089 
-0.483971 -0.716565 -0.502302 0.3426956 0.75834 0.5545089 
0.812729 0.295238 -0.502301 -0.7229919 -0.4120724 0.554508 
0.609547 0.442856 -0.657519 -0.7229919 -0.4120724 0.554508 
0.723607 0.525725 -0.44722 -0.7229919 -0.4120723 0.554508 
0.850648 0 -0.525736 -0.7895104 -0.1486665 0.5954592 
0.670817 0.162457 -0.723611 -0.7895104 -0.1486665 0.5954592 
0.812729 0.295238 -0.502301 -0.7895104 -0.1486665 0.5954592 
0.812729 -0.295238 -0.502301 -0.7895111 0.1486666 0.5954583 
0.670818 -0.162458 -0.72361 -0.789511 0.1486666 0.5954583 
0.850648 0 -0.525736 -0.7895111 0.1486666 0.5954583 
0.812729 0.295238 -0.502301 -0.7080711 -0.3048532 0.6369458 
0.670817 0.162457 -0.723611 -0.7080711 -0.3048532 0.6369458 
0.609547 0.442856 -0.657519 -0.7080711 -0.3048532 0.6369458 
0.670817 0.162457 -0.723611 -0.5748581 -0.3046172 0.7594384 
0.425323 0.309011 -0.850654 -0.574858 -0.3046172 0.7594383 
0.609547 0.442856 -0.657519 -0.574858 -0.3046172 0.7594383 
0.850648 0 -0.525736 -0.7400433 -7.469666e-08 0.6725593 
0.670818 -0.162458 -0.72361 -0.7400433 -7.469666e-08 0.6725593 
0.670817 0.162457 -0.723611 -0.7400433 -7.469666e-08 0.6725593 
0.670818 -0.162458 -0.72361 -0.6070561 7.33431e-07 0.794659 
0.447211 -1e-06 -0.894428 -0.6070561 7.33431e-07 0.794659 
0.670817 0.162457 -0.723611 -0.6070561 7.33431e-07 0.794659 
0.670817 0.162457 -0.723611 -0.5257271 -0.1557043 0.8362818 
0.447211 -1e-06 -0.894428 -0.5257271 -0.1557043 0.8362818 
0.425323 0.309011 -0.850654 -0.5257271 -0.1557043 0.8362818 
0.447211 -1e-06 -0.894428 -0.3702371 -0.1559484 0.9157535 
0.203181 0.147618 -0.96795 -0.3702371 -0.1559485 0.9157535 
0.425323 0.309011 -0.850654 -0.3702371 -0.1559484 0.9157535 
0.812729 -0.295238 -0.502301 -0.7080713 0.3048543 0.6369451 
0.609547 -0.442856 -0.657519 -0.7080713 0.3048543 0.6369451 
0.670818 -0.162458 -0.72361 -0.7080713 0.3048543 0.6369451 
0.609547 -0.442856 -0.657519 -0.5748579 0.3046175 0.7594384 
0.425323 -0.309011 -0.850654 -0.5748579 0.3046175 0.7594384 
0.670818 -0.162458 -0.72361 -0.5748579 0.3046175 0.7594385 
0.670818 -0.162458 -0.72361 -0.525728 0.1557053 0.836281 
0.425323 -0.309011 -0.850654 -0.525728 0.1557053 0.836281 
0.447211 -1e-06 -0.894428 -0.525728 0.1557053 0.836281 
0.425323 -0.309011 -0.850654 -0.3702365 0.1559494 0.9157537 
0.203181 -0.147618 -0.96795 -0.3702365 0.1559494 0.9157537 
0.447211 -1e-06 -0.894428 -0.3702365 0.1559494 0.9157537 
0.447211 -1e-06 -0.894428 -0.2884743 0 0.9574876 
0.203181 -0.147618 -0.96795 -0.2884744 0 0.9574877 
0.203181 0.147618 -0.96795 -0.2884743 0 0.9574877 
0.203181 -0.147618 -0.96795 -0.1558146 0 0.9877864 
0 0 -1 -0.1558146 0 0.9877864 
0.203181 0.147618 -0.96795 -0.1558146 0 0.9877864 
-0.232822 -0.716563 -0.657519 0.168486 0.814943 0.5545092 
-0.029639 -0.864184 -0.502302 0.168486 0.814943 0.5545092 
-0.276388 -0.850649 -0.44722 0.168486 0.814943 0.5545092 
-0.162456 -0.499995 -0.850654 0.1120661 0.6408544 0.7594386 
0.05279 -0.688185 -0.723612 0.1120661 0.6408544 0.7594386 
-0.232822 -0.716563 -0.657519 0.1120661 0.6408544 0.7594386 
-0.077607 -0.238853 -0.96795 0.03390782 0.4003076 0.9157533 
0.138199 -0.425321 -0.894429 0.03390782 0.4003076 0.9157533 
-0.162456 -0.499995 -0.850654 0.03390782 0.4003076 0.9157533 
-0.232822 -0.716563 -0.657519 0.07112563 0.7676187 0.636948 
0.05279 -0.688185 -0.723612 0.07112563 0.7676187 0.636948 
-0.029639 -0.864184 -0.502302 0.07112563 0.7676187 0.636948 
0.05279 -0.688185 -0.723612 -0.1025827 0.7968076 0.5954615 
0.262869 -0.809012 -0.525738 -0.1025827 0.7968076 0.5954615 
-0.029639 -0.864184 -0.502302 -0.1025827 0.7968076 0.5954615 
-0.162456 -0.499995 -0.850654 -0.01437334 0.5481116 0.8362818 
0.138199 -0.425321 -0.894429 -0.01437334 0.5481116 0.8362818 
0.05279 -0.688185 -0.723612 -0.01437334 0.5481116 0.8362818 
0.138199 -0.425321 -0.894429 -0.1875953 0.5773455 0.7946573 
0.361805 -0.587779 -0.723611 -0.1875953 0.5773455 0.7946573 
0.05279 -0.688185 -0.723612 -0.1875953 0.5773455 0.7946573 
0.05279 -0.688185 -0.723612 -0.2286886 0.7038178 0.6725637 
0.361805 -0.587779 -0.723611 -0.2286886 0.7038178 0.6725637 
0.262869 -0.809012 -0.525738 -0.2286886 0.7038178 0.6725637 
0.361805 -0.587779 -0.723611 -0.3853691 0.7049238 0.5954604 
0.531941 -0.681712 -0.502302 -0.3853691 0.7049238 0.5954604 
0.262869 -0.809012 -0.525738 -0.3853691 0.7049238 0.5954604 
-0.077607 -0.238853 -0.96795 -0.0891436 0.2743514 0.9574888 
0.203181 -0.147618 -0.96795 -0.0891436 0.2743514 0.9574888 
0.138199 -0.425321 -0.894429 -0.0891436 0.2743514 0.9574888 
0.203181 -0.147618 -0.96795 -0.2627304 0.3039212 0.9157536 
0.425323 -0.309011 -0.850654 -0.2627304 0.3039212 0.9157537 
0.138199 -0.425321 -0.894429 -0.2627304 0.3039212 0.9157536 
0.138199 -0.425321 -0.894429 -0.3105492 0.451878 0.8362808 
0.425323 -0.309011 -0.850654 -0.3105492 0.451878 0.8362808 
0.361805 -0.587779 -0.723611 -0.3105492 0.451878 0.8362808 
0.425323 -0.309011 -0.850654 -0.4673531 0.4525867 0.7594382 
0.609547 -0.442856 -0.657519 -0.4673531 0.4525867 0.7594382 
0.361805 -0.587779 -0.723611 -0.4673531 0.4525867 0.7594382 
0.361805 -0.587779 -0.723611 -0.5087438 0.579205 0.636947 
0.609547 -0.442856 -0.657519 -0.5087437 0.579205 0.6369469 
0.531941 -0.681712 -0.502302 -0.5087438 0.579205 0.636947 
0.609547 -0.442856 -0.657519 -0.6153262 0.5602629 0.5545081 
0.723607 -0.525725 -0.44722 -0.6153262 0.5602629 0.5545081 
0.531941 -0.681712 -0.502302 -0.6153262 0.5602628 0.5545081 
3 1 0 2 
3 4 3 5 
3 7 6 8 
3 10 9 11 
3 13 12 14 
3 16 15 17 
3 19 18 20 
3 22 21 23 
3 25 24 26 
3 28 27 29 
3 31 30 32 
3 34 33 35 
3 37 36 38 
3 40 39 41 
3 43 42 44 
3 46 45 47 
3 49 48 50 
3 52 51 53 
3 55 54 56 
3 58 57 59 
3 61 60 62 
3 64 63 65 
3 67 66 68 
3 70 69 71 
3 73 72 74 
3 76 75 77 
3 79 78 80 
3 82 81 83 
3 85 84 86 
3 88 87 89 
3 91 90 92 
3 94 93 95 
3 97 96 98 
3 100 99 101 
3 103 102 104 
3 106 105 107 
3 109 108 110 
3 112 111 113 
3 115 114 116 
3 118 117 119 
3 121 120 122 
3 124 123 125 
3 127 126 128 
3 130 129 131 
3 133 132 134 
3 136 135 137 
3 139 138 140 
3 142 141 143 
3 145 144 146 
3 148 147 149 
3 151 150 152 
3 154 153 155 
3 157 156 158 
3 160 159 161 
3 163 162 164 
3 166 165 167 
3 169 168 170 
3 172 171 173 
3 175 174 176 
3 178 177 179 
3 181 180 182 
3 184 183 185 
3 187 186 188 
3 190 189 191 
3 193 192 194 
3 196 195 197 
3 199 198 200 
3 202 201 203 
3 205 204 206 
3 208 207 209 
3 211 210 212 
3 214 213 215 
3 217 216 218 
3 220 219 221 
3 223 222 224 
3 226 225 227 
3 229 228 230 
3 232 231 233 
3 235 234 236 
3 238 237 239 
3 241 240 242 
3 244 243 245 
3 247 246 248 
3 250 249 251 
3 253 252 254 
3 256 255 257 
3 259 258 260 
3 262 261 263 
3 265 264 266 
3 268 267 269 
3 271 270 272 
3 274 273 275 
3 277 276 278 
3 280 279 281 
3 283 282 284 
3 286 285 287 
3 289 288 290 
3 292 291 293 
3 295 294 296 
3 298 297 299 
3 301 300 302 
3 304 303 305 
3 307 306 308 
3 310 309 311 
3 313 312 314 
3 316 315 317 
3 319 318 320 
3 322 321 323 
3 325 324 326 
3 328 327 329 
3 331 330 332 
3 334 333 335 
3 337 336 338 
3 340 339 341 
3 343 342 344 
3 346 345 347 
3 349 348 350 
3 352 351 353 
3 355 354 356 
3 358 357 359 
3 361 360 362 
3 364 363 365 
3 367 366 368 
3 370 369 371 
3 373 372 374 
3 376 375 377 
3 379 378 380 
3 382 381 383 
3 385 384 386 
3 388 387 389 
3 391 390 392 
3 394 393 395 
3 397 396 398 
3 400 399 401 
3 403 402 404 
3 406 405 407 
3 409 408 410 
3 412 411 413 
3 415 414 416 
3 418 417 419 
3 421 420 422 
3 424 423 425 
3 427 426 428 
3 430 429 431 
3 433 432 434 
3 436 435 437 
3 439 438 440 
3 442 441 443 
3 445 444 446 
3 448 447 449 
3 451 450 452 
3 454 453 455 
3 457 456 458 
3 460 459 461 
3 463 462 464 
3 466 465 467 
3 469 468 470 
3 472 471 473 
3 475 474 476 
3 478 477 479 
3 481 480 482 
3 484 483 485 
3 487 486 488 
3 490 489 491 
3 493 492 494 
3 496 495 497 
3 499 498 500 
3 502 501 503 
3 505 504 506 
3 508 507 509 
3 511 510 512 
3 514 513 515 
3 517 516 518 
3 520 519 521 
3 523 522 524 
3 526 525 527 
3 529 528 530 
3 532 531 533 
3 535 534 536 
3 538 537 539 
3 541 540 542 
3 544 543 545 
3 547 546 548 
3 550 549 551 
3 553 552 554 
3 556 555 557 
3 559 558 560 
3 562 561 563 
3 565 564 566 
3 568 567 569 
3 571 570 572 
3 574 573 575 
3 577 576 578 
3 580 579 581 
3 583 582 584 
3 586 585 587 
3 589 588 590 
3 592 591 593 
3 595 594 596 
3 598 597 599 
3 601 600 602 
3 604 603 605 
3 607 606 608 
3 610 609 611 
3 613 612 614 
3 616 615 617 
3 619 618 620 
3 622 621 623 
3 625 624 626 
3 628 627 629 
3 631 630 632 
3 634 633 635 
3 637 636 638 
3 640 639 641 
3 643 642 644 
3 646 645 647 
3 649 648 650 
3 652 651 653 
3 655 654 656 
3 658 657 659 
3 661 660 662 
3 664 663 665 
3 667 666 668 
3 670 669 671 
3 673 672 674 
3 676 675 677 
3 679 678 680 
3 682 681 683 
3 685 684 686 
3 688 687 689 
3 691 690 692 
3 694 693 695 
3 697 696 698 
3 700 699 701 
3 703 702 704 
3 706 705 707 
3 709 708 710 
3 712 711 713 
3 715 714 716 
3 718 717 719 
3 721 720 722 
3 724 723 725 
3 727 726 728 
3 730 729 731 
3 733 732 734 
3 736 735 737 
3 739 738 740 
3 742 741 743 
3 745 744 746 
3 748 747 749 
3 751 750 752 
3 754 753 755 
3 757 756 758 
3 760 759 761 
3 763 762 764 
3 766 765 767 
3 769 768 770 
3 772 771 773 
3 775 774 776 
3 778 777 779 
3 781 780 782 
3 784 783 785 
3 787 786 788 
3 790 789 791 
3 793 792 794 
3 796 795 797 
3 799 798 800 
3 802 801 803 
3 805 804 806 
3 808 807 809 
3 811 810 812 
3 814 813 815 
3 817 816 818 
3 820 819 821 
3 823 822 824 
3 826 825 827 
3 829 828 830 
3 832 831 833 
3 835 834 836 
3 838 837 839 
3 841 840 842 
3 844 843 845 
3 847 846 848 
3 850 849 851 
3 853 852 854 
3 856 855 857 
3 859 858 860 
3 862 861 863 
3 865 864 866 
3 868 867 869 
3 871 870 872 
3 874 873 875 
3 877 876 878 
3 880 879 881 
3 883 882 884 
3 886 885 887 
3 889 888 890 
3 892 891 893 
3 895 894 896 
3 898 897 899 
3 901 900 902 
3 904 903 905 
3 907 906 908 
3 910 909 911 
3 913 912 914 
3 916 915 917 
3 919 918 920 
3 922 921 923 
3 925 924 926 
3 928 927 929 
3 931 930 932 
3 934 933 935 
3 937 936 938 
3 940 939 941 
3 943 942 944 
3 946 945 947 
3 949 948 950 
3 952 951 953 
3 955 954 956 
3 958 957 959 
