ply
format ascii 1.0
comment VCGLIB generated
element vertex 316
property float x
property float y
property float z
property float nx
property float ny
property float nz
property float texture_u
property float texture_v
element face 176
property list uchar int vertex_indices
end_header
0 1.976009 0.52 -0.2079119 0 0.9781476 0.097835 0.505321
-0.211503 -0.023991 0.475044 -0.2079119 0 0.9781476 0.151248 0.000246
0 -0.023991 0.52 -0.2079119 0 0.9781476 0.097835 0.000246
-0.211503 1.976009 0.475044 -0.5877851 0 0.8090171 0.151248 0.505321
-0.386435 -0.023991 0.347948 -0.5877851 0 0.8090171 0.195425 0.000246
-0.211503 -0.023991 0.475044 -0.5877851 0 0.8090171 0.151248 0.000246
-0.386435 1.976009 0.347948 -0.8660253 0 0.5000002 0.390517 0.482337
-0.494549 -0.023991 0.160689 -0.8660253 0 0.5000002 0.437807 0.987412
-0.386435 -0.023991 0.347948 -0.8660253 0 0.5000002 0.390517 0.987412
-0.494549 1.976009 0.160689 -0.994522 0 0.104528 0.437807 0.482337
-0.517151 -0.023991 -0.054355 -0.994522 0 0.104528 0.492114 0.987412
-0.494549 -0.023991 0.160689 -0.994522 0 0.104528 0.437807 0.987412
-0.517151 1.976009 -0.054355 -0.9510565 0 -0.3090172 0.492114 0.482337
-0.450333 -0.023991 -0.26 -0.9510565 0 -0.3090172 0.544047 0.987412
-0.517151 -0.023991 -0.054355 -0.9510565 0 -0.3090172 0.492114 0.987412
-0.450333 1.976009 -0.26 -0.7431448 0 -0.6691307 0.544047 0.482337
-0.305648 -0.023991 -0.420689 -0.7431448 0 -0.6691307 0.584627 0.987412
-0.450333 -0.023991 -0.26 -0.7431448 0 -0.6691307 0.544047 0.987412
-0.305648 1.976009 -0.420689 -0.4067371 0 -0.9135453 0.585118 0.482337
-0.108114 -0.023991 -0.508637 -0.4067371 0 -0.9135453 0.635003 0.987412
-0.305648 -0.023991 -0.420689 -0.4067371 0 -0.9135453 0.585118 0.987412
-0.108114 1.976009 -0.508637 0 0 -1 0.635003 0.482337
0.108114 -0.023991 -0.508637 0 0 -1 0.689609 0.987412
-0.108114 -0.023991 -0.508637 0 0 -1 0.635003 0.987412
0.108114 1.976009 -0.508637 0.4067371 0 -0.9135453 0.689609 0.482337
0.305648 -0.023991 -0.420689 0.4067371 0 -0.9135453 0.739494 0.987412
0.108114 -0.023991 -0.508637 0.4067371 0 -0.9135453 0.689609 0.987412
0.305648 1.976009 -0.420689 0.7431452 0 -0.6691302 0.390026 0.482337
0.450333 -0.023991 -0.26 0.7431452 0 -0.6691302 0.349446 0.987412
0.305648 -0.023991 -0.420689 0.7431452 0 -0.6691302 0.390026 0.987412
0.450333 1.976009 -0.26 0.9510565 0 -0.3090172 0.349446 0.482337
0.517151 -0.023991 -0.054355 0.9510565 0 -0.3090172 0.297512 0.987412
0.450333 -0.023991 -0.26 0.9510565 0 -0.3090172 0.349446 0.987412
0.517151 1.976009 -0.054355 0.994522 0 0.104528 0.297513 0.482337
0.494549 -0.023991 0.160689 0.994522 0 0.104528 0.243206 0.987412
0.517151 -0.023991 -0.054355 0.994522 0 0.104528 0.297512 0.987412
0.494549 1.976009 0.160689 0.8660253 0 0.5000002 0.243206 0.482337
0.386435 -0.023991 0.347948 0.8660253 0 0.5000002 0.195916 0.987412
0.494549 -0.023991 0.160689 0.8660253 0 0.5000002 0.243206 0.987412
-0.386435 2.497087 0.347948 -0.5877851 -0 0.8090171 0.195425 0.636913
-0.386435 1.976009 0.347948 -0.5877851 -0 0.8090171 0.195425 0.505321
0.386435 1.976009 0.347948 0.5877851 0 0.8090171 0.000246 0.505321
0.211503 -0.023991 0.475044 0.5877851 0 0.8090171 0.044423 0.000246
0.386435 -0.023991 0.347948 0.5877851 0 0.8090171 0.000246 0.000246
0.211503 1.976009 0.475044 0.2079119 0 0.9781476 0.044423 0.505321
0 -0.023991 0.52 0.2079119 0 0.9781476 0.097835 0.000246
0.211503 -0.023991 0.475044 0.2079119 0 0.9781476 0.044423 0.000246
-0.450333 -0.023991 -0.26 -0 -1 -0 0.739985 0.130846
0.305648 -0.023991 -0.420689 -0 -1 -0 0.885031 0.261446
-0.211503 -0.023991 0.475044 -0 -1 -0 0.885031 0.000246
-0.517151 2.497087 -0.054355 -0.9251292 0.231905 -0.300593 0.492114 0.350745
-0.157379 3.884995 -0.090863 -0.9251292 0.231905 -0.300593 0.501333 0.000246
-0.450333 2.497087 -0.26 -0.9251292 0.231905 -0.300593 0.544047 0.350745
-0.305648 1.976009 -0.420689 -0.4067368 -0 -0.9135455 0.585118 0.482337
-0.108114 2.497087 -0.508637 -0.4067368 -0 -0.9135455 0.635003 0.350745
-0.108114 1.976009 -0.508637 -0.4067368 -0 -0.9135455 0.635003 0.482337
0.494549 2.497087 0.160689 0.994522 0 0.104528 0.243206 0.350745
0.494549 1.976009 0.160689 0.994522 0 0.104528 0.243206 0.482337
-0.517151 1.976009 -0.054355 -0.9510566 -0 -0.3090169 0.492114 0.482337
-0.450333 2.497087 -0.26 -0.9510566 -0 -0.3090169 0.544047 0.350745
-0.450333 1.976009 -0.26 -0.9510566 -0 -0.3090169 0.544047 0.482337
0.450333 2.497087 -0.26 0.7431452 0 -0.6691302 0.349446 0.350745
0.450333 1.976009 -0.26 0.7431452 0 -0.6691302 0.349446 0.482337
-0 2.497087 0.52 0.2079119 0 0.9781476 0.097835 0.636913
0 1.976009 0.52 0.2079119 0 0.9781476 0.097835 0.505321
-0.494549 2.497087 0.160689 -0.8660253 -0 0.5000002 0.437807 0.350745
-0.494549 1.976009 0.160689 -0.8660253 -0 0.5000002 0.437807 0.482337
0.108114 2.497087 -0.508637 0 0 -1 0.689609 0.350745
0.108114 1.976009 -0.508637 0 0 -1 0.689609 0.482337
-0.211503 2.497087 0.475044 -0.2079119 -0 0.9781476 0.151248 0.636913
-0.211503 1.976009 0.475044 -0.2079119 -0 0.9781476 0.151248 0.505321
0.386435 2.497087 0.347948 0.8660253 0 0.5000002 0.195916 0.350745
0.386435 1.976009 0.347948 0.8660253 0 0.5000002 0.195916 0.482337
-0.305648 2.497087 -0.420689 -0.7431448 -0 -0.6691307 0.584627 0.350745
-0.305648 1.976009 -0.420689 -0.7431448 -0 -0.6691307 0.584627 0.482337
0.450333 1.976009 -0.26 0.9510566 0 -0.3090169 0.349446 0.482337
0.517151 2.497087 -0.054355 0.9510566 0 -0.3090169 0.297513 0.350745
0.517151 1.976009 -0.054355 0.9510566 0 -0.3090169 0.297513 0.482337
-0.517151 2.497087 -0.054355 -0.994522 -0 0.104528 0.492114 0.350745
-0.517151 1.976009 -0.054355 -0.994522 -0 0.104528 0.492114 0.482337
0.305648 2.497087 -0.420689 0.4067371 0 -0.9135453 0.739494 0.350745
0.305648 1.976009 -0.420689 0.4067371 0 -0.9135453 0.739494 0.482337
0.211503 2.497087 0.475044 0.5877851 0 0.8090171 0.044423 0.636913
0.211503 1.976009 0.475044 0.5877851 0 0.8090171 0.044423 0.505321
0.180729 3.884995 -0.018995 0.5359868 -0.8423447 0.05633398 0.820370 0.394059
0.216317 3.913611 0.070286 0.5359868 -0.8423447 0.05633398 0.803428 0.376678
0.172831 3.884995 0.056156 0.5359868 -0.8423447 0.05633398 0.802221 0.388162
0.494549 2.497087 0.160689 0.8424162 0.2319051 0.4863692 0.243206 0.350745
0.135048 3.884995 0.121598 0.8424162 0.2319051 0.4863692 0.253078 0.000246
0.386435 2.497087 0.347948 0.8424162 0.2319051 0.4863692 0.195916 0.350745
-0.450333 2.497087 -0.26 -0.7228858 0.2319049 -0.6508888 0.544047 0.350745
-0.106815 3.884995 -0.147019 -0.7228858 0.2319049 -0.6508888 0.515515 0.000246
-0.305648 2.497087 -0.420689 -0.7228858 0.2319049 -0.6508888 0.584627 0.350745
0.386435 2.497087 0.347948 0.5717611 0.231905 0.7869621 0.000246 0.636913
0.073914 3.884995 0.166014 0.5717611 0.231905 0.7869621 0.079169 0.987412
0.211503 2.497087 0.475044 0.5717611 0.231905 0.7869621 0.044423 0.636913
-0.305648 2.497087 -0.420689 -0.395648 0.231905 -0.888641 0.585118 0.350745
-0.037783 3.884995 -0.177754 -0.395648 0.231905 -0.888641 0.652764 0.000246
-0.108114 2.497087 -0.508637 -0.395648 0.231905 -0.888641 0.635003 0.350745
0.211503 2.497087 0.475044 0.202244 0.2319049 0.9514818 0.044423 0.636913
-0 3.884995 0.181725 0.202244 0.2319049 0.9514818 0.097835 0.987412
-0 2.497087 0.52 0.202244 0.2319049 0.9514818 0.097835 0.636913
-0.108114 2.497087 -0.508637 0 0.2319051 -0.9727384 0.635003 0.350745
0.037783 3.884995 -0.177754 0 0.2319051 -0.9727384 0.671847 0.000246
0.108114 2.497087 -0.508637 0 0.2319051 -0.9727384 0.689609 0.350745
-0 2.497087 0.52 -0.202244 0.2319049 0.9514818 0.097835 0.636913
-0.073914 3.884995 0.166014 -0.202244 0.2319049 0.9514818 0.116501 0.987412
-0.211503 2.497087 0.475044 -0.202244 0.2319049 0.9514818 0.151248 0.636913
0.108114 2.497087 -0.508637 0.395648 0.231905 -0.888641 0.689609 0.350745
0.106815 3.884995 -0.147019 0.395648 0.231905 -0.888641 0.689281 0.000246
0.305648 2.497087 -0.420689 0.395648 0.231905 -0.888641 0.739494 0.350745
-0.211503 2.497087 0.475044 -0.5717611 0.231905 0.7869621 0.151248 0.636913
-0.135048 3.884995 0.121598 -0.5717611 0.231905 0.7869621 0.131940 0.987412
-0.386435 2.497087 0.347948 -0.5717611 0.231905 0.7869621 0.195425 0.636913
0.305648 2.497087 -0.420689 0.7228858 0.2319049 -0.6508888 0.390026 0.350745
0.157378 3.884995 -0.090862 0.7228858 0.2319049 -0.6508888 0.306732 0.000246
0.450333 2.497087 -0.26 0.7228858 0.2319049 -0.6508888 0.349446 0.350745
-0.386435 2.497087 0.347948 -0.8424162 0.2319051 0.4863692 0.390517 0.350745
-0.172831 3.884995 0.056156 -0.8424162 0.2319051 0.4863692 0.464205 0.000246
-0.494549 2.497087 0.160689 -0.8424162 0.2319051 0.4863692 0.437807 0.350745
0.517151 2.497087 -0.054355 0.9251294 0.2319051 -0.3005922 0.297513 0.350745
0.157378 3.884995 -0.090862 0.9251294 0.2319051 -0.3005922 0.306732 0.000246
0.180729 3.884995 -0.018995 0.9251294 0.2319051 -0.3005922 0.288583 0.000246
-0.494549 2.497087 0.160689 -0.9674097 0.2319049 0.101679 0.437807 0.350745
-0.18073 3.884995 -0.018995 -0.9674097 0.2319049 0.101679 0.483184 0.000246
-0.517151 2.497087 -0.054355 -0.9674097 0.2319049 0.101679 0.492114 0.350745
0.517151 2.497087 -0.054355 0.9674097 0.2319049 0.101679 0.297513 0.350745
0.172831 3.884995 0.056156 0.9674097 0.2319049 0.101679 0.269604 0.000246
0.494549 2.497087 0.160689 0.9674097 0.2319049 0.101679 0.243206 0.350745
-0.226203 3.913611 -0.023775 -0.9945219 -9.999999e-07 0.104529 0.784423 0.631028
-0.216317 4.126435 0.070286 -0.9945219 -9.999999e-07 0.104529 0.760670 0.577282
-0.226203 4.126435 -0.023775 -0.9945219 -9.999999e-07 0.104529 0.784423 0.577282
-0.18073 3.884995 -0.018995 -0.5125611 -0.8423451 -0.166541 0.783243 0.477449
-0.196977 3.913611 -0.113724 -0.5125611 -0.8423451 -0.166541 0.803428 0.490928
-0.157379 3.884995 -0.090863 -0.5125611 -0.8423451 -0.166541 0.802221 0.479444
0.135048 3.884995 0.121598 0.4667348 -0.8423447 0.2694699 0.783243 0.390157
0.216317 3.913611 0.070286 0.4667348 -0.8423447 0.2694699 0.803428 0.376678
0.169027 3.913611 0.152193 0.4667348 -0.8423447 0.2694699 0.779674 0.379175
-0.157379 3.884995 -0.090863 -0.4005099 -0.8423447 -0.3606209 0.802221 0.479444
-0.133691 3.913611 -0.18401 -0.4005099 -0.8423447 -0.3606209 0.826144 0.483547
-0.106815 3.884995 -0.147019 -0.4005099 -0.8423447 -0.3606209 0.820370 0.473547
0.135048 3.884995 0.121598 0.31678 -0.8423449 0.4360109 0.783243 0.390157
0.092512 3.913611 0.207785 0.31678 -0.8423449 0.4360109 0.758990 0.391117
0.073914 3.884995 0.166014 0.31678 -0.8423449 0.4360109 0.766716 0.399698
-0.106815 3.884995 -0.147019 -0.219206 -0.842345 -0.492345 0.820370 0.473547
-0.047289 3.913611 -0.222479 -0.219206 -0.842345 -0.492345 0.843894 0.467565
-0.037783 3.884995 -0.177754 -0.219206 -0.842345 -0.492345 0.834552 0.460778
-0 3.884995 0.181725 0.112052 -0.8423448 0.5271619 0.755499 0.415137
0.092512 3.913611 0.207785 0.112052 -0.8423448 0.5271619 0.758990 0.391117
-0 3.913611 0.227449 0.112052 -0.8423448 0.5271619 0.744951 0.410440
-0.037783 3.884995 -0.177754 0 -0.8423449 -0.5389389 0.834552 0.460778
0.047289 3.913611 -0.222479 0 -0.8423449 -0.5389389 0.853608 0.445745
0.037783 3.884995 -0.177754 0 -0.8423449 -0.5389389 0.842314 0.443344
-0.073914 3.884995 0.166014 -0.112052 -0.8423448 0.5271619 0.751532 0.433803
-0 3.913611 0.227449 -0.112052 -0.8423448 0.5271619 0.744951 0.410440
-0.092512 3.913611 0.207785 -0.112052 -0.8423448 0.5271619 0.739985 0.433803
0.037783 3.884995 -0.177754 0.219206 -0.842345 -0.492345 0.842314 0.443344
0.133691 3.913611 -0.18401 0.219206 -0.842345 -0.492345 0.853608 0.421860
0.106815 3.884995 -0.147019 0.219206 -0.842345 -0.492345 0.842314 0.424261
-0.073914 3.884995 0.166014 -0.31678 -0.8423449 0.4360109 0.751532 0.433803
-0.169028 3.913611 0.152193 -0.31678 -0.8423449 0.4360109 0.744951 0.457166
-0.135048 3.884995 0.121598 -0.31678 -0.8423449 0.4360109 0.755499 0.452469
0.106815 3.884995 -0.147019 0.4005099 -0.8423447 -0.3606209 0.842314 0.424261
0.196976 3.913611 -0.113724 0.4005099 -0.8423447 -0.3606209 0.843894 0.400041
0.157378 3.884995 -0.090862 0.4005099 -0.8423447 -0.3606209 0.834552 0.406828
-0.135048 3.884995 0.121598 -0.466735 -0.8423449 0.269469 0.755499 0.452469
-0.216317 3.913611 0.070286 -0.466735 -0.8423449 0.269469 0.758990 0.476489
-0.172831 3.884995 0.056156 -0.466735 -0.8423449 0.269469 0.766716 0.467908
0.157378 3.884995 -0.090862 0.5125618 -0.8423447 -0.1665409 0.834552 0.406828
0.226203 3.913611 -0.023775 0.5125618 -0.8423447 -0.1665409 0.826144 0.384059
0.180729 3.884995 -0.018995 0.5125618 -0.8423447 -0.1665409 0.820370 0.394059
-0.18073 3.884995 -0.018995 -0.5359868 -0.8423447 0.05633498 0.783243 0.477449
-0.216317 3.913611 0.070286 -0.5359868 -0.8423447 0.05633498 0.758990 0.476489
-0.226203 3.913611 -0.023775 -0.5359868 -0.8423447 0.05633498 0.779674 0.488431
0.226203 4.126435 -0.023775 -0 1 0 0.744951 0.342425
-0.196977 4.126435 -0.113724 -0 1 0 0.826144 0.269318
-0.216317 4.126435 0.070286 -0 1 0 0.853608 0.307120
0.216317 3.913611 0.070286 0.994522 1e-06 0.104528 0.760670 0.685266
0.226203 4.126435 -0.023775 0.994522 1e-06 0.104528 0.784423 0.631519
0.216317 4.126435 0.070286 0.994522 1e-06 0.104528 0.760670 0.631519
-0.226203 3.913611 -0.023775 -0.9510565 -1e-06 -0.3090172 0.784423 0.631028
-0.196977 4.126435 -0.113724 -0.9510565 -1e-06 -0.3090172 0.807139 0.577282
-0.196977 3.913611 -0.113724 -0.9510565 -1e-06 -0.3090172 0.807139 0.631028
0.169027 3.913611 0.152193 0.8660253 1e-06 0.5000002 0.739985 0.685266
0.216317 4.126435 0.070286 0.8660253 1e-06 0.5000002 0.760670 0.631519
0.169027 4.126435 0.152193 0.8660253 1e-06 0.5000002 0.739985 0.631519
-0.196977 3.913611 -0.113724 -0.7431448 -0 -0.6691307 0.807139 0.631028
-0.133691 4.126435 -0.18401 -0.7431448 -0 -0.6691307 0.824889 0.577282
-0.133691 3.913611 -0.18401 -0.7431448 -0 -0.6691307 0.824889 0.631028
0.092512 3.913611 0.207785 0.5877851 0 0.8090171 0.793731 0.510742
0.169027 4.126435 0.152193 0.5877851 0 0.8090171 0.739985 0.491419
0.092512 4.126435 0.207785 0.5877851 0 0.8090171 0.739985 0.510742
-0.133691 3.913611 -0.18401 -0.4067371 -0 -0.9135453 0.793731 0.753281
-0.04729 4.126435 -0.222479 -0.4067371 -0 -0.9135453 0.739985 0.731461
-0.047289 3.913611 -0.222479 -0.4067371 -0 -0.9135453 0.793731 0.731461
-0 3.913611 0.227449 0.2079119 0 0.9781476 0.793731 0.534105
0.092512 4.126435 0.207785 0.2079119 0 0.9781476 0.739985 0.510742
-0 4.126435 0.227449 0.2079119 0 0.9781476 0.739985 0.534105
-0.047289 3.913611 -0.222479 0 0 -1 0.793731 0.731461
0.047289 4.126435 -0.222479 0 0 -1 0.739985 0.707577
0.047289 3.913611 -0.222479 0 0 -1 0.793731 0.707577
-0.092512 3.913611 0.207785 -0.2079119 -0 0.9781476 0.793731 0.557467
-0 4.126435 0.227449 -0.2079119 -0 0.9781476 0.739985 0.534105
-0.092512 4.126435 0.207785 -0.2079119 -0 0.9781476 0.739985 0.557467
0.047289 3.913611 -0.222479 0.4067359 0 -0.9135458 0.793731 0.707577
0.133691 4.126435 -0.18401 0.4067359 0 -0.9135458 0.739985 0.685757
0.133691 3.913611 -0.18401 0.4067359 0 -0.9135458 0.793731 0.685757
-0.169028 3.913611 0.152193 -0.5877851 -0 0.8090171 0.793731 0.576790
-0.092512 4.126435 0.207785 -0.5877851 -0 0.8090171 0.739985 0.557467
-0.169028 4.126435 0.152193 -0.5877851 -0 0.8090171 0.739985 0.576791
0.133691 3.913611 -0.18401 0.7431452 0 -0.6691302 0.824889 0.685266
0.196976 4.126435 -0.113724 0.7431452 0 -0.6691302 0.807139 0.631519
0.196976 3.913611 -0.113724 0.7431452 0 -0.6691302 0.807139 0.685266
-0.216317 3.913611 0.070286 -0.8660256 -9.999995e-07 0.4999998 0.760670 0.631028
-0.169028 4.126435 0.152193 -0.8660256 -9.999995e-07 0.4999998 0.739985 0.577282
-0.216317 4.126435 0.070286 -0.8660256 -9.999995e-07 0.4999998 0.760670 0.577282
0.196976 3.913611 -0.113724 0.9510569 9.999999e-07 -0.309016 0.807139 0.685266
0.226203 4.126435 -0.023775 0.9510569 9.999999e-07 -0.309016 0.784423 0.631519
0.226203 3.913611 -0.023775 0.9510569 9.999999e-07 -0.309016 0.784423 0.685266
-0.450333 1.976009 -0.26 -0.9510565 0 -0.3090172 0.544047 0.482337
-0.108114 1.976009 -0.508637 -0.4067371 0 -0.9135453 0.635003 0.482337
0.517151 1.976009 -0.054355 0.9510565 0 -0.3090172 0.297513 0.482337
-0.211503 2.497087 0.475044 -0.5877851 -0 0.8090171 0.151248 0.636913
0.211503 -0.023991 0.475044 0 -1 0 0.977544 0.053658
0 -0.023991 0.52 0 -1 0 0.936964 0.017120
-0.386435 -0.023991 0.347948 0 -1 0 0.830724 0.005953
-0.494549 -0.023991 0.160689 0 -1 0 0.783434 0.033256
-0.517151 -0.023991 -0.054355 -0 -1 0 0.751338 0.077433
-0.305648 -0.023991 -0.420689 0 -1 0 0.751338 0.184258
-0.108114 -0.023991 -0.508637 0 -1 0 0.783434 0.228435
0.108114 -0.023991 -0.508637 0 -1 -0 0.830724 0.255738
0.450333 -0.023991 -0.26 0 -1 -0 0.936964 0.244572
0.386435 -0.023991 0.347948 0 -1 -0 0.999754 0.103543
0.517151 -0.023991 -0.054355 0 -1 0 0.977544 0.208034
0.494549 -0.023991 0.160689 0 -1 0 0.999754 0.158149
-0.18073 3.884995 -0.018995 -0.9251292 0.231905 -0.300593 0.483184 0.000246
-0.305648 2.497087 -0.420689 -0.4067371 -0 -0.9135453 0.585118 0.350745
-0.108114 2.497087 -0.508637 -0.4067371 -0 -0.9135453 0.635003 0.350745
0.517151 2.497087 -0.054355 0.994522 0 0.104528 0.297513 0.350745
-0.517151 2.497087 -0.054355 -0.9510565 -0 -0.3090172 0.492114 0.350745
-0.450333 2.497087 -0.26 -0.9510565 -0 -0.3090172 0.544047 0.350745
0.305648 2.497087 -0.420689 0.7431452 0 -0.6691302 0.390026 0.350745
0.211503 2.497087 0.475044 0.2079119 0 0.9781476 0.044423 0.636913
-0.386435 2.497087 0.347948 -0.8660253 -0 0.5000002 0.390517 0.350745
-0.108114 2.497087 -0.508637 0 0 -1 0.635003 0.350745
-0 2.497087 0.52 -0.2079119 -0 0.9781476 0.097835 0.636913
0.494549 2.497087 0.160689 0.8660253 0 0.5000002 0.243206 0.350745
-0.450333 2.497087 -0.26 -0.7431448 -0 -0.6691307 0.544047 0.350745
0.450333 2.497087 -0.26 0.9510566 0 -0.3090169 0.349446 0.350745
-0.494549 2.497087 0.160689 -0.994522 -0 0.104528 0.437807 0.350745
0.108114 2.497087 -0.508637 0.4067371 0 -0.9135453 0.689609 0.350745
0.386435 2.497087 0.347948 0.5877851 0 0.8090171 0.000246 0.636913
0.226203 3.913611 -0.023775 0.5359868 -0.8423447 0.05633398 0.826144 0.384059
0.172831 3.884995 0.056156 0.8424162 0.2319051 0.4863692 0.269604 0.000246
-0.450333 2.497087 -0.26 -0.7228853 0.2319051 -0.6508893 0.544047 0.350745
-0.157379 3.884995 -0.090863 -0.7228853 0.2319051 -0.6508893 0.501333 0.000246
-0.106815 3.884995 -0.147019 -0.7228853 0.2319051 -0.6508893 0.515515 0.000246
0.135048 3.884995 0.121598 0.5717611 0.231905 0.7869621 0.063730 0.987412
-0.305648 2.497087 -0.420689 -0.3956488 0.2319049 -0.8886407 0.585118 0.350745
-0.106815 3.884995 -0.147019 -0.3956488 0.2319049 -0.8886407 0.635331 0.000246
-0.037783 3.884995 -0.177754 -0.3956488 0.2319049 -0.8886407 0.652764 0.000246
0.073914 3.884995 0.166014 0.202244 0.2319049 0.9514818 0.079169 0.987412
-0.108114 2.497087 -0.508637 0 0.2319049 -0.9727385 0.635003 0.350745
-0.037783 3.884995 -0.177754 0 0.2319049 -0.9727385 0.652764 0.000246
0.037783 3.884995 -0.177754 0 0.2319049 -0.9727385 0.671847 0.000246
-0 3.884995 0.181725 -0.202244 0.2319049 0.9514818 0.097835 0.987412
0.037783 3.884995 -0.177754 0.395648 0.231905 -0.888641 0.671847 0.000246
-0.073914 3.884995 0.166014 -0.5717611 0.231905 0.7869621 0.116501 0.987412
0.106815 3.884995 -0.147019 0.7228858 0.2319049 -0.6508888 0.320914 0.000246
-0.135048 3.884995 0.121598 -0.8424162 0.2319051 0.4863692 0.447679 0.000246
0.450333 2.497087 -0.26 0.9251294 0.2319051 -0.3005922 0.349446 0.350745
-0.172831 3.884995 0.056156 -0.9674097 0.2319049 0.101679 0.464205 0.000246
0.517151 2.497087 -0.054355 0.9674098 0.2319049 0.101678 0.297513 0.350745
0.180729 3.884995 -0.018995 0.9674098 0.2319049 0.101678 0.288583 0.000246
0.172831 3.884995 0.056156 0.9674098 0.2319049 0.101678 0.269604 0.000246
-0.216317 3.913611 0.070286 -0.9945219 -9.999999e-07 0.104529 0.760670 0.631028
-0.226203 3.913611 -0.023775 -0.5125611 -0.8423451 -0.166541 0.779674 0.488431
0.172831 3.884995 0.056156 0.4667348 -0.8423447 0.2694699 0.802221 0.388162
-0.196977 3.913611 -0.113724 -0.4005099 -0.8423447 -0.3606209 0.803428 0.490928
0.169027 3.913611 0.152193 0.31678 -0.8423449 0.4360109 0.779674 0.379175
-0.133691 3.913611 -0.18401 -0.219206 -0.842345 -0.492345 0.826144 0.483547
0.073914 3.884995 0.166014 0.112052 -0.8423448 0.5271619 0.766716 0.399698
-0.047289 3.913611 -0.222479 0 -0.8423449 -0.5389389 0.843894 0.467565
-0 3.884995 0.181725 -0.112052 -0.8423448 0.5271619 0.755499 0.415137
0.047289 3.913611 -0.222479 0.219206 -0.842345 -0.492345 0.853608 0.445745
-0.092512 3.913611 0.207785 -0.31678 -0.8423449 0.4360109 0.739985 0.433803
0.133691 3.913611 -0.18401 0.4005099 -0.8423447 -0.3606209 0.853608 0.421860
-0.169028 3.913611 0.152193 -0.466735 -0.8423449 0.269469 0.744951 0.457166
0.196976 3.913611 -0.113724 0.5125618 -0.8423447 -0.1665409 0.843894 0.400041
-0.172831 3.884995 0.056156 -0.5359868 -0.8423447 0.05633498 0.766716 0.467908
-0.169028 4.126435 0.152193 0 1 -0 0.853608 0.331004
-0.092512 4.126435 0.207785 0 1 -0 0.843894 0.352824
-0 4.126435 0.227449 0 1 0 0.826144 0.368806
0.092512 4.126435 0.207785 0 1 0 0.803428 0.376187
0.169027 4.126435 0.152193 0 1 0 0.779674 0.373690
0.216317 4.126435 0.070286 0 1 0 0.758990 0.361748
0.196976 4.126435 -0.113724 0 1 0 0.739985 0.319062
0.133691 4.126435 -0.18401 0 1 0 0.744951 0.295699
0.047289 4.126435 -0.222479 -0 1 0 0.758990 0.276376
-0.04729 4.126435 -0.222479 0 1 0 0.779675 0.264434
-0.133691 4.126435 -0.18401 0 1 0 0.803428 0.261937
-0.226203 4.126435 -0.023775 0 1 0 0.843894 0.285300
0.226203 3.913611 -0.023775 0.994522 1e-06 0.104528 0.784423 0.685266
-0.226203 4.126435 -0.023775 -0.9510565 -1e-06 -0.3090172 0.784423 0.577282
0.216317 3.913611 0.070286 0.8660253 1e-06 0.5000002 0.760670 0.685266
-0.196977 4.126435 -0.113724 -0.7431448 -0 -0.6691307 0.807139 0.577282
0.169027 3.913611 0.152193 0.5877851 0 0.8090171 0.793731 0.491419
-0.133691 4.126435 -0.18401 -0.4067371 -0 -0.9135453 0.739985 0.753281
0.092512 3.913611 0.207785 0.2079119 0 0.9781476 0.793731 0.510742
-0.04729 4.126435 -0.222479 0 0 -1 0.739985 0.731461
-0 3.913611 0.227449 -0.2079119 -0 0.9781476 0.793731 0.534105
0.047289 4.126435 -0.222479 0.4067359 0 -0.9135458 0.739985 0.707577
-0.092512 3.913611 0.207785 -0.5877851 -0 0.8090171 0.793731 0.557467
0.133691 4.126435 -0.18401 0.7431452 0 -0.6691302 0.824889 0.631519
-0.169028 3.913611 0.152193 -0.8660256 -9.999995e-07 0.4999998 0.739985 0.631028
0.196976 4.126435 -0.113724 0.9510569 9.999999e-07 -0.309016 0.807139 0.631519
3 0 1 2 
3 3 4 5 
3 6 7 8 
3 9 10 11 
3 12 13 14 
3 15 16 17 
3 18 19 20 
3 21 22 23 
3 24 25 26 
3 27 28 29 
3 30 31 32 
3 33 34 35 
3 36 37 38 
3 3 39 40 
3 41 42 43 
3 44 45 46 
3 47 48 49 
3 50 51 52 
3 53 54 55 
3 33 56 57 
3 58 59 60 
3 27 61 62 
3 44 63 64 
3 6 65 66 
3 21 67 68 
3 0 69 70 
3 36 71 72 
3 15 73 74 
3 75 76 77 
3 9 78 79 
3 24 80 81 
3 41 82 83 
3 84 85 86 
3 87 88 89 
3 90 91 92 
3 93 94 95 
3 96 97 98 
3 99 100 101 
3 102 103 104 
3 105 106 107 
3 108 109 110 
3 111 112 113 
3 114 115 116 
3 117 118 119 
3 120 121 122 
3 123 124 125 
3 126 127 128 
3 129 130 131 
3 132 133 134 
3 135 136 137 
3 138 139 140 
3 141 142 143 
3 144 145 146 
3 147 148 149 
3 150 151 152 
3 153 154 155 
3 156 157 158 
3 159 160 161 
3 162 163 164 
3 165 166 167 
3 168 169 170 
3 171 172 173 
3 174 175 176 
3 177 178 179 
3 180 181 182 
3 183 184 185 
3 186 187 188 
3 189 190 191 
3 192 193 194 
3 195 196 197 
3 198 199 200 
3 201 202 203 
3 204 205 206 
3 207 208 209 
3 210 211 212 
3 213 214 215 
3 216 217 218 
3 0 70 1 
3 3 40 4 
3 6 66 7 
3 9 79 10 
3 12 219 13 
3 15 74 16 
3 18 220 19 
3 21 68 22 
3 24 81 25 
3 27 62 28 
3 30 221 31 
3 33 57 34 
3 36 72 37 
3 3 222 39 
3 41 83 42 
3 44 64 45 
3 223 224 49 
3 49 225 226 
3 226 227 49 
3 47 228 229 
3 229 230 47 
3 48 231 232 
3 233 234 232 
3 232 223 49 
3 49 227 47 
3 47 230 48 
3 231 233 232 
3 232 49 48 
3 50 235 51 
3 18 236 237 
3 33 238 56 
3 12 239 240 
3 27 241 61 
3 44 242 63 
3 6 243 65 
3 21 244 67 
3 0 245 69 
3 36 246 71 
3 15 247 73 
3 75 248 76 
3 9 249 78 
3 24 250 80 
3 41 251 82 
3 84 252 85 
3 87 253 88 
3 254 255 256 
3 93 257 94 
3 258 259 260 
3 99 261 100 
3 262 263 264 
3 105 265 106 
3 108 266 109 
3 111 267 112 
3 114 268 115 
3 117 269 118 
3 120 270 121 
3 123 271 124 
3 272 273 274 
3 129 275 130 
3 132 276 133 
3 135 277 136 
3 138 278 139 
3 141 279 142 
3 144 280 145 
3 147 281 148 
3 150 282 151 
3 153 283 154 
3 156 284 157 
3 159 285 160 
3 162 286 163 
3 165 287 166 
3 168 288 169 
3 171 289 172 
3 290 291 176 
3 292 293 174 
3 294 295 174 
3 174 296 297 
3 297 298 174 
3 299 300 175 
3 175 301 176 
3 176 291 292 
3 293 294 174 
3 174 298 299 
3 299 175 174 
3 176 292 174 
3 177 302 178 
3 180 303 181 
3 183 304 184 
3 186 305 187 
3 189 306 190 
3 192 307 193 
3 195 308 196 
3 198 309 199 
3 201 310 202 
3 204 311 205 
3 207 312 208 
3 210 313 211 
3 213 314 214 
3 216 315 217 
