ply
format ascii 1.0
comment Created by Blender 2.78 (sub 0) - www.blender.org, source file: ''
element vertex 80
property float x
property float y
property float z
property float nx
property float ny
property float nz
property float s
property float t
element face 44
property list uchar uint vertex_indices
end_header
1.000058 1.239456 33.161217 0.382683 0.923880 0.000000 0.041075 0.361322
1.707165 0.946563 -0.215014 0.382683 0.923880 0.000000 0.999850 0.381634
1.000058 1.239456 -0.215014 0.382683 0.923880 0.000000 0.999850 0.361322
1.707165 0.946563 33.161217 0.923879 0.382684 -0.000000 0.000150 0.000150
2.000058 0.239456 32.035809 0.923879 0.382684 -0.000000 0.020463 0.032479
2.000058 0.239456 26.861170 0.923879 0.382684 -0.000000 0.020462 0.181127
2.000058 0.239456 -0.215014 0.923879 -0.382684 0.000000 0.020462 0.958925
1.707165 -0.467651 26.798679 0.923879 -0.382684 0.000000 0.040775 0.182922
1.707165 -0.467651 -0.215014 0.923879 -0.382684 0.000000 0.040775 0.958925
1.707165 -0.467651 26.798679 0.382683 -0.923880 0.000000 0.182922 0.999850
1.000058 -0.760544 33.161217 0.382683 -0.923880 0.000000 0.000150 0.979538
1.000058 -0.760544 -0.215014 0.382683 -0.923880 0.000000 0.958925 0.979538
1.000058 -0.760544 33.161217 -0.382684 -0.923880 0.000000 0.000150 0.979538
0.292951 -0.467651 -0.215014 -0.382684 -0.923880 0.000000 0.958925 0.959225
1.000058 -0.760544 -0.215014 -0.382684 -0.923880 0.000000 0.958925 0.979538
0.292951 -0.467651 33.161217 -0.923880 -0.382683 0.000000 0.041075 0.000150
0.000058 0.239456 -0.215014 -0.923880 -0.382683 0.000000 0.999850 0.020462
0.292951 -0.467651 -0.215014 -0.923880 -0.382683 0.000000 0.999850 0.000150
0.000058 0.239456 33.161217 0.000000 0.000000 1.000000 0.291128 0.260098
1.000058 -0.760544 33.161217 0.000000 0.000000 1.000000 0.306675 0.297631
1.000058 1.239456 33.161217 0.000000 0.000000 1.000000 0.253595 0.275644
0.000058 0.239456 33.161217 -0.923880 0.382683 0.000000 0.041075 0.020462
0.292951 0.946562 -0.215014 -0.923880 0.382683 0.000000 0.999850 0.040775
0.000058 0.239456 -0.215014 -0.923880 0.382683 0.000000 0.999850 0.020462
0.292951 0.946562 33.161217 -0.382683 0.923880 0.000000 0.041075 0.340709
1.000058 1.239456 -0.215014 -0.382683 0.923880 0.000000 0.999850 0.361022
0.292951 0.946562 -0.215014 -0.382683 0.923880 0.000000 0.999850 0.340709
1.707165 -0.467651 -0.215014 0.000000 -0.000000 -1.000000 0.335181 0.094154
0.000058 0.239456 -0.215014 0.000000 -0.000000 -1.000000 0.335181 0.041075
0.292951 0.946562 -0.215014 0.000000 -0.000000 -1.000000 0.313195 0.041075
2.000058 0.239456 32.035809 0.923879 -0.382684 0.000000 0.297705 0.094454
1.707165 -0.467651 33.161217 0.923879 -0.382684 0.000000 0.330033 0.114766
1.707165 -0.467651 32.033844 0.923879 -0.382684 0.000000 0.297648 0.114766
1.707165 -0.467651 32.033844 -0.236633 -0.971599 -0.000000 0.253296 0.041075
9.094853 -2.266919 29.198606 -0.236633 -0.971599 -0.000000 0.041075 0.122521
9.094853 -2.266919 29.663286 -0.236633 -0.971599 -0.000000 0.041075 0.109172
9.120851 -2.204156 29.204153 0.923882 -0.382678 0.000000 0.245929 0.204956
9.094853 -2.266919 29.663286 0.923882 -0.382678 0.000000 0.247731 0.191766
9.094853 -2.266919 29.198606 0.923882 -0.382678 0.000000 0.247731 0.205115
2.000058 0.239456 32.035809 0.277346 -0.117545 0.953553 0.253595 0.044443
9.094853 -2.266919 29.663286 0.277346 -0.117545 0.953553 0.275322 0.259499
9.120851 -2.204156 29.663462 0.277346 -0.117545 0.953553 0.273394 0.259798
2.000058 0.239456 26.861170 0.299892 -0.039986 -0.953135 0.275622 0.044443
9.094853 -2.266919 29.198606 0.299892 -0.039986 -0.953135 0.297348 0.259499
1.707165 -0.467651 26.798679 0.299892 -0.039986 -0.953135 0.297348 0.041075
2.000058 0.239456 26.861170 0.324585 0.945856 -0.000000 0.245629 0.340410
9.120851 -2.204156 29.663462 0.324585 0.945856 -0.000000 0.041075 0.259910
9.120851 -2.204156 29.204153 0.324585 0.945856 -0.000000 0.041075 0.273104
1.707165 0.946563 33.161217 0.382683 0.923880 -0.000000 0.041075 0.381634
2.000058 0.239456 -0.215014 0.923879 0.382684 0.000000 0.020462 0.958925
1.707165 0.946563 -0.215014 0.923879 0.382684 0.000000 0.000150 0.958925
2.000058 0.239456 33.161217 0.923879 0.382684 -0.000000 0.020463 0.000150
2.000058 0.239456 26.861170 0.923879 -0.382684 0.000000 0.020462 0.181127
1.707165 -0.467651 -0.215014 0.382683 -0.923880 0.000000 0.958925 0.999850
1.707165 -0.467651 32.033844 0.382683 -0.923880 0.000000 0.032535 0.999850
1.707165 -0.467651 33.161217 0.382683 -0.923880 0.000000 0.000150 0.999850
0.292951 -0.467651 33.161217 -0.382684 -0.923880 0.000000 0.000150 0.959225
0.000058 0.239456 33.161217 -0.923880 -0.382683 0.000000 0.041075 0.020462
2.000058 0.239456 33.161217 0.000000 0.000000 1.000000 0.269142 0.313177
1.707165 0.946563 33.161217 0.000000 0.000000 1.000000 0.253595 0.297631
0.292951 0.946562 33.161217 0.000000 0.000000 1.000000 0.269142 0.260098
0.292951 -0.467651 33.161217 0.000000 0.000000 1.000000 0.306675 0.275644
1.707165 -0.467651 33.161217 0.000000 0.000000 1.000000 0.291128 0.313177
0.292951 0.946562 33.161217 -0.923880 0.382683 0.000000 0.041075 0.040775
1.000058 1.239456 33.161217 -0.382683 0.923880 0.000000 0.041075 0.361022
1.000058 1.239456 -0.215014 -0.000000 0.000000 -1.000000 0.297648 0.056621
1.707165 0.946563 -0.215014 0.000000 0.000000 -1.000000 0.297648 0.078607
2.000058 0.239456 -0.215014 0.000000 0.000000 -1.000000 0.313195 0.094154
1.000058 -0.760544 -0.215014 0.000000 0.000000 -1.000000 0.350728 0.078607
0.292951 -0.467651 -0.215014 0.000000 0.000000 -1.000000 0.350728 0.056621
2.000058 0.239456 33.161217 0.923879 -0.382684 0.000000 0.330033 0.094454
1.707165 -0.467651 26.798679 -0.236633 -0.971599 0.000000 0.253296 0.191462
9.120851 -2.204156 29.663462 0.923882 -0.382678 0.000000 0.245929 0.191761
2.000058 0.239456 32.035809 0.277351 -0.117532 0.953553 0.253595 0.044443
1.707165 -0.467651 32.033844 0.277351 -0.117532 0.953553 0.275322 0.041075
9.094853 -2.266919 29.663286 0.277351 -0.117532 0.953553 0.275322 0.259499
2.000058 0.239456 26.861170 0.299892 -0.039987 -0.953135 0.275622 0.044443
9.120851 -2.204156 29.204153 0.299892 -0.039987 -0.953135 0.295420 0.259798
9.094853 -2.266919 29.198606 0.299892 -0.039987 -0.953135 0.297348 0.259499
2.000058 0.239456 32.035809 0.324585 0.945856 0.000000 0.245629 0.191761
3 0 1 2
3 3 4 5
3 6 7 8
3 9 10 11
3 12 13 14
3 15 16 17
3 18 19 20
3 21 22 23
3 24 25 26
3 27 28 29
3 30 31 32
3 33 34 35
3 36 37 38
3 39 40 41
3 42 43 44
3 45 46 47
3 0 48 1
3 49 50 5
3 3 51 4
3 5 50 3
3 6 52 7
3 11 53 9
3 9 54 10
3 55 10 54
3 12 56 13
3 15 57 16
3 58 59 20
3 20 60 18
3 18 61 19
3 19 62 58
3 58 20 19
3 21 63 22
3 24 64 25
3 29 65 27
3 66 67 27
3 27 68 69
3 69 28 27
3 65 66 27
3 30 70 31
3 33 71 34
3 36 72 37
3 73 74 75
3 76 77 78
3 45 79 46
